 n,err,
           0 ,                       NaN ,
           1 ,                       NaN ,
           2 ,   3.1338698497168016      ,
           3 ,   1.7812010057057210      ,
           4 ,  0.60077316252987822      ,
           5 ,  0.20635815399338053      ,
           6 ,   6.3826749145434292E-002 ,
           7 ,   1.8573106599621081E-002 ,
           8 ,   5.0988924142210124E-003 ,
           9 ,   1.3313115157491673E-003 ,
          10 ,   3.3243762483659012E-004 ,
          11 ,   7.9750826355695636E-005 ,
          12 ,   1.8449977341905566E-005 ,
          13 ,   4.1291813501764807E-006 ,
          14 ,   8.9640504086219153E-007 ,
          15 ,   1.8919874111844592E-007 ,
          16 ,   3.8902201016099980E-008 ,
          17 ,   7.8060615749109274E-009 ,
          18 ,   1.5309518097694763E-009 ,
          19 ,   2.9387159372618044E-010 ,
          20 ,   5.5277560306876694E-011 ,
          21 ,   1.0199840971836238E-011 ,
          22 ,   1.8482992913959606E-012 ,
          23 ,   3.2995828291859652E-013 ,
          24 ,   5.8175686490358203E-014 ,
          25 ,   9.7699626167013776E-015 ,
          26 ,   1.3322676295501878E-015 ,
          27 ,   4.4408920985006262E-016 ,
          28 ,   8.8817841970012523E-016 ,
          29 ,   8.8817841970012523E-016 ,
          30 ,   4.4408920985006262E-016 ,
          31 ,   1.3322676295501878E-015 ,
          32 ,   1.7763568394002505E-015 ,
          33 ,   1.7763568394002505E-015 ,
          34 ,   3.1086244689504383E-015 ,
          35 ,   8.8817841970012523E-016 ,
          36 ,   8.8817841970012523E-016 ,
          37 ,   1.7763568394002505E-015 ,
          38 ,   0.0000000000000000      ,
          39 ,   8.8817841970012523E-016 ,
          40 ,   1.7763568394002505E-015 ,
          41 ,   4.4408920985006262E-016 ,
          42 ,   0.0000000000000000      ,
          43 ,   4.4408920985006262E-016 ,
          44 ,   8.8817841970012523E-016 ,
          45 ,   0.0000000000000000      ,
          46 ,   1.3322676295501878E-015 ,
          47 ,   8.8817841970012523E-016 ,
          48 ,   8.8817841970012523E-016 ,
          49 ,   4.4408920985006262E-016 ,
          50 ,   0.0000000000000000      ,
          51 ,   0.0000000000000000      ,
          52 ,   8.8817841970012523E-016 ,
          53 ,   0.0000000000000000      ,
          54 ,   1.3322676295501878E-015 ,
          55 ,   2.2204460492503131E-015 ,
          56 ,   8.8817841970012523E-016 ,
          57 ,   4.4408920985006262E-016 ,
          58 ,   4.4408920985006262E-016 ,
          59 ,   8.8817841970012523E-016 ,
          60 ,   1.3322676295501878E-015 ,
          61 ,   1.7763568394002505E-015 ,
          62 ,   1.3322676295501878E-015 ,
          63 ,   2.2204460492503131E-015 ,
          64 ,   1.7763568394002505E-015 ,
          65 ,   8.8817841970012523E-016 ,
          66 ,   0.0000000000000000      ,
          67 ,   4.4408920985006262E-016 ,
          68 ,   0.0000000000000000      ,
          69 ,   8.8817841970012523E-016 ,
          70 ,   8.8817841970012523E-016 ,
          71 ,   1.7763568394002505E-015 ,
          72 ,   1.3322676295501878E-015 ,
          73 ,   4.4408920985006262E-016 ,
          74 ,   1.7763568394002505E-015 ,
          75 ,   1.3322676295501878E-015 ,
          76 ,   4.4408920985006262E-016 ,
          77 ,   8.8817841970012523E-016 ,
          78 ,   2.6645352591003757E-015 ,
          79 ,   1.3322676295501878E-015 ,
          80 ,   8.8817841970012523E-016 ,
          81 ,   1.3322676295501878E-015 ,
          82 ,   0.0000000000000000      ,
          83 ,   1.3322676295501878E-015 ,
          84 ,   1.3322676295501878E-015 ,
          85 ,   1.3322676295501878E-015 ,
          86 ,   0.0000000000000000      ,
          87 ,   2.6645352591003757E-015 ,
          88 ,   1.7763568394002505E-015 ,
          89 ,   1.3322676295501878E-015 ,
          90 ,   2.2204460492503131E-015 ,
          91 ,   0.0000000000000000      ,
          92 ,   0.0000000000000000      ,
          93 ,   1.3322676295501878E-015 ,
          94 ,   2.6645352591003757E-015 ,
          95 ,   4.4408920985006262E-016 ,
          96 ,   2.6645352591003757E-015 ,
          97 ,   0.0000000000000000      ,
          98 ,   2.2204460492503131E-015 ,
          99 ,   4.4408920985006262E-016 ,
         100 ,   4.4408920985006262E-016 ,
         101 ,   0.0000000000000000      ,
         102 ,   0.0000000000000000      ,
         103 ,   1.3322676295501878E-015 ,
         104 ,   1.7763568394002505E-015 ,
         105 ,   2.6645352591003757E-015 ,
         106 ,   1.7763568394002505E-015 ,
         107 ,   1.3322676295501878E-015 ,
         108 ,   1.3322676295501878E-015 ,
         109 ,   8.8817841970012523E-016 ,
         110 ,   3.5527136788005009E-015 ,
         111 ,   1.3322676295501878E-015 ,
         112 ,   1.3322676295501878E-015 ,
         113 ,   3.1086244689504383E-015 ,
         114 ,   0.0000000000000000      ,
         115 ,   2.2204460492503131E-015 ,
         116 ,   8.8817841970012523E-016 ,
         117 ,   4.4408920985006262E-016 ,
         118 ,   1.3322676295501878E-015 ,
         119 ,   4.4408920985006262E-016 ,
         120 ,   0.0000000000000000      ,
         121 ,   4.4408920985006262E-016 ,
         122 ,   4.4408920985006262E-016 ,
         123 ,   8.8817841970012523E-016 ,
         124 ,   0.0000000000000000      ,
         125 ,   0.0000000000000000      ,
         126 ,   8.8817841970012523E-016 ,
         127 ,   8.8817841970012523E-016 ,
         128 ,   4.4408920985006262E-016 ,
         129 ,   4.4408920985006262E-016 ,
         130 ,   0.0000000000000000      ,
         131 ,   4.4408920985006262E-016 ,
         132 ,   0.0000000000000000      ,
         133 ,   4.4408920985006262E-016 ,
         134 ,   8.8817841970012523E-016 ,
         135 ,   4.4408920985006262E-016 ,
         136 ,   1.3322676295501878E-015 ,
         137 ,   2.2204460492503131E-015 ,
         138 ,   0.0000000000000000      ,
         139 ,   1.7763568394002505E-015 ,
         140 ,   0.0000000000000000      ,
         141 ,   4.4408920985006262E-016 ,
         142 ,   0.0000000000000000      ,
         143 ,   8.8817841970012523E-016 ,
         144 ,   1.3322676295501878E-015 ,
         145 ,   1.3322676295501878E-015 ,
         146 ,   4.4408920985006262E-016 ,
         147 ,   0.0000000000000000      ,
         148 ,   0.0000000000000000      ,
         149 ,   1.7763568394002505E-015 ,
         150 ,   8.8817841970012523E-016 ,
         151 ,   8.8817841970012523E-016 ,
         152 ,   1.3322676295501878E-015 ,
         153 ,   1.3322676295501878E-015 ,
         154 ,   0.0000000000000000      ,
         155 ,   4.4408920985006262E-016 ,
         156 ,   4.4408920985006262E-016 ,
         157 ,   8.8817841970012523E-016 ,
         158 ,   1.3322676295501878E-015 ,
         159 ,   2.6645352591003757E-015 ,
         160 ,   0.0000000000000000      ,
         161 ,   0.0000000000000000      ,
         162 ,   4.4408920985006262E-016 ,
         163 ,   8.8817841970012523E-016 ,
         164 ,   4.4408920985006262E-016 ,
         165 ,   1.7763568394002505E-015 ,
         166 ,   4.4408920985006262E-016 ,
         167 ,   4.4408920985006262E-016 ,
         168 ,   0.0000000000000000      ,
         169 ,   3.1086244689504383E-015 ,
         170 ,   2.6645352591003757E-015 ,
         171 ,   1.7763568394002505E-015 ,
         172 ,   0.0000000000000000      ,
         173 ,   3.1086244689504383E-015 ,
         174 ,   2.6645352591003757E-015 ,
         175 ,   1.7763568394002505E-015 ,
         176 ,   3.9968028886505635E-015 ,
         177 ,   3.5527136788005009E-015 ,
         178 ,   1.3322676295501878E-015 ,
         179 ,   8.8817841970012523E-016 ,
         180 ,   1.3322676295501878E-015 ,
         181 ,   1.7763568394002505E-015 ,
         182 ,   4.4408920985006262E-016 ,
         183 ,   3.1086244689504383E-015 ,
         184 ,   4.4408920985006262E-015 ,
         185 ,   1.7763568394002505E-015 ,
         186 ,   4.4408920985006262E-016 ,
         187 ,   0.0000000000000000      ,
         188 ,   2.2204460492503131E-015 ,
         189 ,   3.1086244689504383E-015 ,
         190 ,   4.4408920985006262E-015 ,
         191 ,   1.3322676295501878E-015 ,
         192 ,   3.1086244689504383E-015 ,
         193 ,   0.0000000000000000      ,
         194 ,   3.5527136788005009E-015 ,
         195 ,   4.4408920985006262E-016 ,
         196 ,   1.7763568394002505E-015 ,
         197 ,   2.6645352591003757E-015 ,
         198 ,   8.8817841970012523E-016 ,
         199 ,   0.0000000000000000      ,
         200 ,   4.4408920985006262E-016 ,
         201 ,   3.1086244689504383E-015 ,
         202 ,   3.1086244689504383E-015 ,
         203 ,   2.6645352591003757E-015 ,
         204 ,   3.5527136788005009E-015 ,
         205 ,   1.7763568394002505E-015 ,
         206 ,   1.3322676295501878E-015 ,
         207 ,   8.8817841970012523E-016 ,
         208 ,   8.8817841970012523E-016 ,
         209 ,   1.3322676295501878E-015 ,
         210 ,   2.6645352591003757E-015 ,
         211 ,   0.0000000000000000      ,
         212 ,   1.3322676295501878E-015 ,
         213 ,   4.4408920985006262E-016 ,
         214 ,   2.2204460492503131E-015 ,
         215 ,   3.9968028886505635E-015 ,
         216 ,   2.6645352591003757E-015 ,
         217 ,   2.2204460492503131E-015 ,
         218 ,   2.2204460492503131E-015 ,
         219 ,   1.3322676295501878E-015 ,
         220 ,   4.4408920985006262E-016 ,
         221 ,   1.7763568394002505E-015 ,
         222 ,   2.2204460492503131E-015 ,
         223 ,   2.2204460492503131E-015 ,
         224 ,   4.4408920985006262E-016 ,
         225 ,   8.8817841970012523E-016 ,
         226 ,   4.4408920985006262E-016 ,
         227 ,   2.6645352591003757E-015 ,
         228 ,   2.6645352591003757E-015 ,
         229 ,   4.4408920985006262E-016 ,
         230 ,   8.8817841970012523E-016 ,
         231 ,   1.7763568394002505E-015 ,
         232 ,   2.6645352591003757E-015 ,
         233 ,   2.2204460492503131E-015 ,
         234 ,   2.6645352591003757E-015 ,
         235 ,   0.0000000000000000      ,
         236 ,   3.5527136788005009E-015 ,
         237 ,   4.4408920985006262E-016 ,
         238 ,   2.6645352591003757E-015 ,
         239 ,   4.4408920985006262E-016 ,
         240 ,   5.3290705182007514E-015 ,
         241 ,   3.9968028886505635E-015 ,
         242 ,   0.0000000000000000      ,
         243 ,   2.2204460492503131E-015 ,
         244 ,   4.8849813083506888E-015 ,
         245 ,   2.6645352591003757E-015 ,
         246 ,   8.8817841970012523E-016 ,
         247 ,   3.5527136788005009E-015 ,
         248 ,   2.2204460492503131E-015 ,
         249 ,   1.7763568394002505E-015 ,
         250 ,   4.8849813083506888E-015 ,
         251 ,   3.1086244689504383E-015 ,
         252 ,   4.4408920985006262E-016 ,
         253 ,   1.7763568394002505E-015 ,
         254 ,   2.2204460492503131E-015 ,
         255 ,   4.4408920985006262E-016 ,
         256 ,   3.5527136788005009E-015 ,
         257 ,   6.6613381477509392E-015 ,
         258 ,   3.1086244689504383E-015 ,
         259 ,   4.4408920985006262E-016 ,
         260 ,   2.2204460492503131E-015 ,
         261 ,   8.8817841970012523E-016 ,
         262 ,   3.9968028886505635E-015 ,
         263 ,   2.2204460492503131E-015 ,
         264 ,   3.5527136788005009E-015 ,
         265 ,   2.2204460492503131E-015 ,
         266 ,   0.0000000000000000      ,
         267 ,   3.5527136788005009E-015 ,
         268 ,   1.3322676295501878E-015 ,
         269 ,   8.8817841970012523E-016 ,
         270 ,   4.4408920985006262E-016 ,
         271 ,   1.7763568394002505E-015 ,
         272 ,   8.8817841970012523E-016 ,
         273 ,   3.1086244689504383E-015 ,
         274 ,   3.1086244689504383E-015 ,
         275 ,   8.8817841970012523E-016 ,
         276 ,   4.8849813083506888E-015 ,
         277 ,   3.1086244689504383E-015 ,
         278 ,   3.9968028886505635E-015 ,
         279 ,   5.7731597280508140E-015 ,
         280 ,   5.3290705182007514E-015 ,
         281 ,   3.9968028886505635E-015 ,
         282 ,   1.3322676295501878E-015 ,
         283 ,   4.4408920985006262E-016 ,
         284 ,   1.7763568394002505E-015 ,
         285 ,   8.8817841970012523E-016 ,
         286 ,   1.3322676295501878E-015 ,
         287 ,   4.4408920985006262E-016 ,
         288 ,   0.0000000000000000      ,
         289 ,   4.4408920985006262E-016 ,
         290 ,   8.8817841970012523E-016 ,
         291 ,   0.0000000000000000      ,
         292 ,   1.3322676295501878E-015 ,
         293 ,   0.0000000000000000      ,
         294 ,   4.4408920985006262E-016 ,
         295 ,   8.8817841970012523E-016 ,
         296 ,   8.8817841970012523E-016 ,
         297 ,   2.2204460492503131E-015 ,
         298 ,   2.2204460492503131E-015 ,
         299 ,   3.1086244689504383E-015 ,
         300 ,   4.4408920985006262E-016 ,
         301 ,   8.8817841970012523E-016 ,
         302 ,   1.3322676295501878E-015 ,
         303 ,   8.8817841970012523E-016 ,
         304 ,   2.2204460492503131E-015 ,
         305 ,   0.0000000000000000      ,
         306 ,   0.0000000000000000      ,
         307 ,   1.3322676295501878E-015 ,
         308 ,   8.8817841970012523E-016 ,
         309 ,   3.1086244689504383E-015 ,
         310 ,   4.4408920985006262E-015 ,
         311 ,   4.4408920985006262E-016 ,
         312 ,   4.4408920985006262E-016 ,
         313 ,   8.8817841970012523E-016 ,
         314 ,   8.8817841970012523E-016 ,
         315 ,   4.4408920985006262E-016 ,
         316 ,   0.0000000000000000      ,
         317 ,   1.7763568394002505E-015 ,
         318 ,   8.8817841970012523E-016 ,
         319 ,   1.7763568394002505E-015 ,
         320 ,   1.3322676295501878E-015 ,
         321 ,   8.8817841970012523E-016 ,
         322 ,   8.8817841970012523E-016 ,
         323 ,   1.7763568394002505E-015 ,
         324 ,   8.8817841970012523E-016 ,
         325 ,   8.8817841970012523E-016 ,
         326 ,   1.7763568394002505E-015 ,
         327 ,   4.4408920985006262E-016 ,
         328 ,   4.4408920985006262E-015 ,
         329 ,   8.8817841970012523E-016 ,
         330 ,   3.9968028886505635E-015 ,
         331 ,   4.4408920985006262E-016 ,
         332 ,   4.4408920985006262E-016 ,
         333 ,   2.6645352591003757E-015 ,
         334 ,   1.7763568394002505E-015 ,
         335 ,   4.4408920985006262E-016 ,
         336 ,   0.0000000000000000      ,
         337 ,   8.8817841970012523E-016 ,
         338 ,   1.3322676295501878E-015 ,
         339 ,   1.3322676295501878E-015 ,
         340 ,   4.4408920985006262E-015 ,
         341 ,   1.3322676295501878E-015 ,
         342 ,   1.3322676295501878E-015 ,
         343 ,   3.5527136788005009E-015 ,
         344 ,   3.1086244689504383E-015 ,
         345 ,   3.5527136788005009E-015 ,
         346 ,   3.9968028886505635E-015 ,
         347 ,   8.8817841970012523E-016 ,
         348 ,   2.6645352591003757E-015 ,
         349 ,   3.5527136788005009E-015 ,
         350 ,   4.4408920985006262E-015 ,
         351 ,   4.4408920985006262E-015 ,
         352 ,   2.6645352591003757E-015 ,
         353 ,   8.8817841970012523E-016 ,
         354 ,   2.2204460492503131E-015 ,
         355 ,   1.3322676295501878E-015 ,
         356 ,   0.0000000000000000      ,
         357 ,   8.8817841970012523E-016 ,
         358 ,   1.3322676295501878E-015 ,
         359 ,   1.3322676295501878E-015 ,
         360 ,   1.7763568394002505E-015 ,
         361 ,   1.7763568394002505E-015 ,
         362 ,   3.5527136788005009E-015 ,
         363 ,   2.6645352591003757E-015 ,
         364 ,   4.4408920985006262E-016 ,
         365 ,   3.5527136788005009E-015 ,
         366 ,   3.5527136788005009E-015 ,
         367 ,   3.5527136788005009E-015 ,
         368 ,   4.4408920985006262E-016 ,
         369 ,   4.4408920985006262E-015 ,
         370 ,   5.3290705182007514E-015 ,
         371 ,   1.7763568394002505E-015 ,
         372 ,   8.8817841970012523E-016 ,
         373 ,   8.8817841970012523E-016 ,
         374 ,   1.7763568394002505E-015 ,
         375 ,   3.9968028886505635E-015 ,
         376 ,   8.8817841970012523E-016 ,
         377 ,   8.8817841970012523E-016 ,
         378 ,   2.6645352591003757E-015 ,
         379 ,   1.7763568394002505E-015 ,
         380 ,   0.0000000000000000      ,
         381 ,   4.4408920985006262E-016 ,
         382 ,   1.3322676295501878E-015 ,
         383 ,   1.7763568394002505E-015 ,
         384 ,   1.7763568394002505E-015 ,
         385 ,   4.4408920985006262E-016 ,
         386 ,   2.2204460492503131E-015 ,
         387 ,   2.2204460492503131E-015 ,
         388 ,   4.4408920985006262E-016 ,
         389 ,   3.5527136788005009E-015 ,
         390 ,   4.4408920985006262E-016 ,
         391 ,   2.2204460492503131E-015 ,
         392 ,   2.6645352591003757E-015 ,
         393 ,   8.8817841970012523E-016 ,
         394 ,   2.2204460492503131E-015 ,
         395 ,   2.2204460492503131E-015 ,
         396 ,   0.0000000000000000      ,
         397 ,   5.7731597280508140E-015 ,
         398 ,   3.9968028886505635E-015 ,
         399 ,   5.7731597280508140E-015 ,
         400 ,   2.6645352591003757E-015 ,
         401 ,   3.5527136788005009E-015 ,
         402 ,   1.3322676295501878E-015 ,
         403 ,   8.8817841970012523E-016 ,
         404 ,   8.8817841970012523E-016 ,
         405 ,   0.0000000000000000      ,
         406 ,   0.0000000000000000      ,
         407 ,   4.4408920985006262E-015 ,
         408 ,   3.1086244689504383E-015 ,
         409 ,   1.7763568394002505E-015 ,
         410 ,   8.8817841970012523E-016 ,
         411 ,   4.4408920985006262E-016 ,
         412 ,   4.4408920985006262E-016 ,
         413 ,   2.6645352591003757E-015 ,
         414 ,   3.1086244689504383E-015 ,
         415 ,   2.6645352591003757E-015 ,
         416 ,   1.3322676295501878E-015 ,
         417 ,   0.0000000000000000      ,
         418 ,   0.0000000000000000      ,
         419 ,   1.7763568394002505E-015 ,
         420 ,   1.7763568394002505E-015 ,
         421 ,   3.9968028886505635E-015 ,
         422 ,   3.1086244689504383E-015 ,
         423 ,   3.5527136788005009E-015 ,
         424 ,   3.1086244689504383E-015 ,
         425 ,   3.5527136788005009E-015 ,
         426 ,   1.3322676295501878E-015 ,
         427 ,   1.7763568394002505E-015 ,
         428 ,   3.9968028886505635E-015 ,
         429 ,   1.7763568394002505E-015 ,
         430 ,   0.0000000000000000      ,
         431 ,   2.6645352591003757E-015 ,
         432 ,   3.5527136788005009E-015 ,
         433 ,   6.2172489379008766E-015 ,
         434 ,   3.9968028886505635E-015 ,
         435 ,   3.1086244689504383E-015 ,
         436 ,   3.5527136788005009E-015 ,
         437 ,   8.8817841970012523E-016 ,
         438 ,   3.1086244689504383E-015 ,
         439 ,   3.9968028886505635E-015 ,
         440 ,   2.2204460492503131E-015 ,
         441 ,   1.7763568394002505E-015 ,
         442 ,   3.9968028886505635E-015 ,
         443 ,   4.8849813083506888E-015 ,
         444 ,   1.3322676295501878E-015 ,
         445 ,   8.8817841970012523E-016 ,
         446 ,   1.7763568394002505E-015 ,
         447 ,   1.3322676295501878E-015 ,
         448 ,   1.7763568394002505E-015 ,
         449 ,   0.0000000000000000      ,
         450 ,   2.2204460492503131E-015 ,
         451 ,   1.3322676295501878E-015 ,
         452 ,   0.0000000000000000      ,
         453 ,   1.7763568394002505E-015 ,
         454 ,   2.6645352591003757E-015 ,
         455 ,   4.4408920985006262E-016 ,
         456 ,   3.5527136788005009E-015 ,
         457 ,   5.3290705182007514E-015 ,
         458 ,   1.3322676295501878E-015 ,
         459 ,   3.5527136788005009E-015 ,
         460 ,   4.4408920985006262E-016 ,
         461 ,   4.4408920985006262E-016 ,
         462 ,   2.2204460492503131E-015 ,
         463 ,   4.4408920985006262E-016 ,
         464 ,   8.8817841970012523E-016 ,
         465 ,   4.4408920985006262E-016 ,
         466 ,   4.4408920985006262E-016 ,
         467 ,   4.4408920985006262E-016 ,
         468 ,   1.3322676295501878E-015 ,
         469 ,   1.3322676295501878E-015 ,
         470 ,   8.8817841970012523E-016 ,
         471 ,   1.3322676295501878E-015 ,
         472 ,   0.0000000000000000      ,
         473 ,   2.6645352591003757E-015 ,
         474 ,   1.3322676295501878E-015 ,
         475 ,   4.4408920985006262E-016 ,
         476 ,   8.8817841970012523E-016 ,
         477 ,   4.4408920985006262E-016 ,
         478 ,   2.6645352591003757E-015 ,
         479 ,   1.3322676295501878E-015 ,
         480 ,   4.4408920985006262E-016 ,
         481 ,   1.3322676295501878E-015 ,
         482 ,   1.7763568394002505E-015 ,
         483 ,   2.6645352591003757E-015 ,
         484 ,   2.6645352591003757E-015 ,
         485 ,   4.4408920985006262E-016 ,
         486 ,   4.4408920985006262E-016 ,
         487 ,   4.4408920985006262E-016 ,
         488 ,   2.2204460492503131E-015 ,
         489 ,   1.3322676295501878E-015 ,
         490 ,   4.4408920985006262E-016 ,
         491 ,   3.1086244689504383E-015 ,
         492 ,   4.4408920985006262E-016 ,
         493 ,   4.4408920985006262E-015 ,
         494 ,   1.7763568394002505E-015 ,
         495 ,   1.7763568394002505E-015 ,
         496 ,   1.3322676295501878E-015 ,
         497 ,   4.4408920985006262E-016 ,
         498 ,   8.8817841970012523E-016 ,
         499 ,   1.7763568394002505E-015 ,
         500 ,   8.8817841970012523E-016 ,
         501 ,   8.8817841970012523E-016 ,
         502 ,   1.7763568394002505E-015 ,
         503 ,   8.8817841970012523E-016 ,
         504 ,   1.7763568394002505E-015 ,
         505 ,   2.6645352591003757E-015 ,
         506 ,   4.4408920985006262E-016 ,
         507 ,   2.2204460492503131E-015 ,
         508 ,   1.3322676295501878E-015 ,
         509 ,   3.5527136788005009E-015 ,
         510 ,   3.9968028886505635E-015 ,
         511 ,   4.4408920985006262E-016 ,
         512 ,   4.4408920985006262E-016 ,
         513 ,   4.8849813083506888E-015 ,
         514 ,   3.9968028886505635E-015 ,
         515 ,   2.6645352591003757E-015 ,
         516 ,   3.5527136788005009E-015 ,
         517 ,   0.0000000000000000      ,
         518 ,   4.4408920985006262E-016 ,
         519 ,   1.3322676295501878E-015 ,
         520 ,   2.6645352591003757E-015 ,
         521 ,   4.4408920985006262E-015 ,
         522 ,   2.6645352591003757E-015 ,
         523 ,   6.6613381477509392E-015 ,
         524 ,   1.3322676295501878E-015 ,
         525 ,   3.1086244689504383E-015 ,
         526 ,   1.3322676295501878E-015 ,
         527 ,   0.0000000000000000      ,
         528 ,   3.1086244689504383E-015 ,
         529 ,   3.1086244689504383E-015 ,
         530 ,   1.3322676295501878E-015 ,
         531 ,   3.1086244689504383E-015 ,
         532 ,   1.7763568394002505E-015 ,
         533 ,   8.8817841970012523E-016 ,
         534 ,   2.2204460492503131E-015 ,
         535 ,   3.9968028886505635E-015 ,
         536 ,   8.8817841970012523E-016 ,
         537 ,   6.2172489379008766E-015 ,
         538 ,   2.2204460492503131E-015 ,
         539 ,   2.2204460492503131E-015 ,
         540 ,   4.4408920985006262E-016 ,
         541 ,   1.7763568394002505E-015 ,
         542 ,   7.5495165674510645E-015 ,
         543 ,   4.4408920985006262E-016 ,
         544 ,   2.6645352591003757E-015 ,
         545 ,   3.9968028886505635E-015 ,
         546 ,   5.3290705182007514E-015 ,
         547 ,   1.7763568394002505E-015 ,
         548 ,   3.9968028886505635E-015 ,
         549 ,   8.8817841970012523E-016 ,
         550 ,   3.5527136788005009E-015 ,
         551 ,   2.2204460492503131E-015 ,
         552 ,   3.5527136788005009E-015 ,
         553 ,   4.8849813083506888E-015 ,
         554 ,   2.2204460492503131E-015 ,
         555 ,   1.3322676295501878E-015 ,
         556 ,   4.4408920985006262E-015 ,
         557 ,   5.7731597280508140E-015 ,
         558 ,   4.4408920985006262E-015 ,
         559 ,   2.2204460492503131E-015 ,
         560 ,   2.6645352591003757E-015 ,
         561 ,   1.3322676295501878E-015 ,
         562 ,   1.7763568394002505E-015 ,
         563 ,   3.1086244689504383E-015 ,
         564 ,   0.0000000000000000      ,
         565 ,   2.2204460492503131E-015 ,
         566 ,   4.4408920985006262E-016 ,
         567 ,   5.7731597280508140E-015 ,
         568 ,   4.8849813083506888E-015 ,
         569 ,   4.4408920985006262E-015 ,
         570 ,   7.9936057773011271E-015 ,
         571 ,   3.5527136788005009E-015 ,
         572 ,   4.4408920985006262E-016 ,
         573 ,   2.6645352591003757E-015 ,
         574 ,   4.4408920985006262E-016 ,
         575 ,   2.2204460492503131E-015 ,
         576 ,   3.1086244689504383E-015 ,
         577 ,   4.4408920985006262E-016 ,
         578 ,   3.1086244689504383E-015 ,
         579 ,   4.4408920985006262E-016 ,
         580 ,   8.8817841970012523E-016 ,
         581 ,   0.0000000000000000      ,
         582 ,   4.8849813083506888E-015 ,
         583 ,   2.6645352591003757E-015 ,
         584 ,   2.6645352591003757E-015 ,
         585 ,   1.3322676295501878E-015 ,
         586 ,   4.4408920985006262E-016 ,
         587 ,   3.1086244689504383E-015 ,
         588 ,   8.8817841970012523E-016 ,
         589 ,   4.4408920985006262E-016 ,
         590 ,   5.7731597280508140E-015 ,
         591 ,   2.2204460492503131E-015 ,
         592 ,   4.8849813083506888E-015 ,
         593 ,   1.7763568394002505E-015 ,
         594 ,   1.7763568394002505E-015 ,
         595 ,   1.7763568394002505E-015 ,
         596 ,   1.7763568394002505E-015 ,
         597 ,   8.8817841970012523E-016 ,
         598 ,   1.7763568394002505E-015 ,
         599 ,   2.6645352591003757E-015 ,
         600 ,   8.8817841970012523E-016 ,
         601 ,   4.4408920985006262E-016 ,
         602 ,   3.9968028886505635E-015 ,
         603 ,   4.8849813083506888E-015 ,
         604 ,   8.8817841970012523E-016 ,
         605 ,   2.2204460492503131E-015 ,
         606 ,   2.2204460492503131E-015 ,
         607 ,   4.4408920985006262E-016 ,
         608 ,   4.4408920985006262E-015 ,
         609 ,   3.1086244689504383E-015 ,
         610 ,   4.4408920985006262E-016 ,
         611 ,   0.0000000000000000      ,
         612 ,   1.7763568394002505E-015 ,
         613 ,   4.4408920985006262E-016 ,
         614 ,   3.1086244689504383E-015 ,
         615 ,   1.3322676295501878E-015 ,
         616 ,   8.8817841970012523E-016 ,
         617 ,   3.5527136788005009E-015 ,
         618 ,   2.2204460492503131E-015 ,
         619 ,   8.8817841970012523E-016 ,
         620 ,   8.8817841970012523E-016 ,
         621 ,   2.6645352591003757E-015 ,
         622 ,   1.7763568394002505E-015 ,
         623 ,   1.3322676295501878E-015 ,
         624 ,   5.7731597280508140E-015 ,
         625 ,   3.1086244689504383E-015 ,
         626 ,   3.9968028886505635E-015 ,
         627 ,   4.4408920985006262E-016 ,
         628 ,   1.3322676295501878E-015 ,
         629 ,   1.7763568394002505E-015 ,
         630 ,   1.3322676295501878E-015 ,
         631 ,   8.8817841970012523E-016 ,
         632 ,   1.7763568394002505E-015 ,
         633 ,   4.4408920985006262E-015 ,
         634 ,   1.3322676295501878E-015 ,
         635 ,   8.8817841970012523E-016 ,
         636 ,   1.3322676295501878E-015 ,
         637 ,   3.9968028886505635E-015 ,
         638 ,   8.8817841970012523E-016 ,
         639 ,   4.8849813083506888E-015 ,
         640 ,   2.6645352591003757E-015 ,
         641 ,   1.3322676295501878E-015 ,
         642 ,   1.3322676295501878E-015 ,
         643 ,   4.8849813083506888E-015 ,
         644 ,   1.3322676295501878E-015 ,
         645 ,   1.7763568394002505E-015 ,
         646 ,   1.3322676295501878E-015 ,
         647 ,   0.0000000000000000      ,
         648 ,   8.8817841970012523E-016 ,
         649 ,   8.8817841970012523E-016 ,
         650 ,   4.4408920985006262E-016 ,
         651 ,   4.8849813083506888E-015 ,
         652 ,   0.0000000000000000      ,
         653 ,   3.9968028886505635E-015 ,
         654 ,   2.2204460492503131E-015 ,
         655 ,   1.3322676295501878E-015 ,
         656 ,   5.3290705182007514E-015 ,
         657 ,   2.2204460492503131E-015 ,
         658 ,   4.4408920985006262E-016 ,
         659 ,   2.2204460492503131E-015 ,
         660 ,   2.6645352591003757E-015 ,
         661 ,   3.1086244689504383E-015 ,
         662 ,   3.1086244689504383E-015 ,
         663 ,   1.3322676295501878E-015 ,
         664 ,   8.8817841970012523E-016 ,
         665 ,   2.2204460492503131E-015 ,
         666 ,   4.4408920985006262E-015 ,
         667 ,   2.6645352591003757E-015 ,
         668 ,   1.3322676295501878E-015 ,
         669 ,   2.2204460492503131E-015 ,
         670 ,   0.0000000000000000      ,
         671 ,   3.1086244689504383E-015 ,
         672 ,   8.8817841970012523E-016 ,
         673 ,   8.8817841970012523E-016 ,
         674 ,   3.1086244689504383E-015 ,
         675 ,   8.8817841970012523E-016 ,
         676 ,   6.6613381477509392E-015 ,
         677 ,   2.6645352591003757E-015 ,
         678 ,   0.0000000000000000      ,
         679 ,   1.3322676295501878E-015 ,
         680 ,   4.4408920985006262E-016 ,
         681 ,   8.8817841970012523E-016 ,
         682 ,   1.7763568394002505E-015 ,
         683 ,   4.4408920985006262E-015 ,
         684 ,   3.9968028886505635E-015 ,
         685 ,   0.0000000000000000      ,
         686 ,   2.2204460492503131E-015 ,
         687 ,   3.9968028886505635E-015 ,
         688 ,   0.0000000000000000      ,
         689 ,   1.3322676295501878E-015 ,
         690 ,   8.8817841970012523E-016 ,
         691 ,   1.3322676295501878E-015 ,
         692 ,   1.3322676295501878E-015 ,
         693 ,   2.2204460492503131E-015 ,
         694 ,   1.7763568394002505E-015 ,
         695 ,   0.0000000000000000      ,
         696 ,   0.0000000000000000      ,
         697 ,   1.3322676295501878E-015 ,
         698 ,   1.7763568394002505E-015 ,
         699 ,   4.8849813083506888E-015 ,
         700 ,   5.7731597280508140E-015 ,
         701 ,   3.1086244689504383E-015 ,
         702 ,   0.0000000000000000      ,
         703 ,   1.3322676295501878E-015 ,
         704 ,   4.4408920985006262E-016 ,
         705 ,   1.3322676295501878E-015 ,
         706 ,   1.7763568394002505E-015 ,
         707 ,   3.1086244689504383E-015 ,
         708 ,   3.1086244689504383E-015 ,
         709 ,   8.8817841970012523E-016 ,
         710 ,   8.8817841970012523E-016 ,
         711 ,   1.7763568394002505E-015 ,
         712 ,   1.3322676295501878E-015 ,
         713 ,   2.2204460492503131E-015 ,
         714 ,   1.3322676295501878E-015 ,
         715 ,   0.0000000000000000      ,
         716 ,   2.2204460492503131E-015 ,
         717 ,   1.3322676295501878E-015 ,
         718 ,   8.8817841970012523E-016 ,
         719 ,   8.8817841970012523E-016 ,
         720 ,   2.2204460492503131E-015 ,
         721 ,   5.7731597280508140E-015 ,
         722 ,   1.7763568394002505E-015 ,
         723 ,   1.7763568394002505E-015 ,
         724 ,   3.9968028886505635E-015 ,
         725 ,   8.8817841970012523E-016 ,
         726 ,   6.6613381477509392E-015 ,
         727 ,   1.7763568394002505E-015 ,
         728 ,   0.0000000000000000      ,
         729 ,   1.7763568394002505E-015 ,
         730 ,   8.8817841970012523E-016 ,
         731 ,   1.3322676295501878E-015 ,
         732 ,   5.7731597280508140E-015 ,
         733 ,   3.9968028886505635E-015 ,
         734 ,   4.8849813083506888E-015 ,
         735 ,   5.3290705182007514E-015 ,
         736 ,   1.3322676295501878E-015 ,
         737 ,   1.7763568394002505E-015 ,
         738 ,   4.8849813083506888E-015 ,
         739 ,   4.4408920985006262E-016 ,
         740 ,   2.2204460492503131E-015 ,
         741 ,   5.3290705182007514E-015 ,
         742 ,   4.4408920985006262E-015 ,
         743 ,   7.9936057773011271E-015 ,
         744 ,   9.7699626167013776E-015 ,
         745 ,   3.5527136788005009E-015 ,
         746 ,   8.8817841970012523E-016 ,
         747 ,   0.0000000000000000      ,
         748 ,   2.6645352591003757E-015 ,
         749 ,   4.4408920985006262E-015 ,
         750 ,   1.7763568394002505E-015 ,
         751 ,   0.0000000000000000      ,
         752 ,   4.4408920985006262E-016 ,
         753 ,   1.3322676295501878E-015 ,
         754 ,   3.1086244689504383E-015 ,
         755 ,   3.5527136788005009E-015 ,
         756 ,   0.0000000000000000      ,
         757 ,   0.0000000000000000      ,
         758 ,   3.5527136788005009E-015 ,
         759 ,   1.7763568394002505E-015 ,
         760 ,   7.5495165674510645E-015 ,
         761 ,   7.9936057773011271E-015 ,
         762 ,   3.9968028886505635E-015 ,
         763 ,   3.9968028886505635E-015 ,
         764 ,   2.2204460492503131E-015 ,
         765 ,   1.3322676295501878E-015 ,
         766 ,   1.7763568394002505E-015 ,
         767 ,   3.1086244689504383E-015 ,
         768 ,   7.1054273576010019E-015 ,
         769 ,   5.7731597280508140E-015 ,
         770 ,   6.2172489379008766E-015 ,
         771 ,   7.9936057773011271E-015 ,
         772 ,   8.4376949871511897E-015 ,
         773 ,   3.5527136788005009E-015 ,
         774 ,   8.8817841970012523E-016 ,
         775 ,   0.0000000000000000      ,
         776 ,   2.2204460492503131E-015 ,
         777 ,   2.6645352591003757E-015 ,
         778 ,   2.2204460492503131E-015 ,
         779 ,   3.5527136788005009E-015 ,
         780 ,   2.6645352591003757E-015 ,
         781 ,   1.3322676295501878E-015 ,
         782 ,   0.0000000000000000      ,
         783 ,   4.4408920985006262E-016 ,
         784 ,   0.0000000000000000      ,
         785 ,   1.3322676295501878E-015 ,
         786 ,   8.8817841970012523E-016 ,
         787 ,   1.3322676295501878E-015 ,
         788 ,   4.4408920985006262E-016 ,
         789 ,   3.1086244689504383E-015 ,
         790 ,   1.7763568394002505E-015 ,
         791 ,   2.6645352591003757E-015 ,
         792 ,   1.3322676295501878E-015 ,
         793 ,   4.4408920985006262E-016 ,
         794 ,   5.7731597280508140E-015 ,
         795 ,   0.0000000000000000      ,
         796 ,   3.1086244689504383E-015 ,
         797 ,   3.1086244689504383E-015 ,
         798 ,   5.7731597280508140E-015 ,
         799 ,   1.3322676295501878E-015 ,
         800 ,   4.8849813083506888E-015 ,
         801 ,   3.9968028886505635E-015 ,
         802 ,   4.4408920985006262E-015 ,
         803 ,   1.7763568394002505E-015 ,
         804 ,   1.7763568394002505E-015 ,
         805 ,   3.9968028886505635E-015 ,
         806 ,   4.8849813083506888E-015 ,
         807 ,   3.9968028886505635E-015 ,
         808 ,   3.5527136788005009E-015 ,
         809 ,   4.4408920985006262E-016 ,
         810 ,   8.8817841970012523E-016 ,
         811 ,   3.9968028886505635E-015 ,
         812 ,   4.4408920985006262E-015 ,
         813 ,   6.2172489379008766E-015 ,
         814 ,   6.2172489379008766E-015 ,
         815 ,   1.7763568394002505E-015 ,
         816 ,   2.6645352591003757E-015 ,
         817 ,   3.1086244689504383E-015 ,
         818 ,   4.4408920985006262E-016 ,
         819 ,   4.8849813083506888E-015 ,
         820 ,   4.4408920985006262E-016 ,
         821 ,   4.4408920985006262E-016 ,
         822 ,   1.7763568394002505E-015 ,
         823 ,   8.8817841970012523E-016 ,
         824 ,   3.9968028886505635E-015 ,
         825 ,   8.8817841970012523E-016 ,
         826 ,   1.3322676295501878E-015 ,
         827 ,   4.4408920985006262E-016 ,
         828 ,   3.9968028886505635E-015 ,
         829 ,   2.2204460492503131E-015 ,
         830 ,   3.5527136788005009E-015 ,
         831 ,   5.3290705182007514E-015 ,
         832 ,   1.3322676295501878E-015 ,
         833 ,   2.2204460492503131E-015 ,
         834 ,   8.8817841970012523E-016 ,
         835 ,   1.7763568394002505E-015 ,
         836 ,   1.7763568394002505E-015 ,
         837 ,   4.8849813083506888E-015 ,
         838 ,   7.5495165674510645E-015 ,
         839 ,   5.7731597280508140E-015 ,
         840 ,   1.3322676295501878E-015 ,
         841 ,   3.1086244689504383E-015 ,
         842 ,   5.7731597280508140E-015 ,
         843 ,   1.3322676295501878E-015 ,
         844 ,   8.8817841970012523E-016 ,
         845 ,   5.7731597280508140E-015 ,
         846 ,   7.9936057773011271E-015 ,
         847 ,   7.9936057773011271E-015 ,
         848 ,   2.6645352591003757E-015 ,
         849 ,   3.9968028886505635E-015 ,
         850 ,   5.3290705182007514E-015 ,
         851 ,   2.2204460492503131E-015 ,
         852 ,   5.3290705182007514E-015 ,
         853 ,   5.7731597280508140E-015 ,
         854 ,   1.3322676295501878E-015 ,
         855 ,   3.9968028886505635E-015 ,
         856 ,   5.3290705182007514E-015 ,
         857 ,   5.7731597280508140E-015 ,
         858 ,   3.5527136788005009E-015 ,
         859 ,   4.4408920985006262E-016 ,
         860 ,   3.9968028886505635E-015 ,
         861 ,   5.7731597280508140E-015 ,
         862 ,   3.1086244689504383E-015 ,
         863 ,   8.8817841970012523E-016 ,
         864 ,   3.9968028886505635E-015 ,
         865 ,   4.4408920985006262E-016 ,
         866 ,   4.4408920985006262E-016 ,
         867 ,   6.2172489379008766E-015 ,
         868 ,   4.4408920985006262E-016 ,
         869 ,   3.9968028886505635E-015 ,
         870 ,   7.9936057773011271E-015 ,
         871 ,   4.4408920985006262E-016 ,
         872 ,   3.9968028886505635E-015 ,
         873 ,   1.0658141036401503E-014 ,
         874 ,   1.0658141036401503E-014 ,
         875 ,   2.2204460492503131E-015 ,
         876 ,   0.0000000000000000      ,
         877 ,   1.7763568394002505E-015 ,
         878 ,   8.8817841970012523E-016 ,
         879 ,   2.6645352591003757E-015 ,
         880 ,   4.4408920985006262E-016 ,
         881 ,   1.3322676295501878E-015 ,
         882 ,   4.8849813083506888E-015 ,
         883 ,   1.7763568394002505E-015 ,
         884 ,   2.6645352591003757E-015 ,
         885 ,   3.1086244689504383E-015 ,
         886 ,   3.5527136788005009E-015 ,
         887 ,   8.8817841970012523E-016 ,
         888 ,   0.0000000000000000      ,
         889 ,   2.6645352591003757E-015 ,
         890 ,   1.3322676295501878E-015 ,
         891 ,   3.1086244689504383E-015 ,
         892 ,   3.1086244689504383E-015 ,
         893 ,   3.5527136788005009E-015 ,
         894 ,   3.1086244689504383E-015 ,
         895 ,   6.2172489379008766E-015 ,
         896 ,   4.4408920985006262E-015 ,
         897 ,   0.0000000000000000      ,
         898 ,   5.3290705182007514E-015 ,
         899 ,   1.7763568394002505E-015 ,
         900 ,   8.8817841970012523E-016 ,
         901 ,   3.9968028886505635E-015 ,
         902 ,   3.9968028886505635E-015 ,
         903 ,   1.7763568394002505E-015 ,
         904 ,   6.2172489379008766E-015 ,
         905 ,   8.8817841970012523E-016 ,
         906 ,   4.4408920985006262E-015 ,
         907 ,   2.6645352591003757E-015 ,
         908 ,   3.9968028886505635E-015 ,
         909 ,   1.7763568394002505E-015 ,
         910 ,   4.4408920985006262E-016 ,
         911 ,   3.9968028886505635E-015 ,
         912 ,   1.7763568394002505E-015 ,
         913 ,   4.4408920985006262E-015 ,
         914 ,   1.7763568394002505E-015 ,
         915 ,   0.0000000000000000      ,
         916 ,   8.8817841970012523E-016 ,
         917 ,   1.3322676295501878E-015 ,
         918 ,   3.5527136788005009E-015 ,
         919 ,   2.6645352591003757E-015 ,
         920 ,   3.5527136788005009E-015 ,
         921 ,   2.6645352591003757E-015 ,
         922 ,   0.0000000000000000      ,
         923 ,   4.4408920985006262E-016 ,
         924 ,   1.3322676295501878E-015 ,
         925 ,   2.6645352591003757E-015 ,
         926 ,   3.1086244689504383E-015 ,
         927 ,   5.3290705182007514E-015 ,
         928 ,   2.2204460492503131E-015 ,
         929 ,   0.0000000000000000      ,
         930 ,   3.1086244689504383E-015 ,
         931 ,   7.5495165674510645E-015 ,
         932 ,   2.2204460492503131E-015 ,
         933 ,   1.7763568394002505E-015 ,
         934 ,   4.4408920985006262E-016 ,
         935 ,   1.7763568394002505E-015 ,
         936 ,   3.5527136788005009E-015 ,
         937 ,   2.6645352591003757E-015 ,
         938 ,   2.6645352591003757E-015 ,
         939 ,   3.5527136788005009E-015 ,
         940 ,   4.8849813083506888E-015 ,
         941 ,   5.3290705182007514E-015 ,
         942 ,   9.7699626167013776E-015 ,
         943 ,   1.0214051826551440E-014 ,
         944 ,   4.4408920985006262E-016 ,
         945 ,   4.8849813083506888E-015 ,
         946 ,   4.4408920985006262E-016 ,
         947 ,   8.8817841970012523E-016 ,
         948 ,   4.4408920985006262E-016 ,
         949 ,   2.2204460492503131E-015 ,
         950 ,   1.7763568394002505E-015 ,
         951 ,   1.3322676295501878E-015 ,
         952 ,   3.5527136788005009E-015 ,
         953 ,   8.8817841970012523E-016 ,
         954 ,   3.1086244689504383E-015 ,
         955 ,   2.6645352591003757E-015 ,
         956 ,   2.6645352591003757E-015 ,
         957 ,   0.0000000000000000      ,
         958 ,   8.8817841970012523E-016 ,
         959 ,   2.6645352591003757E-015 ,
         960 ,   0.0000000000000000      ,
         961 ,   5.3290705182007514E-015 ,
         962 ,   2.6645352591003757E-015 ,
         963 ,   4.4408920985006262E-016 ,
         964 ,   8.8817841970012523E-016 ,
         965 ,   2.6645352591003757E-015 ,
         966 ,   2.2204460492503131E-015 ,
         967 ,   4.4408920985006262E-015 ,
         968 ,   4.8849813083506888E-015 ,
         969 ,   2.6645352591003757E-015 ,
         970 ,   4.4408920985006262E-016 ,
         971 ,   3.5527136788005009E-015 ,
         972 ,   3.1086244689504383E-015 ,
         973 ,   4.4408920985006262E-015 ,
         974 ,   4.4408920985006262E-016 ,
         975 ,   1.3322676295501878E-015 ,
         976 ,   2.2204460492503131E-015 ,
         977 ,   9.3258734068513149E-015 ,
         978 ,   9.3258734068513149E-015 ,
         979 ,   0.0000000000000000      ,
         980 ,   5.3290705182007514E-015 ,
         981 ,   6.6613381477509392E-015 ,
         982 ,   4.4408920985006262E-015 ,
         983 ,   4.4408920985006262E-015 ,
         984 ,   3.5527136788005009E-015 ,
         985 ,   1.2434497875801753E-014 ,
         986 ,   4.4408920985006262E-015 ,
         987 ,   8.8817841970012523E-016 ,
         988 ,   2.2204460492503131E-015 ,
         989 ,   6.2172489379008766E-015 ,
         990 ,   1.3322676295501878E-015 ,
         991 ,   2.2204460492503131E-015 ,
         992 ,   5.7731597280508140E-015 ,
         993 ,   6.2172489379008766E-015 ,
         994 ,   2.2204460492503131E-015 ,
         995 ,   5.3290705182007514E-015 ,
         996 ,   2.6645352591003757E-015 ,
         997 ,   1.3322676295501878E-015 ,
         998 ,   1.3322676295501878E-015 ,
         999 ,   3.9968028886505635E-015 ,
        1000 ,   8.8817841970012523E-016 ,
        1001 ,   0.0000000000000000      ,
        1002 ,   8.8817841970012523E-016 ,
        1003 ,   8.8817841970012523E-016 ,
        1004 ,   3.9968028886505635E-015 ,
        1005 ,   2.2204460492503131E-015 ,
        1006 ,   4.4408920985006262E-015 ,
        1007 ,   8.8817841970012523E-016 ,
        1008 ,   0.0000000000000000      ,
        1009 ,   1.7763568394002505E-015 ,
        1010 ,   1.7763568394002505E-015 ,
        1011 ,   4.8849813083506888E-015 ,
        1012 ,   1.7763568394002505E-015 ,
        1013 ,   2.6645352591003757E-015 ,
        1014 ,   2.6645352591003757E-015 ,
        1015 ,   4.8849813083506888E-015 ,
        1016 ,   6.2172489379008766E-015 ,
        1017 ,   2.6645352591003757E-015 ,
        1018 ,   1.7763568394002505E-015 ,
        1019 ,   3.1086244689504383E-015 ,
        1020 ,   4.4408920985006262E-016 ,
        1021 ,   4.4408920985006262E-016 ,
        1022 ,   3.9968028886505635E-015 ,
        1023 ,   0.0000000000000000      ,
        1024 ,   2.2204460492503131E-015 ,
        1025 ,   4.4408920985006262E-016 ,
        1026 ,   0.0000000000000000      ,
        1027 ,   2.2204460492503131E-015 ,
        1028 ,   4.4408920985006262E-016 ,
        1029 ,   1.7763568394002505E-015 ,
        1030 ,   1.7763568394002505E-015 ,
        1031 ,   3.5527136788005009E-015 ,
        1032 ,   3.5527136788005009E-015 ,
        1033 ,   4.8849813083506888E-015 ,
        1034 ,   6.6613381477509392E-015 ,
        1035 ,   6.6613381477509392E-015 ,
        1036 ,   8.8817841970012523E-016 ,
        1037 ,   4.4408920985006262E-016 ,
        1038 ,   3.1086244689504383E-015 ,
        1039 ,   1.3322676295501878E-015 ,
        1040 ,   3.1086244689504383E-015 ,
        1041 ,   4.4408920985006262E-016 ,
        1042 ,   2.2204460492503131E-015 ,
        1043 ,   9.3258734068513149E-015 ,
        1044 ,   7.9936057773011271E-015 ,
        1045 ,   3.1086244689504383E-015 ,
        1046 ,   1.3322676295501878E-015 ,
        1047 ,   2.2204460492503131E-015 ,
        1048 ,   0.0000000000000000      ,
        1049 ,   1.3322676295501878E-015 ,
        1050 ,   6.2172489379008766E-015 ,
        1051 ,   3.5527136788005009E-015 ,
        1052 ,   1.3322676295501878E-015 ,
        1053 ,   2.2204460492503131E-015 ,
        1054 ,   7.1054273576010019E-015 ,
        1055 ,   7.5495165674510645E-015 ,
        1056 ,   6.2172489379008766E-015 ,
        1057 ,   3.5527136788005009E-015 ,
        1058 ,   0.0000000000000000      ,
        1059 ,   1.7763568394002505E-015 ,
        1060 ,   3.1086244689504383E-015 ,
        1061 ,   8.4376949871511897E-015 ,
        1062 ,   8.4376949871511897E-015 ,
        1063 ,   4.8849813083506888E-015 ,
        1064 ,   4.4408920985006262E-016 ,
        1065 ,   6.2172489379008766E-015 ,
        1066 ,   4.4408920985006262E-015 ,
        1067 ,   6.2172489379008766E-015 ,
        1068 ,   5.3290705182007514E-015 ,
        1069 ,   4.8849813083506888E-015 ,
        1070 ,   3.1086244689504383E-015 ,
        1071 ,   2.6645352591003757E-015 ,
        1072 ,   4.4408920985006262E-015 ,
        1073 ,   2.2204460492503131E-015 ,
        1074 ,   2.6645352591003757E-015 ,
        1075 ,   6.6613381477509392E-015 ,
        1076 ,   6.6613381477509392E-015 ,
        1077 ,   1.7763568394002505E-015 ,
        1078 ,   1.3322676295501878E-015 ,
        1079 ,   8.8817841970012523E-016 ,
        1080 ,   8.8817841970012523E-016 ,
        1081 ,   2.2204460492503131E-015 ,
        1082 ,   4.8849813083506888E-015 ,
        1083 ,   3.1086244689504383E-015 ,
        1084 ,   3.5527136788005009E-015 ,
        1085 ,   1.7763568394002505E-015 ,
        1086 ,   6.2172489379008766E-015 ,
        1087 ,   7.5495165674510645E-015 ,
        1088 ,   3.1086244689504383E-015 ,
        1089 ,   2.6645352591003757E-015 ,
        1090 ,   8.8817841970012523E-016 ,
        1091 ,   3.5527136788005009E-015 ,
        1092 ,   0.0000000000000000      ,
        1093 ,   2.6645352591003757E-015 ,
        1094 ,   5.3290705182007514E-015 ,
        1095 ,   4.4408920985006262E-016 ,
        1096 ,   5.3290705182007514E-015 ,
        1097 ,   4.4408920985006262E-015 ,
        1098 ,   2.6645352591003757E-015 ,
        1099 ,   3.9968028886505635E-015 ,
        1100 ,   7.9936057773011271E-015 ,
        1101 ,   3.1086244689504383E-015 ,
        1102 ,   6.6613381477509392E-015 ,
        1103 ,   2.2204460492503131E-015 ,
        1104 ,   7.5495165674510645E-015 ,
        1105 ,   9.3258734068513149E-015 ,
        1106 ,   1.3322676295501878E-015 ,
        1107 ,   1.7763568394002505E-015 ,
        1108 ,   2.2204460492503131E-015 ,
        1109 ,   1.7763568394002505E-015 ,
        1110 ,   3.1086244689504383E-015 ,
        1111 ,   3.1086244689504383E-015 ,
        1112 ,   2.2204460492503131E-015 ,
        1113 ,   4.4408920985006262E-016 ,
        1114 ,   5.3290705182007514E-015 ,
        1115 ,   5.3290705182007514E-015 ,
        1116 ,   8.4376949871511897E-015 ,
        1117 ,   6.6613381477509392E-015 ,
        1118 ,   1.3322676295501878E-015 ,
        1119 ,   6.6613381477509392E-015 ,
        1120 ,   8.4376949871511897E-015 ,
        1121 ,   5.7731597280508140E-015 ,
        1122 ,   3.5527136788005009E-015 ,
        1123 ,   4.4408920985006262E-016 ,
        1124 ,   4.4408920985006262E-016 ,
        1125 ,   3.1086244689504383E-015 ,
        1126 ,   8.8817841970012523E-016 ,
        1127 ,   4.4408920985006262E-016 ,
        1128 ,   1.7763568394002505E-015 ,
        1129 ,   2.2204460492503131E-015 ,
        1130 ,   4.8849813083506888E-015 ,
        1131 ,   6.2172489379008766E-015 ,
        1132 ,   1.3322676295501878E-015 ,
        1133 ,   4.8849813083506888E-015 ,
        1134 ,   1.3322676295501878E-015 ,
        1135 ,   4.4408920985006262E-015 ,
        1136 ,   1.3322676295501878E-015 ,
        1137 ,   3.9968028886505635E-015 ,
        1138 ,   8.4376949871511897E-015 ,
        1139 ,   2.2204460492503131E-015 ,
        1140 ,   4.4408920985006262E-016 ,
        1141 ,   2.2204460492503131E-015 ,
        1142 ,   7.9936057773011271E-015 ,
        1143 ,   4.4408920985006262E-015 ,
        1144 ,   2.2204460492503131E-015 ,
        1145 ,   5.3290705182007514E-015 ,
        1146 ,   1.1990408665951691E-014 ,
        1147 ,   1.2434497875801753E-014 ,
        1148 ,   5.3290705182007514E-015 ,
        1149 ,   3.5527136788005009E-015 ,
        1150 ,   4.4408920985006262E-016 ,
        1151 ,   3.9968028886505635E-015 ,
        1152 ,   1.3322676295501878E-015 ,
        1153 ,   0.0000000000000000      ,
        1154 ,   4.4408920985006262E-016 ,
        1155 ,   3.1086244689504383E-015 ,
        1156 ,   1.3322676295501878E-015 ,
        1157 ,   8.8817841970012523E-016 ,
        1158 ,   4.4408920985006262E-015 ,
        1159 ,   5.3290705182007514E-015 ,
        1160 ,   6.2172489379008766E-015 ,
        1161 ,   3.1086244689504383E-015 ,
        1162 ,   3.5527136788005009E-015 ,
        1163 ,   8.8817841970012523E-016 ,
        1164 ,   5.7731597280508140E-015 ,
        1165 ,   2.6645352591003757E-015 ,
        1166 ,   3.1086244689504383E-015 ,
        1167 ,   1.3322676295501878E-015 ,
        1168 ,   1.7763568394002505E-015 ,
        1169 ,   1.3322676295501878E-015 ,
        1170 ,   3.1086244689504383E-015 ,
        1171 ,   6.2172489379008766E-015 ,
        1172 ,   6.2172489379008766E-015 ,
        1173 ,   8.4376949871511897E-015 ,
        1174 ,   1.3322676295501878E-015 ,
        1175 ,   3.5527136788005009E-015 ,
        1176 ,   6.2172489379008766E-015 ,
        1177 ,   2.6645352591003757E-015 ,
        1178 ,   3.1086244689504383E-015 ,
        1179 ,   4.8849813083506888E-015 ,
        1180 ,   8.4376949871511897E-015 ,
        1181 ,   3.9968028886505635E-015 ,
        1182 ,   2.2204460492503131E-015 ,
        1183 ,   2.2204460492503131E-015 ,
        1184 ,   8.8817841970012523E-016 ,
        1185 ,   8.8817841970012523E-016 ,
        1186 ,   0.0000000000000000      ,
        1187 ,   8.8817841970012523E-016 ,
        1188 ,   4.4408920985006262E-015 ,
        1189 ,   6.6613381477509392E-015 ,
        1190 ,   3.5527136788005009E-015 ,
        1191 ,   3.5527136788005009E-015 ,
        1192 ,   3.1086244689504383E-015 ,
        1193 ,   8.8817841970012523E-016 ,
        1194 ,   3.1086244689504383E-015 ,
        1195 ,   7.1054273576010019E-015 ,
        1196 ,   8.8817841970012523E-016 ,
        1197 ,   1.7763568394002505E-015 ,
        1198 ,   8.8817841970012523E-016 ,
        1199 ,   2.6645352591003757E-015 ,
        1200 ,   1.7763568394002505E-015 ,
