 n,err,
           0 ,                       NaN ,
           1 ,                       NaN ,
           2 ,   3.0837365266081380      ,
           3 ,   2.5175960788905343      ,
           4 ,   3.5505105150133236      ,
           5 ,   3.4228516016398651      ,
           6 ,   1.0491719302019402      ,
           7 ,  0.11511299987881207      ,
           8 ,  0.39399775221397038      ,
           9 ,  0.74046042965938597      ,
          10 ,  0.51838645586567988      ,
          11 ,  0.19719337823712291      ,
          12 ,   8.4426460069520370E-002 ,
          13 ,  0.10863804487125428      ,
          14 ,  0.10984379104803210      ,
          15 ,   6.8587317439736672E-002 ,
          16 ,   3.1655744456805301E-002 ,
          17 ,   1.8348043365562283E-002 ,
          18 ,   1.5923682649084281E-002 ,
          19 ,   1.2515579292092127E-002 ,
          20 ,   7.5587051831029761E-003 ,
          21 ,   4.0012557244484270E-003 ,
          22 ,   2.4251143363498429E-003 ,
          23 ,   1.7422338952295391E-003 ,
          24 ,   1.1946762316985549E-003 ,
          25 ,   7.1444741190163086E-004 ,
          26 ,   4.0168322944333923E-004 ,
          27 ,   2.4108480663409537E-004 ,
          28 ,   1.5596271773876680E-004 ,
          29 ,   9.8771746252612758E-005 ,
          30 ,   5.8373121166965802E-005 ,
          31 ,   3.3391400370508251E-005 ,
          32 ,   1.9629335571647033E-005 ,
          33 ,   1.1927215914031564E-005 ,
          34 ,   7.1779699166718558E-006 ,
          35 ,   4.1721196781807635E-006 ,
          36 ,   2.3789616516722845E-006 ,
          37 ,   1.3688224096419788E-006 ,
          38 ,   7.9846277012407540E-007 ,
          39 ,   4.6354605087728373E-007 ,
          40 ,   2.6433182753748952E-007 ,
          41 ,   1.4891475430545142E-007 ,
          42 ,   8.3980530529714770E-008 ,
          43 ,   4.7577565887024775E-008 ,
          44 ,   2.6871696867658557E-008 ,
          45 ,   1.5028815969486686E-008 ,
          46 ,   8.3373214998516687E-009 ,
          47 ,   4.6154480237703410E-009 ,
          48 ,   2.5558266614211789E-009 ,
          49 ,   1.4115957291949144E-009 ,
          50 ,   7.7498230055539352E-010 ,
          51 ,   4.2303138769739235E-010 ,
          52 ,   2.3019897099629816E-010 ,
          53 ,   1.2506617963481403E-010 ,
          54 ,   6.7772898404427906E-011 ,
          55 ,   3.6571190520362507E-011 ,
          56 ,   1.9649615268235721E-011 ,
          57 ,   1.0526246541076034E-011 ,
          58 ,   5.6239457535411930E-012 ,
          59 ,   2.9953817204386723E-012 ,
          60 ,   1.5902834604730742E-012 ,
          61 ,   8.3977269582646841E-013 ,
          62 ,   4.4364512064021255E-013 ,
          63 ,   2.3581137043038325E-013 ,
          64 ,   1.2301271112846734E-013 ,
          65 ,   6.1284310959308641E-014 ,
          66 ,   3.2862601528904634E-014 ,
          67 ,   1.8651746813702630E-014 ,
          68 ,   7.5495165674510645E-015 ,
          69 ,   5.3290705182007514E-015 ,
          70 ,   4.4408920985006262E-015 ,
          71 ,   1.7763568394002505E-015 ,
          72 ,   4.4408920985006262E-016 ,
          73 ,   1.3322676295501878E-015 ,
          74 ,   8.8817841970012523E-016 ,
          75 ,   1.3322676295501878E-015 ,
          76 ,   1.7763568394002505E-015 ,
          77 ,   8.8817841970012523E-016 ,
          78 ,   4.4408920985006262E-016 ,
          79 ,   8.8817841970012523E-016 ,
          80 ,   8.8817841970012523E-016 ,
          81 ,   8.8817841970012523E-016 ,
          82 ,   8.8817841970012523E-016 ,
          83 ,   0.0000000000000000      ,
          84 ,   1.7763568394002505E-015 ,
          85 ,   8.8817841970012523E-016 ,
          86 ,   1.3322676295501878E-015 ,
          87 ,   8.8817841970012523E-016 ,
          88 ,   8.8817841970012523E-016 ,
          89 ,   8.8817841970012523E-016 ,
          90 ,   0.0000000000000000      ,
          91 ,   4.4408920985006262E-016 ,
          92 ,   8.8817841970012523E-016 ,
          93 ,   1.3322676295501878E-015 ,
          94 ,   4.4408920985006262E-016 ,
          95 ,   1.7763568394002505E-015 ,
          96 ,   8.8817841970012523E-016 ,
          97 ,   0.0000000000000000      ,
          98 ,   4.4408920985006262E-016 ,
          99 ,   1.3322676295501878E-015 ,
         100 ,   0.0000000000000000      ,
         101 ,   0.0000000000000000      ,
         102 ,   8.8817841970012523E-016 ,
         103 ,   1.3322676295501878E-015 ,
         104 ,   1.3322676295501878E-015 ,
         105 ,   8.8817841970012523E-016 ,
         106 ,   2.2204460492503131E-015 ,
         107 ,   8.8817841970012523E-016 ,
         108 ,   2.6645352591003757E-015 ,
         109 ,   1.3322676295501878E-015 ,
         110 ,   3.1086244689504383E-015 ,
         111 ,   4.4408920985006262E-016 ,
         112 ,   1.3322676295501878E-015 ,
         113 ,   8.8817841970012523E-016 ,
         114 ,   1.3322676295501878E-015 ,
         115 ,   3.9968028886505635E-015 ,
         116 ,   3.5527136788005009E-015 ,
         117 ,   2.6645352591003757E-015 ,
         118 ,   3.9968028886505635E-015 ,
         119 ,   2.6645352591003757E-015 ,
         120 ,   1.7763568394002505E-015 ,
         121 ,   2.2204460492503131E-015 ,
         122 ,   1.3322676295501878E-015 ,
         123 ,   0.0000000000000000      ,
         124 ,   8.8817841970012523E-016 ,
         125 ,   1.7763568394002505E-015 ,
         126 ,   0.0000000000000000      ,
         127 ,   4.4408920985006262E-016 ,
         128 ,   1.3322676295501878E-015 ,
         129 ,   4.4408920985006262E-016 ,
         130 ,   1.3322676295501878E-015 ,
         131 ,   4.4408920985006262E-016 ,
         132 ,   1.7763568394002505E-015 ,
         133 ,   0.0000000000000000      ,
         134 ,   1.7763568394002505E-015 ,
         135 ,   8.8817841970012523E-016 ,
         136 ,   8.8817841970012523E-016 ,
         137 ,   8.8817841970012523E-016 ,
         138 ,   2.2204460492503131E-015 ,
         139 ,   8.8817841970012523E-016 ,
         140 ,   4.4408920985006262E-016 ,
         141 ,   4.4408920985006262E-016 ,
         142 ,   1.3322676295501878E-015 ,
         143 ,   2.2204460492503131E-015 ,
         144 ,   1.3322676295501878E-015 ,
         145 ,   8.8817841970012523E-016 ,
         146 ,   0.0000000000000000      ,
         147 ,   4.4408920985006262E-016 ,
         148 ,   8.8817841970012523E-016 ,
         149 ,   1.7763568394002505E-015 ,
         150 ,   0.0000000000000000      ,
         151 ,   4.4408920985006262E-016 ,
         152 ,   1.7763568394002505E-015 ,
         153 ,   1.3322676295501878E-015 ,
         154 ,   1.3322676295501878E-015 ,
         155 ,   1.7763568394002505E-015 ,
         156 ,   1.7763568394002505E-015 ,
         157 ,   3.9968028886505635E-015 ,
         158 ,   8.8817841970012523E-016 ,
         159 ,   0.0000000000000000      ,
         160 ,   1.3322676295501878E-015 ,
         161 ,   1.3322676295501878E-015 ,
         162 ,   0.0000000000000000      ,
         163 ,   8.8817841970012523E-016 ,
         164 ,   1.7763568394002505E-015 ,
         165 ,   0.0000000000000000      ,
         166 ,   1.3322676295501878E-015 ,
         167 ,   4.4408920985006262E-016 ,
         168 ,   4.4408920985006262E-016 ,
         169 ,   8.8817841970012523E-016 ,
         170 ,   2.6645352591003757E-015 ,
         171 ,   3.1086244689504383E-015 ,
         172 ,   1.7763568394002505E-015 ,
         173 ,   0.0000000000000000      ,
         174 ,   4.4408920985006262E-016 ,
         175 ,   4.4408920985006262E-016 ,
         176 ,   0.0000000000000000      ,
         177 ,   0.0000000000000000      ,
         178 ,   8.8817841970012523E-016 ,
         179 ,   0.0000000000000000      ,
         180 ,   8.8817841970012523E-016 ,
         181 ,   0.0000000000000000      ,
         182 ,   8.8817841970012523E-016 ,
         183 ,   1.3322676295501878E-015 ,
         184 ,   0.0000000000000000      ,
         185 ,   8.8817841970012523E-016 ,
         186 ,   1.3322676295501878E-015 ,
         187 ,   0.0000000000000000      ,
         188 ,   1.7763568394002505E-015 ,
         189 ,   1.3322676295501878E-015 ,
         190 ,   1.3322676295501878E-015 ,
         191 ,   0.0000000000000000      ,
         192 ,   8.8817841970012523E-016 ,
         193 ,   8.8817841970012523E-016 ,
         194 ,   8.8817841970012523E-016 ,
         195 ,   1.3322676295501878E-015 ,
         196 ,   1.3322676295501878E-015 ,
         197 ,   4.4408920985006262E-016 ,
         198 ,   2.6645352591003757E-015 ,
         199 ,   2.6645352591003757E-015 ,
         200 ,   4.4408920985006262E-016 ,
         201 ,   8.8817841970012523E-016 ,
         202 ,   4.4408920985006262E-016 ,
         203 ,   4.4408920985006262E-016 ,
         204 ,   4.4408920985006262E-016 ,
         205 ,   8.8817841970012523E-016 ,
         206 ,   3.1086244689504383E-015 ,
         207 ,   8.8817841970012523E-016 ,
         208 ,   1.3322676295501878E-015 ,
         209 ,   2.2204460492503131E-015 ,
         210 ,   1.3322676295501878E-015 ,
         211 ,   1.7763568394002505E-015 ,
         212 ,   8.8817841970012523E-016 ,
         213 ,   4.4408920985006262E-016 ,
         214 ,   4.4408920985006262E-016 ,
         215 ,   8.8817841970012523E-016 ,
         216 ,   1.3322676295501878E-015 ,
         217 ,   1.7763568394002505E-015 ,
         218 ,   1.7763568394002505E-015 ,
         219 ,   0.0000000000000000      ,
         220 ,   3.5527136788005009E-015 ,
         221 ,   3.5527136788005009E-015 ,
         222 ,   8.8817841970012523E-016 ,
         223 ,   1.7763568394002505E-015 ,
         224 ,   2.2204460492503131E-015 ,
         225 ,   2.2204460492503131E-015 ,
         226 ,   4.4408920985006262E-016 ,
         227 ,   0.0000000000000000      ,
         228 ,   1.3322676295501878E-015 ,
         229 ,   4.4408920985006262E-016 ,
         230 ,   1.7763568394002505E-015 ,
         231 ,   3.9968028886505635E-015 ,
         232 ,   2.6645352591003757E-015 ,
         233 ,   2.6645352591003757E-015 ,
         234 ,   0.0000000000000000      ,
         235 ,   1.3322676295501878E-015 ,
         236 ,   1.3322676295501878E-015 ,
         237 ,   1.7763568394002505E-015 ,
         238 ,   0.0000000000000000      ,
         239 ,   4.4408920985006262E-015 ,
         240 ,   4.8849813083506888E-015 ,
         241 ,   2.2204460492503131E-015 ,
         242 ,   4.4408920985006262E-016 ,
         243 ,   8.8817841970012523E-016 ,
         244 ,   4.4408920985006262E-016 ,
         245 ,   0.0000000000000000      ,
         246 ,   3.1086244689504383E-015 ,
         247 ,   4.4408920985006262E-016 ,
         248 ,   2.6645352591003757E-015 ,
         249 ,   8.8817841970012523E-016 ,
         250 ,   1.3322676295501878E-015 ,
         251 ,   1.7763568394002505E-015 ,
         252 ,   8.8817841970012523E-016 ,
         253 ,   2.6645352591003757E-015 ,
         254 ,   4.4408920985006262E-016 ,
         255 ,   3.1086244689504383E-015 ,
         256 ,   0.0000000000000000      ,
         257 ,   1.7763568394002505E-015 ,
         258 ,   1.3322676295501878E-015 ,
         259 ,   0.0000000000000000      ,
         260 ,   2.2204460492503131E-015 ,
         261 ,   8.8817841970012523E-016 ,
         262 ,   8.8817841970012523E-016 ,
         263 ,   0.0000000000000000      ,
         264 ,   1.3322676295501878E-015 ,
         265 ,   3.5527136788005009E-015 ,
         266 ,   3.5527136788005009E-015 ,
         267 ,   4.4408920985006262E-016 ,
         268 ,   4.4408920985006262E-016 ,
         269 ,   4.4408920985006262E-016 ,
         270 ,   3.1086244689504383E-015 ,
         271 ,   4.8849813083506888E-015 ,
         272 ,   3.1086244689504383E-015 ,
         273 ,   1.3322676295501878E-015 ,
         274 ,   3.5527136788005009E-015 ,
         275 ,   2.2204460492503131E-015 ,
         276 ,   1.3322676295501878E-015 ,
         277 ,   4.4408920985006262E-016 ,
         278 ,   3.1086244689504383E-015 ,
         279 ,   3.5527136788005009E-015 ,
         280 ,   4.4408920985006262E-016 ,
         281 ,   1.3322676295501878E-015 ,
         282 ,   2.2204460492503131E-015 ,
         283 ,   3.1086244689504383E-015 ,
         284 ,   8.8817841970012523E-016 ,
         285 ,   1.3322676295501878E-015 ,
         286 ,   0.0000000000000000      ,
         287 ,   0.0000000000000000      ,
         288 ,   1.3322676295501878E-015 ,
         289 ,   8.8817841970012523E-016 ,
         290 ,   2.2204460492503131E-015 ,
         291 ,   1.3322676295501878E-015 ,
         292 ,   1.3322676295501878E-015 ,
         293 ,   4.4408920985006262E-016 ,
         294 ,   0.0000000000000000      ,
         295 ,   4.4408920985006262E-016 ,
         296 ,   1.3322676295501878E-015 ,
         297 ,   4.4408920985006262E-016 ,
         298 ,   8.8817841970012523E-016 ,
         299 ,   4.4408920985006262E-016 ,
         300 ,   3.1086244689504383E-015 ,
         301 ,   3.1086244689504383E-015 ,
         302 ,   3.9968028886505635E-015 ,
         303 ,   1.7763568394002505E-015 ,
         304 ,   4.4408920985006262E-016 ,
         305 ,   1.7763568394002505E-015 ,
         306 ,   1.7763568394002505E-015 ,
         307 ,   2.2204460492503131E-015 ,
         308 ,   4.4408920985006262E-016 ,
         309 ,   8.8817841970012523E-016 ,
         310 ,   4.4408920985006262E-016 ,
         311 ,   4.8849813083506888E-015 ,
         312 ,   2.6645352591003757E-015 ,
         313 ,   0.0000000000000000      ,
         314 ,   0.0000000000000000      ,
         315 ,   2.2204460492503131E-015 ,
         316 ,   1.7763568394002505E-015 ,
         317 ,   1.3322676295501878E-015 ,
         318 ,   3.9968028886505635E-015 ,
         319 ,   2.2204460492503131E-015 ,
         320 ,   2.2204460492503131E-015 ,
         321 ,   1.7763568394002505E-015 ,
         322 ,   4.4408920985006262E-016 ,
         323 ,   3.5527136788005009E-015 ,
         324 ,   1.3322676295501878E-015 ,
         325 ,   1.7763568394002505E-015 ,
         326 ,   2.2204460492503131E-015 ,
         327 ,   3.9968028886505635E-015 ,
         328 ,   4.4408920985006262E-016 ,
         329 ,   4.4408920985006262E-016 ,
         330 ,   1.3322676295501878E-015 ,
         331 ,   3.5527136788005009E-015 ,
         332 ,   4.4408920985006262E-015 ,
         333 ,   4.4408920985006262E-015 ,
         334 ,   8.8817841970012523E-016 ,
         335 ,   1.7763568394002505E-015 ,
         336 ,   3.1086244689504383E-015 ,
         337 ,   1.3322676295501878E-015 ,
         338 ,   4.4408920985006262E-016 ,
         339 ,   1.3322676295501878E-015 ,
         340 ,   1.3322676295501878E-015 ,
         341 ,   2.2204460492503131E-015 ,
         342 ,   8.8817841970012523E-016 ,
         343 ,   8.8817841970012523E-016 ,
         344 ,   1.7763568394002505E-015 ,
         345 ,   8.8817841970012523E-016 ,
         346 ,   1.7763568394002505E-015 ,
         347 ,   5.7731597280508140E-015 ,
         348 ,   6.2172489379008766E-015 ,
         349 ,   6.2172489379008766E-015 ,
         350 ,   3.1086244689504383E-015 ,
         351 ,   2.2204460492503131E-015 ,
         352 ,   3.1086244689504383E-015 ,
         353 ,   1.3322676295501878E-015 ,
         354 ,   2.6645352591003757E-015 ,
         355 ,   2.2204460492503131E-015 ,
         356 ,   4.4408920985006262E-016 ,
         357 ,   2.6645352591003757E-015 ,
         358 ,   3.9968028886505635E-015 ,
         359 ,   8.8817841970012523E-016 ,
         360 ,   3.9968028886505635E-015 ,
         361 ,   4.4408920985006262E-016 ,
         362 ,   2.2204460492503131E-015 ,
         363 ,   8.8817841970012523E-016 ,
         364 ,   4.4408920985006262E-016 ,
         365 ,   1.7763568394002505E-015 ,
         366 ,   4.4408920985006262E-016 ,
         367 ,   1.3322676295501878E-015 ,
         368 ,   8.8817841970012523E-016 ,
         369 ,   0.0000000000000000      ,
         370 ,   1.3322676295501878E-015 ,
         371 ,   4.4408920985006262E-016 ,
         372 ,   3.5527136788005009E-015 ,
         373 ,   2.2204460492503131E-015 ,
         374 ,   3.5527136788005009E-015 ,
         375 ,   4.4408920985006262E-015 ,
         376 ,   8.8817841970012523E-016 ,
         377 ,   8.8817841970012523E-016 ,
         378 ,   4.4408920985006262E-016 ,
         379 ,   3.1086244689504383E-015 ,
         380 ,   2.2204460492503131E-015 ,
         381 ,   8.8817841970012523E-016 ,
         382 ,   8.8817841970012523E-016 ,
         383 ,   1.3322676295501878E-015 ,
         384 ,   1.7763568394002505E-015 ,
         385 ,   8.8817841970012523E-016 ,
         386 ,   2.6645352591003757E-015 ,
         387 ,   4.4408920985006262E-016 ,
         388 ,   3.5527136788005009E-015 ,
         389 ,   4.4408920985006262E-016 ,
         390 ,   1.3322676295501878E-015 ,
         391 ,   8.8817841970012523E-016 ,
         392 ,   2.6645352591003757E-015 ,
         393 ,   0.0000000000000000      ,
         394 ,   3.1086244689504383E-015 ,
         395 ,   8.8817841970012523E-016 ,
         396 ,   2.2204460492503131E-015 ,
         397 ,   1.7763568394002505E-015 ,
         398 ,   4.4408920985006262E-016 ,
         399 ,   1.3322676295501878E-015 ,
         400 ,   4.4408920985006262E-015 ,
         401 ,   1.3322676295501878E-015 ,
         402 ,   3.5527136788005009E-015 ,
         403 ,   1.7763568394002505E-015 ,
         404 ,   8.8817841970012523E-016 ,
         405 ,   1.7763568394002505E-015 ,
         406 ,   4.4408920985006262E-016 ,
         407 ,   1.7763568394002505E-015 ,
         408 ,   3.9968028886505635E-015 ,
         409 ,   4.4408920985006262E-016 ,
         410 ,   8.8817841970012523E-016 ,
         411 ,   8.8817841970012523E-016 ,
         412 ,   2.2204460492503131E-015 ,
         413 ,   8.8817841970012523E-016 ,
         414 ,   2.6645352591003757E-015 ,
         415 ,   3.5527136788005009E-015 ,
         416 ,   3.5527136788005009E-015 ,
         417 ,   5.3290705182007514E-015 ,
         418 ,   4.8849813083506888E-015 ,
         419 ,   3.1086244689504383E-015 ,
         420 ,   4.4408920985006262E-016 ,
         421 ,   1.7763568394002505E-015 ,
         422 ,   3.1086244689504383E-015 ,
         423 ,   4.4408920985006262E-016 ,
         424 ,   0.0000000000000000      ,
         425 ,   8.8817841970012523E-016 ,
         426 ,   0.0000000000000000      ,
         427 ,   1.3322676295501878E-015 ,
         428 ,   2.6645352591003757E-015 ,
         429 ,   0.0000000000000000      ,
         430 ,   4.8849813083506888E-015 ,
         431 ,   4.4408920985006262E-015 ,
         432 ,   8.8817841970012523E-016 ,
         433 ,   1.3322676295501878E-015 ,
         434 ,   3.5527136788005009E-015 ,
         435 ,   1.3322676295501878E-015 ,
         436 ,   4.4408920985006262E-016 ,
         437 ,   1.7763568394002505E-015 ,
         438 ,   4.8849813083506888E-015 ,
         439 ,   4.8849813083506888E-015 ,
         440 ,   1.7763568394002505E-015 ,
         441 ,   0.0000000000000000      ,
         442 ,   4.4408920985006262E-016 ,
         443 ,   1.3322676295501878E-015 ,
         444 ,   4.4408920985006262E-016 ,
         445 ,   2.6645352591003757E-015 ,
         446 ,   2.2204460492503131E-015 ,
         447 ,   1.3322676295501878E-015 ,
         448 ,   4.4408920985006262E-016 ,
         449 ,   3.5527136788005009E-015 ,
         450 ,   5.3290705182007514E-015 ,
         451 ,   1.3322676295501878E-015 ,
         452 ,   3.1086244689504383E-015 ,
         453 ,   8.8817841970012523E-016 ,
         454 ,   3.9968028886505635E-015 ,
         455 ,   0.0000000000000000      ,
         456 ,   3.9968028886505635E-015 ,
         457 ,   1.3322676295501878E-015 ,
         458 ,   1.7763568394002505E-015 ,
         459 ,   1.7763568394002505E-015 ,
         460 ,   5.7731597280508140E-015 ,
         461 ,   1.7763568394002505E-015 ,
         462 ,   2.6645352591003757E-015 ,
         463 ,   8.8817841970012523E-016 ,
         464 ,   4.4408920985006262E-016 ,
         465 ,   1.7763568394002505E-015 ,
         466 ,   8.8817841970012523E-016 ,
         467 ,   4.4408920985006262E-016 ,
         468 ,   3.5527136788005009E-015 ,
         469 ,   2.6645352591003757E-015 ,
         470 ,   1.3322676295501878E-015 ,
         471 ,   2.2204460492503131E-015 ,
         472 ,   5.3290705182007514E-015 ,
         473 ,   3.9968028886505635E-015 ,
         474 ,   2.2204460492503131E-015 ,
         475 ,   5.7731597280508140E-015 ,
         476 ,   2.2204460492503131E-015 ,
         477 ,   5.3290705182007514E-015 ,
         478 ,   8.4376949871511897E-015 ,
         479 ,   3.9968028886505635E-015 ,
         480 ,   8.8817841970012523E-016 ,
         481 ,   8.8817841970012523E-016 ,
         482 ,   3.1086244689504383E-015 ,
         483 ,   8.8817841970012523E-016 ,
         484 ,   2.6645352591003757E-015 ,
         485 ,   5.7731597280508140E-015 ,
         486 ,   0.0000000000000000      ,
         487 ,   2.2204460492503131E-015 ,
         488 ,   4.4408920985006262E-016 ,
         489 ,   8.8817841970012523E-016 ,
         490 ,   3.5527136788005009E-015 ,
         491 ,   4.4408920985006262E-016 ,
         492 ,   2.6645352591003757E-015 ,
         493 ,   0.0000000000000000      ,
         494 ,   1.7763568394002505E-015 ,
         495 ,   4.4408920985006262E-016 ,
         496 ,   2.2204460492503131E-015 ,
         497 ,   1.3322676295501878E-015 ,
         498 ,   2.2204460492503131E-015 ,
         499 ,   3.1086244689504383E-015 ,
         500 ,   2.6645352591003757E-015 ,
         501 ,   8.8817841970012523E-016 ,
         502 ,   0.0000000000000000      ,
         503 ,   1.3322676295501878E-015 ,
         504 ,   8.8817841970012523E-016 ,
         505 ,   2.6645352591003757E-015 ,
         506 ,   4.4408920985006262E-016 ,
         507 ,   4.4408920985006262E-016 ,
         508 ,   8.8817841970012523E-016 ,
         509 ,   4.4408920985006262E-016 ,
         510 ,   2.2204460492503131E-015 ,
         511 ,   2.6645352591003757E-015 ,
         512 ,   2.2204460492503131E-015 ,
         513 ,   3.9968028886505635E-015 ,
         514 ,   3.5527136788005009E-015 ,
         515 ,   1.7763568394002505E-015 ,
         516 ,   5.7731597280508140E-015 ,
         517 ,   4.4408920985006262E-015 ,
         518 ,   3.5527136788005009E-015 ,
         519 ,   2.6645352591003757E-015 ,
         520 ,   0.0000000000000000      ,
         521 ,   4.4408920985006262E-016 ,
         522 ,   3.5527136788005009E-015 ,
         523 ,   4.4408920985006262E-015 ,
         524 ,   0.0000000000000000      ,
         525 ,   0.0000000000000000      ,
         526 ,   2.2204460492503131E-015 ,
         527 ,   3.5527136788005009E-015 ,
         528 ,   1.7763568394002505E-015 ,
         529 ,   4.4408920985006262E-016 ,
         530 ,   1.3322676295501878E-015 ,
         531 ,   0.0000000000000000      ,
         532 ,   1.7763568394002505E-015 ,
         533 ,   1.3322676295501878E-015 ,
         534 ,   3.1086244689504383E-015 ,
         535 ,   4.8849813083506888E-015 ,
         536 ,   0.0000000000000000      ,
         537 ,   8.8817841970012523E-016 ,
         538 ,   0.0000000000000000      ,
         539 ,   1.3322676295501878E-015 ,
         540 ,   3.5527136788005009E-015 ,
         541 ,   8.8817841970012523E-016 ,
         542 ,   1.3322676295501878E-015 ,
         543 ,   2.6645352591003757E-015 ,
         544 ,   8.8817841970012523E-016 ,
         545 ,   0.0000000000000000      ,
         546 ,   1.3322676295501878E-015 ,
         547 ,   2.2204460492503131E-015 ,
         548 ,   2.2204460492503131E-015 ,
         549 ,   3.9968028886505635E-015 ,
         550 ,   8.8817841970012523E-016 ,
         551 ,   4.4408920985006262E-016 ,
         552 ,   4.4408920985006262E-016 ,
         553 ,   4.4408920985006262E-016 ,
         554 ,   0.0000000000000000      ,
         555 ,   1.7763568394002505E-015 ,
         556 ,   8.8817841970012523E-016 ,
         557 ,   1.7763568394002505E-015 ,
         558 ,   1.3322676295501878E-015 ,
         559 ,   3.1086244689504383E-015 ,
         560 ,   8.8817841970012523E-016 ,
         561 ,   4.4408920985006262E-016 ,
         562 ,   4.4408920985006262E-016 ,
         563 ,   3.9968028886505635E-015 ,
         564 ,   3.9968028886505635E-015 ,
         565 ,   1.3322676295501878E-015 ,
         566 ,   1.7763568394002505E-015 ,
         567 ,   6.6613381477509392E-015 ,
         568 ,   4.8849813083506888E-015 ,
         569 ,   1.3322676295501878E-015 ,
         570 ,   2.2204460492503131E-015 ,
         571 ,   3.1086244689504383E-015 ,
         572 ,   7.9936057773011271E-015 ,
         573 ,   1.7763568394002505E-015 ,
         574 ,   2.6645352591003757E-015 ,
         575 ,   0.0000000000000000      ,
         576 ,   2.2204460492503131E-015 ,
         577 ,   4.4408920985006262E-015 ,
         578 ,   3.1086244689504383E-015 ,
         579 ,   3.1086244689504383E-015 ,
         580 ,   0.0000000000000000      ,
         581 ,   2.2204460492503131E-015 ,
         582 ,   4.8849813083506888E-015 ,
         583 ,   4.8849813083506888E-015 ,
         584 ,   2.2204460492503131E-015 ,
         585 ,   2.2204460492503131E-015 ,
         586 ,   8.8817841970012523E-016 ,
         587 ,   0.0000000000000000      ,
         588 ,   2.6645352591003757E-015 ,
         589 ,   8.8817841970012523E-016 ,
         590 ,   1.3322676295501878E-015 ,
         591 ,   1.3322676295501878E-015 ,
         592 ,   4.4408920985006262E-016 ,
         593 ,   4.4408920985006262E-016 ,
         594 ,   4.4408920985006262E-016 ,
         595 ,   4.4408920985006262E-016 ,
         596 ,   2.2204460492503131E-015 ,
         597 ,   2.2204460492503131E-015 ,
         598 ,   2.6645352591003757E-015 ,
         599 ,   2.2204460492503131E-015 ,
         600 ,   1.7763568394002505E-015 ,
         601 ,   2.6645352591003757E-015 ,
         602 ,   1.7763568394002505E-015 ,
         603 ,   8.8817841970012523E-016 ,
         604 ,   1.3322676295501878E-015 ,
         605 ,   1.3322676295501878E-015 ,
         606 ,   3.5527136788005009E-015 ,
         607 ,   2.2204460492503131E-015 ,
         608 ,   4.4408920985006262E-016 ,
         609 ,   1.3322676295501878E-015 ,
         610 ,   0.0000000000000000      ,
         611 ,   8.8817841970012523E-016 ,
         612 ,   4.4408920985006262E-016 ,
         613 ,   1.3322676295501878E-015 ,
         614 ,   3.1086244689504383E-015 ,
         615 ,   4.4408920985006262E-015 ,
         616 ,   2.6645352591003757E-015 ,
         617 ,   1.3322676295501878E-015 ,
         618 ,   4.4408920985006262E-016 ,
         619 ,   0.0000000000000000      ,
         620 ,   2.2204460492503131E-015 ,
         621 ,   3.5527136788005009E-015 ,
         622 ,   5.7731597280508140E-015 ,
         623 ,   4.4408920985006262E-016 ,
         624 ,   1.7763568394002505E-015 ,
         625 ,   8.8817841970012523E-016 ,
         626 ,   4.8849813083506888E-015 ,
         627 ,   4.4408920985006262E-016 ,
         628 ,   2.6645352591003757E-015 ,
         629 ,   2.6645352591003757E-015 ,
         630 ,   8.8817841970012523E-016 ,
         631 ,   1.3322676295501878E-015 ,
         632 ,   8.8817841970012523E-016 ,
         633 ,   8.8817841970012523E-016 ,
         634 ,   8.8817841970012523E-016 ,
         635 ,   1.3322676295501878E-015 ,
         636 ,   1.7763568394002505E-015 ,
         637 ,   1.7763568394002505E-015 ,
         638 ,   8.8817841970012523E-016 ,
         639 ,   4.4408920985006262E-015 ,
         640 ,   3.1086244689504383E-015 ,
         641 ,   1.7763568394002505E-015 ,
         642 ,   3.5527136788005009E-015 ,
         643 ,   8.8817841970012523E-016 ,
         644 ,   0.0000000000000000      ,
         645 ,   4.4408920985006262E-016 ,
         646 ,   1.3322676295501878E-015 ,
         647 ,   1.7763568394002505E-015 ,
         648 ,   1.3322676295501878E-015 ,
         649 ,   5.7731597280508140E-015 ,
         650 ,   3.5527136788005009E-015 ,
         651 ,   8.8817841970012523E-016 ,
         652 ,   0.0000000000000000      ,
         653 ,   3.5527136788005009E-015 ,
         654 ,   4.8849813083506888E-015 ,
         655 ,   0.0000000000000000      ,
         656 ,   2.2204460492503131E-015 ,
         657 ,   3.9968028886505635E-015 ,
         658 ,   3.5527136788005009E-015 ,
         659 ,   4.4408920985006262E-016 ,
         660 ,   0.0000000000000000      ,
         661 ,   2.2204460492503131E-015 ,
         662 ,   1.7763568394002505E-015 ,
         663 ,   1.3322676295501878E-015 ,
         664 ,   8.8817841970012523E-016 ,
         665 ,   0.0000000000000000      ,
         666 ,   3.1086244689504383E-015 ,
         667 ,   4.4408920985006262E-015 ,
         668 ,   2.2204460492503131E-015 ,
         669 ,   0.0000000000000000      ,
         670 ,   2.2204460492503131E-015 ,
         671 ,   8.8817841970012523E-016 ,
         672 ,   2.2204460492503131E-015 ,
         673 ,   1.7763568394002505E-015 ,
         674 ,   2.6645352591003757E-015 ,
         675 ,   1.3322676295501878E-015 ,
         676 ,   1.7763568394002505E-015 ,
         677 ,   3.1086244689504383E-015 ,
         678 ,   3.1086244689504383E-015 ,
         679 ,   1.7763568394002505E-015 ,
         680 ,   3.1086244689504383E-015 ,
         681 ,   6.2172489379008766E-015 ,
         682 ,   2.6645352591003757E-015 ,
         683 ,   3.5527136788005009E-015 ,
         684 ,   1.7763568394002505E-015 ,
         685 ,   8.8817841970012523E-016 ,
         686 ,   0.0000000000000000      ,
         687 ,   1.7763568394002505E-015 ,
         688 ,   1.3322676295501878E-015 ,
         689 ,   8.8817841970012523E-016 ,
         690 ,   4.4408920985006262E-016 ,
         691 ,   2.6645352591003757E-015 ,
         692 ,   2.6645352591003757E-015 ,
         693 ,   0.0000000000000000      ,
         694 ,   2.6645352591003757E-015 ,
         695 ,   8.8817841970012523E-016 ,
         696 ,   1.7763568394002505E-015 ,
         697 ,   0.0000000000000000      ,
         698 ,   6.2172489379008766E-015 ,
         699 ,   6.6613381477509392E-015 ,
         700 ,   2.2204460492503131E-015 ,
         701 ,   1.7763568394002505E-015 ,
         702 ,   0.0000000000000000      ,
         703 ,   0.0000000000000000      ,
         704 ,   1.7763568394002505E-015 ,
         705 ,   8.8817841970012523E-016 ,
         706 ,   8.8817841970012523E-016 ,
         707 ,   2.6645352591003757E-015 ,
         708 ,   3.1086244689504383E-015 ,
         709 ,   2.6645352591003757E-015 ,
         710 ,   1.7763568394002505E-015 ,
         711 ,   1.3322676295501878E-015 ,
         712 ,   2.2204460492503131E-015 ,
         713 ,   4.4408920985006262E-016 ,
         714 ,   8.8817841970012523E-016 ,
         715 ,   1.3322676295501878E-015 ,
         716 ,   3.5527136788005009E-015 ,
         717 ,   3.9968028886505635E-015 ,
         718 ,   0.0000000000000000      ,
         719 ,   1.3322676295501878E-015 ,
         720 ,   6.6613381477509392E-015 ,
         721 ,   5.3290705182007514E-015 ,
         722 ,   3.1086244689504383E-015 ,
         723 ,   3.5527136788005009E-015 ,
         724 ,   2.6645352591003757E-015 ,
         725 ,   6.2172489379008766E-015 ,
         726 ,   8.8817841970012523E-015 ,
         727 ,   3.5527136788005009E-015 ,
         728 ,   2.2204460492503131E-015 ,
         729 ,   4.4408920985006262E-016 ,
         730 ,   8.8817841970012523E-016 ,
         731 ,   4.4408920985006262E-016 ,
         732 ,   4.4408920985006262E-016 ,
         733 ,   1.7763568394002505E-015 ,
         734 ,   2.6645352591003757E-015 ,
         735 ,   1.3322676295501878E-015 ,
         736 ,   2.6645352591003757E-015 ,
         737 ,   1.3322676295501878E-015 ,
         738 ,   4.4408920985006262E-016 ,
         739 ,   3.1086244689504383E-015 ,
         740 ,   1.3322676295501878E-015 ,
         741 ,   4.4408920985006262E-015 ,
         742 ,   6.2172489379008766E-015 ,
         743 ,   5.7731597280508140E-015 ,
         744 ,   2.6645352591003757E-015 ,
         745 ,   1.7763568394002505E-015 ,
         746 ,   4.4408920985006262E-015 ,
         747 ,   4.4408920985006262E-015 ,
         748 ,   3.9968028886505635E-015 ,
         749 ,   2.6645352591003757E-015 ,
         750 ,   1.3322676295501878E-015 ,
         751 ,   1.7763568394002505E-015 ,
         752 ,   1.7763568394002505E-015 ,
         753 ,   1.7763568394002505E-015 ,
         754 ,   3.1086244689504383E-015 ,
         755 ,   2.6645352591003757E-015 ,
         756 ,   3.1086244689504383E-015 ,
         757 ,   7.1054273576010019E-015 ,
         758 ,   3.9968028886505635E-015 ,
         759 ,   1.7763568394002505E-015 ,
         760 ,   1.7763568394002505E-015 ,
         761 ,   2.2204460492503131E-015 ,
         762 ,   4.4408920985006262E-016 ,
         763 ,   4.4408920985006262E-016 ,
         764 ,   2.6645352591003757E-015 ,
         765 ,   1.3322676295501878E-015 ,
         766 ,   4.4408920985006262E-016 ,
         767 ,   3.9968028886505635E-015 ,
         768 ,   2.2204460492503131E-015 ,
         769 ,   1.3322676295501878E-015 ,
         770 ,   3.1086244689504383E-015 ,
         771 ,   1.3322676295501878E-015 ,
         772 ,   3.9968028886505635E-015 ,
         773 ,   4.4408920985006262E-015 ,
         774 ,   5.3290705182007514E-015 ,
         775 ,   6.2172489379008766E-015 ,
         776 ,   7.5495165674510645E-015 ,
         777 ,   4.8849813083506888E-015 ,
         778 ,   0.0000000000000000      ,
         779 ,   0.0000000000000000      ,
         780 ,   6.2172489379008766E-015 ,
         781 ,   6.6613381477509392E-015 ,
         782 ,   1.7763568394002505E-015 ,
         783 ,   4.4408920985006262E-016 ,
         784 ,   8.8817841970012523E-016 ,
         785 ,   8.8817841970012523E-016 ,
         786 ,   1.3322676295501878E-015 ,
         787 ,   4.4408920985006262E-016 ,
         788 ,   8.8817841970012523E-016 ,
         789 ,   3.1086244689504383E-015 ,
         790 ,   2.6645352591003757E-015 ,
         791 ,   5.7731597280508140E-015 ,
         792 ,   6.6613381477509392E-015 ,
         793 ,   2.6645352591003757E-015 ,
         794 ,   4.4408920985006262E-016 ,
         795 ,   3.5527136788005009E-015 ,
         796 ,   3.1086244689504383E-015 ,
         797 ,   3.5527136788005009E-015 ,
         798 ,   4.4408920985006262E-016 ,
         799 ,   1.3322676295501878E-015 ,
         800 ,   8.8817841970012523E-016 ,
         801 ,   3.5527136788005009E-015 ,
         802 ,   3.1086244689504383E-015 ,
         803 ,   2.2204460492503131E-015 ,
         804 ,   8.8817841970012523E-016 ,
         805 ,   4.4408920985006262E-016 ,
         806 ,   3.1086244689504383E-015 ,
         807 ,   8.8817841970012523E-016 ,
         808 ,   2.2204460492503131E-015 ,
         809 ,   8.8817841970012523E-016 ,
         810 ,   0.0000000000000000      ,
         811 ,   2.2204460492503131E-015 ,
         812 ,   0.0000000000000000      ,
         813 ,   8.8817841970012523E-016 ,
         814 ,   1.3322676295501878E-015 ,
         815 ,   8.8817841970012523E-016 ,
         816 ,   1.3322676295501878E-015 ,
         817 ,   1.3322676295501878E-015 ,
         818 ,   3.5527136788005009E-015 ,
         819 ,   1.7763568394002505E-015 ,
         820 ,   2.2204460492503131E-015 ,
         821 ,   3.9968028886505635E-015 ,
         822 ,   1.7763568394002505E-015 ,
         823 ,   2.6645352591003757E-015 ,
         824 ,   3.5527136788005009E-015 ,
         825 ,   3.5527136788005009E-015 ,
         826 ,   4.4408920985006262E-016 ,
         827 ,   5.7731597280508140E-015 ,
         828 ,   6.2172489379008766E-015 ,
         829 ,   1.7763568394002505E-015 ,
         830 ,   2.6645352591003757E-015 ,
         831 ,   1.3322676295501878E-015 ,
         832 ,   4.8849813083506888E-015 ,
         833 ,   8.8817841970012523E-016 ,
         834 ,   1.7763568394002505E-015 ,
         835 ,   3.1086244689504383E-015 ,
         836 ,   4.8849813083506888E-015 ,
         837 ,   3.1086244689504383E-015 ,
         838 ,   4.4408920985006262E-015 ,
         839 ,   8.8817841970012523E-016 ,
         840 ,   0.0000000000000000      ,
         841 ,   8.8817841970012523E-016 ,
         842 ,   4.4408920985006262E-016 ,
         843 ,   3.1086244689504383E-015 ,
         844 ,   4.8849813083506888E-015 ,
         845 ,   3.9968028886505635E-015 ,
         846 ,   0.0000000000000000      ,
         847 ,   3.1086244689504383E-015 ,
         848 ,   4.8849813083506888E-015 ,
         849 ,   2.6645352591003757E-015 ,
         850 ,   3.1086244689504383E-015 ,
         851 ,   1.3322676295501878E-015 ,
         852 ,   1.7763568394002505E-015 ,
         853 ,   6.2172489379008766E-015 ,
         854 ,   7.5495165674510645E-015 ,
         855 ,   5.7731597280508140E-015 ,
         856 ,   2.6645352591003757E-015 ,
         857 ,   4.4408920985006262E-016 ,
         858 ,   8.8817841970012523E-016 ,
         859 ,   1.7763568394002505E-015 ,
         860 ,   3.9968028886505635E-015 ,
         861 ,   3.9968028886505635E-015 ,
         862 ,   3.5527136788005009E-015 ,
         863 ,   4.4408920985006262E-016 ,
         864 ,   3.1086244689504383E-015 ,
         865 ,   3.5527136788005009E-015 ,
         866 ,   0.0000000000000000      ,
         867 ,   2.6645352591003757E-015 ,
         868 ,   1.7763568394002505E-015 ,
         869 ,   4.8849813083506888E-015 ,
         870 ,   3.5527136788005009E-015 ,
         871 ,   3.1086244689504383E-015 ,
         872 ,   1.3322676295501878E-015 ,
         873 ,   5.3290705182007514E-015 ,
         874 ,   3.5527136788005009E-015 ,
         875 ,   8.8817841970012523E-016 ,
         876 ,   2.2204460492503131E-015 ,
         877 ,   4.4408920985006262E-016 ,
         878 ,   4.4408920985006262E-015 ,
         879 ,   4.4408920985006262E-016 ,
         880 ,   0.0000000000000000      ,
         881 ,   1.7763568394002505E-015 ,
         882 ,   0.0000000000000000      ,
         883 ,   8.8817841970012523E-016 ,
         884 ,   2.6645352591003757E-015 ,
         885 ,   4.4408920985006262E-016 ,
         886 ,   8.8817841970012523E-016 ,
         887 ,   7.1054273576010019E-015 ,
         888 ,   1.7763568394002505E-015 ,
         889 ,   4.4408920985006262E-016 ,
         890 ,   3.5527136788005009E-015 ,
         891 ,   2.2204460492503131E-015 ,
         892 ,   3.1086244689504383E-015 ,
         893 ,   3.5527136788005009E-015 ,
         894 ,   3.5527136788005009E-015 ,
         895 ,   0.0000000000000000      ,
         896 ,   2.6645352591003757E-015 ,
         897 ,   9.7699626167013776E-015 ,
         898 ,   3.1086244689504383E-015 ,
         899 ,   3.1086244689504383E-015 ,
         900 ,   2.2204460492503131E-015 ,
         901 ,   4.4408920985006262E-015 ,
         902 ,   1.7763568394002505E-015 ,
         903 ,   4.4408920985006262E-016 ,
         904 ,   8.8817841970012523E-016 ,
         905 ,   2.2204460492503131E-015 ,
         906 ,   3.9968028886505635E-015 ,
         907 ,   3.9968028886505635E-015 ,
         908 ,   8.8817841970012523E-016 ,
         909 ,   3.9968028886505635E-015 ,
         910 ,   3.1086244689504383E-015 ,
         911 ,   5.3290705182007514E-015 ,
         912 ,   6.6613381477509392E-015 ,
         913 ,   4.8849813083506888E-015 ,
         914 ,   8.8817841970012523E-016 ,
         915 ,   4.4408920985006262E-015 ,
         916 ,   4.4408920985006262E-015 ,
         917 ,   0.0000000000000000      ,
         918 ,   4.8849813083506888E-015 ,
         919 ,   1.3322676295501878E-015 ,
         920 ,   4.8849813083506888E-015 ,
         921 ,   7.5495165674510645E-015 ,
         922 ,   6.6613381477509392E-015 ,
         923 ,   3.5527136788005009E-015 ,
         924 ,   2.2204460492503131E-015 ,
         925 ,   8.8817841970012523E-016 ,
         926 ,   3.9968028886505635E-015 ,
         927 ,   4.4408920985006262E-016 ,
         928 ,   3.1086244689504383E-015 ,
         929 ,   6.2172489379008766E-015 ,
         930 ,   4.4408920985006262E-016 ,
         931 ,   1.3322676295501878E-015 ,
         932 ,   3.5527136788005009E-015 ,
         933 ,   0.0000000000000000      ,
         934 ,   3.1086244689504383E-015 ,
         935 ,   8.8817841970012523E-016 ,
         936 ,   3.5527136788005009E-015 ,
         937 ,   3.5527136788005009E-015 ,
         938 ,   8.8817841970012523E-016 ,
         939 ,   4.8849813083506888E-015 ,
         940 ,   4.4408920985006262E-016 ,
         941 ,   3.1086244689504383E-015 ,
         942 ,   4.4408920985006262E-016 ,
         943 ,   4.4408920985006262E-015 ,
         944 ,   3.1086244689504383E-015 ,
         945 ,   8.8817841970012523E-016 ,
         946 ,   1.3322676295501878E-015 ,
         947 ,   7.1054273576010019E-015 ,
         948 ,   4.8849813083506888E-015 ,
         949 ,   1.3322676295501878E-015 ,
         950 ,   4.4408920985006262E-016 ,
         951 ,   2.6645352591003757E-015 ,
         952 ,   1.7763568394002505E-015 ,
         953 ,   8.8817841970012523E-016 ,
         954 ,   2.6645352591003757E-015 ,
         955 ,   4.4408920985006262E-016 ,
         956 ,   4.4408920985006262E-016 ,
         957 ,   4.8849813083506888E-015 ,
         958 ,   6.2172489379008766E-015 ,
         959 ,   2.2204460492503131E-015 ,
