%!PS-Adobe-3.0 EPSF-3.0
%%Creator: (MATLAB, The Mathworks, Inc. Version 9.2.0.556344 \(R2017a\). Operating System: Linux)
%%Title: ./grid.eps
%%CreationDate: 2017-10-21T17:26:22
%%Pages: (atend)
%%BoundingBox:    31    20   381   296
%%LanguageLevel: 2
%%EndComments
%%BeginProlog
%%BeginResource: procset (Apache XML Graphics Std ProcSet) 1.2 0
%%Version: 1.2 0
%%Copyright: (Copyright 2001-2003,2010 The Apache Software Foundation. License terms: http://www.apache.org/licenses/LICENSE-2.0)
/bd{bind def}bind def
/ld{load def}bd
/GR/grestore ld
/M/moveto ld
/LJ/setlinejoin ld
/C/curveto ld
/f/fill ld
/LW/setlinewidth ld
/GC/setgray ld
/t/show ld
/N/newpath ld
/CT/concat ld
/cp/closepath ld
/S/stroke ld
/L/lineto ld
/CC/setcmykcolor ld
/A/ashow ld
/GS/gsave ld
/RC/setrgbcolor ld
/RM/rmoveto ld
/ML/setmiterlimit ld
/re {4 2 roll M
1 index 0 rlineto
0 exch rlineto
neg 0 rlineto
cp } bd
/_ctm matrix def
/_tm matrix def
/BT { _ctm currentmatrix pop matrix _tm copy pop 0 0 moveto } bd
/ET { _ctm setmatrix } bd
/iTm { _ctm setmatrix _tm concat } bd
/Tm { _tm astore pop iTm 0 0 moveto } bd
/ux 0.0 def
/uy 0.0 def
/F {
  /Tp exch def
  /Tf exch def
  Tf findfont Tp scalefont setfont
  /cf Tf def  /cs Tp def
} bd
/ULS {currentpoint /uy exch def /ux exch def} bd
/ULE {
  /Tcx currentpoint pop def
  gsave
  newpath
  cf findfont cs scalefont dup
  /FontMatrix get 0 get /Ts exch def /FontInfo get dup
  /UnderlinePosition get Ts mul /To exch def
  /UnderlineThickness get Ts mul /Tt exch def
  ux uy To add moveto  Tcx uy To add lineto
  Tt setlinewidth stroke
  grestore
} bd
/OLE {
  /Tcx currentpoint pop def
  gsave
  newpath
  cf findfont cs scalefont dup
  /FontMatrix get 0 get /Ts exch def /FontInfo get dup
  /UnderlinePosition get Ts mul /To exch def
  /UnderlineThickness get Ts mul /Tt exch def
  ux uy To add cs add moveto Tcx uy To add cs add lineto
  Tt setlinewidth stroke
  grestore
} bd
/SOE {
  /Tcx currentpoint pop def
  gsave
  newpath
  cf findfont cs scalefont dup
  /FontMatrix get 0 get /Ts exch def /FontInfo get dup
  /UnderlinePosition get Ts mul /To exch def
  /UnderlineThickness get Ts mul /Tt exch def
  ux uy To add cs 10 mul 26 idiv add moveto Tcx uy To add cs 10 mul 26 idiv add lineto
  Tt setlinewidth stroke
  grestore
} bd
/QT {
/Y22 exch store
/X22 exch store
/Y21 exch store
/X21 exch store
currentpoint
/Y21 load 2 mul add 3 div exch
/X21 load 2 mul add 3 div exch
/X21 load 2 mul /X22 load add 3 div
/Y21 load 2 mul /Y22 load add 3 div
/X22 load /Y22 load curveto
} bd
/SSPD {
dup length /d exch dict def
{
/v exch def
/k exch def
currentpagedevice k known {
/cpdv currentpagedevice k get def
v cpdv ne {
/upd false def
/nullv v type /nulltype eq def
/nullcpdv cpdv type /nulltype eq def
nullv nullcpdv or
{
/upd true def
} {
/sametype v type cpdv type eq def
sametype {
v type /arraytype eq {
/vlen v length def
/cpdvlen cpdv length def
vlen cpdvlen eq {
0 1 vlen 1 sub {
/i exch def
/obj v i get def
/cpdobj cpdv i get def
obj cpdobj ne {
/upd true def
exit
} if
} for
} {
/upd true def
} ifelse
} {
v type /dicttype eq {
v {
/dv exch def
/dk exch def
/cpddv cpdv dk get def
dv cpddv ne {
/upd true def
exit
} if
} forall
} {
/upd true def
} ifelse
} ifelse
} if
} ifelse
upd true eq {
d k v put
} if
} if
} if
} forall
d length 0 gt {
d setpagedevice
} if
} bd
/RE { % /NewFontName [NewEncodingArray] /FontName RE -
  findfont dup length dict begin
  {
    1 index /FID ne
    {def} {pop pop} ifelse
  } forall
  /Encoding exch def
  /FontName 1 index def
  currentdict definefont pop
  end
} bind def
%%EndResource
%%BeginResource: procset (Apache XML Graphics EPS ProcSet) 1.0 0
%%Version: 1.0 0
%%Copyright: (Copyright 2002-2003 The Apache Software Foundation. License terms: http://www.apache.org/licenses/LICENSE-2.0)
/BeginEPSF { %def
/b4_Inc_state save def         % Save state for cleanup
/dict_count countdictstack def % Count objects on dict stack
/op_count count 1 sub def      % Count objects on operand stack
userdict begin                 % Push userdict on dict stack
/showpage { } def              % Redefine showpage, { } = null proc
0 setgray 0 setlinecap         % Prepare graphics state
1 setlinewidth 0 setlinejoin
10 setmiterlimit [ ] 0 setdash newpath
/languagelevel where           % If level not equal to 1 then
{pop languagelevel             % set strokeadjust and
1 ne                           % overprint to their defaults.
{false setstrokeadjust false setoverprint
} if
} if
} bd
/EndEPSF { %def
count op_count sub {pop} repeat            % Clean up stacks
countdictstack dict_count sub {end} repeat
b4_Inc_state restore
} bd
%%EndResource
%FOPBeginFontDict
%%IncludeResource: font Courier-Bold
%%IncludeResource: font Helvetica
%%IncludeResource: font Courier-BoldOblique
%%IncludeResource: font Courier-Oblique
%%IncludeResource: font Times-Roman
%%IncludeResource: font Helvetica-BoldOblique
%%IncludeResource: font Helvetica-Bold
%%IncludeResource: font Helvetica-Oblique
%%IncludeResource: font Times-BoldItalic
%%IncludeResource: font Courier
%%IncludeResource: font Times-Italic
%%IncludeResource: font Times-Bold
%%IncludeResource: font Symbol
%%IncludeResource: font ZapfDingbats
%FOPEndFontDict
%%BeginResource: encoding WinAnsiEncoding
/WinAnsiEncoding [
/.notdef /.notdef /.notdef /.notdef /.notdef
/.notdef /.notdef /.notdef /.notdef /.notdef
/.notdef /.notdef /.notdef /.notdef /.notdef
/.notdef /.notdef /.notdef /.notdef /.notdef
/.notdef /.notdef /.notdef /.notdef /.notdef
/.notdef /.notdef /.notdef /.notdef /.notdef
/.notdef /.notdef /space /exclam /quotedbl
/numbersign /dollar /percent /ampersand /quotesingle
/parenleft /parenright /asterisk /plus /comma
/hyphen /period /slash /zero /one
/two /three /four /five /six
/seven /eight /nine /colon /semicolon
/less /equal /greater /question /at
/A /B /C /D /E
/F /G /H /I /J
/K /L /M /N /O
/P /Q /R /S /T
/U /V /W /X /Y
/Z /bracketleft /backslash /bracketright /asciicircum
/underscore /quoteleft /a /b /c
/d /e /f /g /h
/i /j /k /l /m
/n /o /p /q /r
/s /t /u /v /w
/x /y /z /braceleft /bar
/braceright /asciitilde /bullet /Euro /bullet
/quotesinglbase /florin /quotedblbase /ellipsis /dagger
/daggerdbl /circumflex /perthousand /Scaron /guilsinglleft
/OE /bullet /Zcaron /bullet /bullet
/quoteleft /quoteright /quotedblleft /quotedblright /bullet
/endash /emdash /asciitilde /trademark /scaron
/guilsinglright /oe /bullet /zcaron /Ydieresis
/space /exclamdown /cent /sterling /currency
/yen /brokenbar /section /dieresis /copyright
/ordfeminine /guillemotleft /logicalnot /sfthyphen /registered
/macron /degree /plusminus /twosuperior /threesuperior
/acute /mu /paragraph /middot /cedilla
/onesuperior /ordmasculine /guillemotright /onequarter /onehalf
/threequarters /questiondown /Agrave /Aacute /Acircumflex
/Atilde /Adieresis /Aring /AE /Ccedilla
/Egrave /Eacute /Ecircumflex /Edieresis /Igrave
/Iacute /Icircumflex /Idieresis /Eth /Ntilde
/Ograve /Oacute /Ocircumflex /Otilde /Odieresis
/multiply /Oslash /Ugrave /Uacute /Ucircumflex
/Udieresis /Yacute /Thorn /germandbls /agrave
/aacute /acircumflex /atilde /adieresis /aring
/ae /ccedilla /egrave /eacute /ecircumflex
/edieresis /igrave /iacute /icircumflex /idieresis
/eth /ntilde /ograve /oacute /ocircumflex
/otilde /odieresis /divide /oslash /ugrave
/uacute /ucircumflex /udieresis /yacute /thorn
/ydieresis
] def
%%EndResource
%FOPBeginFontReencode
/Courier-Bold findfont
dup length dict begin
  {1 index /FID ne {def} {pop pop} ifelse} forall
  /Encoding WinAnsiEncoding def
  currentdict
end
/Courier-Bold exch definefont pop
/Helvetica findfont
dup length dict begin
  {1 index /FID ne {def} {pop pop} ifelse} forall
  /Encoding WinAnsiEncoding def
  currentdict
end
/Helvetica exch definefont pop
/Courier-BoldOblique findfont
dup length dict begin
  {1 index /FID ne {def} {pop pop} ifelse} forall
  /Encoding WinAnsiEncoding def
  currentdict
end
/Courier-BoldOblique exch definefont pop
/Courier-Oblique findfont
dup length dict begin
  {1 index /FID ne {def} {pop pop} ifelse} forall
  /Encoding WinAnsiEncoding def
  currentdict
end
/Courier-Oblique exch definefont pop
/Times-Roman findfont
dup length dict begin
  {1 index /FID ne {def} {pop pop} ifelse} forall
  /Encoding WinAnsiEncoding def
  currentdict
end
/Times-Roman exch definefont pop
/Helvetica-BoldOblique findfont
dup length dict begin
  {1 index /FID ne {def} {pop pop} ifelse} forall
  /Encoding WinAnsiEncoding def
  currentdict
end
/Helvetica-BoldOblique exch definefont pop
/Helvetica-Bold findfont
dup length dict begin
  {1 index /FID ne {def} {pop pop} ifelse} forall
  /Encoding WinAnsiEncoding def
  currentdict
end
/Helvetica-Bold exch definefont pop
/Helvetica-Oblique findfont
dup length dict begin
  {1 index /FID ne {def} {pop pop} ifelse} forall
  /Encoding WinAnsiEncoding def
  currentdict
end
/Helvetica-Oblique exch definefont pop
/Times-BoldItalic findfont
dup length dict begin
  {1 index /FID ne {def} {pop pop} ifelse} forall
  /Encoding WinAnsiEncoding def
  currentdict
end
/Times-BoldItalic exch definefont pop
/Courier findfont
dup length dict begin
  {1 index /FID ne {def} {pop pop} ifelse} forall
  /Encoding WinAnsiEncoding def
  currentdict
end
/Courier exch definefont pop
/Times-Italic findfont
dup length dict begin
  {1 index /FID ne {def} {pop pop} ifelse} forall
  /Encoding WinAnsiEncoding def
  currentdict
end
/Times-Italic exch definefont pop
/Times-Bold findfont
dup length dict begin
  {1 index /FID ne {def} {pop pop} ifelse} forall
  /Encoding WinAnsiEncoding def
  currentdict
end
/Times-Bold exch definefont pop
%FOPEndFontReencode
%%EndProlog
%%Page: 1 1
%%PageBoundingBox: 0 0 420 315
%%BeginPageSetup
[1 0 0 -1 0 315] CT
%%EndPageSetup
GS
[0.75 0 0 0.75 0 0] CT
1 GC
N
0 0 560 420 re
f
GR
GS
[0.75 0 0 0.75 0 0] CT
1 GC
N
0 0 560 420 re
f
GR
GS
[0.75 0 0 0.75 0 0] CT
1 GC
N
73 373.65 M
507 373.65 L
507 31.35 L
73 31.35 L
cp
f
GR
GS
[0.75 0 0 0.75 0 0] CT
0.149 GC
2 setlinecap
1 LJ
0.667 LW
N
73 373.65 M
507 373.65 L
S
GR
GS
[0.75 0 0 0.75 0 0] CT
0.149 GC
2 setlinecap
1 LJ
0.667 LW
N
73 31.35 M
507 31.35 L
S
GR
GS
[0.75 0 0 0.75 0 0] CT
0.149 GC
2 setlinecap
1 LJ
0.667 LW
N
118.85 373.65 M
118.85 369.31 L
S
GR
GS
[0.75 0 0 0.75 0 0] CT
0.149 GC
2 setlinecap
1 LJ
0.667 LW
N
204.425 373.65 M
204.425 369.31 L
S
GR
GS
[0.75 0 0 0.75 0 0] CT
0.149 GC
2 setlinecap
1 LJ
0.667 LW
N
290 373.65 M
290 369.31 L
S
GR
GS
[0.75 0 0 0.75 0 0] CT
0.149 GC
2 setlinecap
1 LJ
0.667 LW
N
375.575 373.65 M
375.575 369.31 L
S
GR
GS
[0.75 0 0 0.75 0 0] CT
0.149 GC
2 setlinecap
1 LJ
0.667 LW
N
461.15 373.65 M
461.15 369.31 L
S
GR
GS
[0.75 0 0 0.75 0 0] CT
0.149 GC
2 setlinecap
1 LJ
0.667 LW
N
118.85 31.35 M
118.85 35.69 L
S
GR
GS
[0.75 0 0 0.75 0 0] CT
0.149 GC
2 setlinecap
1 LJ
0.667 LW
N
204.425 31.35 M
204.425 35.69 L
S
GR
GS
[0.75 0 0 0.75 0 0] CT
0.149 GC
2 setlinecap
1 LJ
0.667 LW
N
290 31.35 M
290 35.69 L
S
GR
GS
[0.75 0 0 0.75 0 0] CT
0.149 GC
2 setlinecap
1 LJ
0.667 LW
N
375.575 31.35 M
375.575 35.69 L
S
GR
GS
[0.75 0 0 0.75 0 0] CT
0.149 GC
2 setlinecap
1 LJ
0.667 LW
N
461.15 31.35 M
461.15 35.69 L
S
GR
GS
[0.75 0 0 0.75 89.1375 284.2375] CT
0.149 GC
/Helvetica 13.333 F
GS
[1 0 0 1 0 0] CT
-6.5 13 moveto 
1 -1 scale
(-1) t 
GR
GR
GS
[0.75 0 0 0.75 153.31875 284.2375] CT
0.149 GC
/Helvetica 13.333 F
GS
[1 0 0 1 0 0] CT
-13 13 moveto 
1 -1 scale
(-0.5) t 
GR
GR
GS
[0.75 0 0 0.75 217.5 284.2375] CT
0.149 GC
/Helvetica 13.333 F
GS
[1 0 0 1 0 0] CT
-4.5 13 moveto 
1 -1 scale
(0) t 
GR
GR
GS
[0.75 0 0 0.75 281.68126 284.2375] CT
0.149 GC
/Helvetica 13.333 F
GS
[1 0 0 1 0 0] CT
-10.5 13 moveto 
1 -1 scale
(0.5) t 
GR
GR
GS
[0.75 0 0 0.75 345.8625 284.2375] CT
0.149 GC
/Helvetica 13.333 F
GS
[1 0 0 1 0 0] CT
-4.5 13 moveto 
1 -1 scale
(1) t 
GR
GR
GS
[0.75 0 0 0.75 0 0] CT
0.149 GC
2 setlinecap
1 LJ
0.667 LW
N
73 373.65 M
73 31.35 L
S
GR
GS
[0.75 0 0 0.75 0 0] CT
0.149 GC
2 setlinecap
1 LJ
0.667 LW
N
507 373.65 M
507 31.35 L
S
GR
GS
[0.75 0 0 0.75 0 0] CT
0.149 GC
2 setlinecap
1 LJ
0.667 LW
N
73 373.65 M
77.34 373.65 L
S
GR
GS
[0.75 0 0 0.75 0 0] CT
0.149 GC
2 setlinecap
1 LJ
0.667 LW
N
73 339.42 M
77.34 339.42 L
S
GR
GS
[0.75 0 0 0.75 0 0] CT
0.149 GC
2 setlinecap
1 LJ
0.667 LW
N
73 305.19 M
77.34 305.19 L
S
GR
GS
[0.75 0 0 0.75 0 0] CT
0.149 GC
2 setlinecap
1 LJ
0.667 LW
N
73 270.96 M
77.34 270.96 L
S
GR
GS
[0.75 0 0 0.75 0 0] CT
0.149 GC
2 setlinecap
1 LJ
0.667 LW
N
73 236.73 M
77.34 236.73 L
S
GR
GS
[0.75 0 0 0.75 0 0] CT
0.149 GC
2 setlinecap
1 LJ
0.667 LW
N
73 202.5 M
77.34 202.5 L
S
GR
GS
[0.75 0 0 0.75 0 0] CT
0.149 GC
2 setlinecap
1 LJ
0.667 LW
N
73 168.27 M
77.34 168.27 L
S
GR
GS
[0.75 0 0 0.75 0 0] CT
0.149 GC
2 setlinecap
1 LJ
0.667 LW
N
73 134.04 M
77.34 134.04 L
S
GR
GS
[0.75 0 0 0.75 0 0] CT
0.149 GC
2 setlinecap
1 LJ
0.667 LW
N
73 99.81 M
77.34 99.81 L
S
GR
GS
[0.75 0 0 0.75 0 0] CT
0.149 GC
2 setlinecap
1 LJ
0.667 LW
N
73 65.58 M
77.34 65.58 L
S
GR
GS
[0.75 0 0 0.75 0 0] CT
0.149 GC
2 setlinecap
1 LJ
0.667 LW
N
73 31.35 M
77.34 31.35 L
S
GR
GS
[0.75 0 0 0.75 0 0] CT
0.149 GC
2 setlinecap
1 LJ
0.667 LW
N
507 373.65 M
502.66 373.65 L
S
GR
GS
[0.75 0 0 0.75 0 0] CT
0.149 GC
2 setlinecap
1 LJ
0.667 LW
N
507 339.42 M
502.66 339.42 L
S
GR
GS
[0.75 0 0 0.75 0 0] CT
0.149 GC
2 setlinecap
1 LJ
0.667 LW
N
507 305.19 M
502.66 305.19 L
S
GR
GS
[0.75 0 0 0.75 0 0] CT
0.149 GC
2 setlinecap
1 LJ
0.667 LW
N
507 270.96 M
502.66 270.96 L
S
GR
GS
[0.75 0 0 0.75 0 0] CT
0.149 GC
2 setlinecap
1 LJ
0.667 LW
N
507 236.73 M
502.66 236.73 L
S
GR
GS
[0.75 0 0 0.75 0 0] CT
0.149 GC
2 setlinecap
1 LJ
0.667 LW
N
507 202.5 M
502.66 202.5 L
S
GR
GS
[0.75 0 0 0.75 0 0] CT
0.149 GC
2 setlinecap
1 LJ
0.667 LW
N
507 168.27 M
502.66 168.27 L
S
GR
GS
[0.75 0 0 0.75 0 0] CT
0.149 GC
2 setlinecap
1 LJ
0.667 LW
N
507 134.04 M
502.66 134.04 L
S
GR
GS
[0.75 0 0 0.75 0 0] CT
0.149 GC
2 setlinecap
1 LJ
0.667 LW
N
507 99.81 M
502.66 99.81 L
S
GR
GS
[0.75 0 0 0.75 0 0] CT
0.149 GC
2 setlinecap
1 LJ
0.667 LW
N
507 65.58 M
502.66 65.58 L
S
GR
GS
[0.75 0 0 0.75 0 0] CT
0.149 GC
2 setlinecap
1 LJ
0.667 LW
N
507 31.35 M
502.66 31.35 L
S
GR
GS
[0.75 0 0 0.75 50.74999 280.2375] CT
0.149 GC
/Helvetica 13.333 F
GS
[1 0 0 1 0 0] CT
-13 4.5 moveto 
1 -1 scale
(-1) t 
GR
GR
GS
[0.75 0 0 0.75 50.74999 254.56501] CT
0.149 GC
/Helvetica 13.333 F
GS
[1 0 0 1 0 0] CT
-26 4.5 moveto 
1 -1 scale
(-0.8) t 
GR
GR
GS
[0.75 0 0 0.75 50.74999 228.8925] CT
0.149 GC
/Helvetica 13.333 F
GS
[1 0 0 1 0 0] CT
-26 4.5 moveto 
1 -1 scale
(-0.6) t 
GR
GR
GS
[0.75 0 0 0.75 50.74999 203.21999] CT
0.149 GC
/Helvetica 13.333 F
GS
[1 0 0 1 0 0] CT
-26 4.5 moveto 
1 -1 scale
(-0.4) t 
GR
GR
GS
[0.75 0 0 0.75 50.74999 177.5475] CT
0.149 GC
/Helvetica 13.333 F
GS
[1 0 0 1 0 0] CT
-26 4.5 moveto 
1 -1 scale
(-0.2) t 
GR
GR
GS
[0.75 0 0 0.75 50.74999 151.875] CT
0.149 GC
/Helvetica 13.333 F
GS
[1 0 0 1 0 0] CT
-9 4.5 moveto 
1 -1 scale
(0) t 
GR
GR
GS
[0.75 0 0 0.75 50.74999 126.2025] CT
0.149 GC
/Helvetica 13.333 F
GS
[1 0 0 1 0 0] CT
-21 4.5 moveto 
1 -1 scale
(0.2) t 
GR
GR
GS
[0.75 0 0 0.75 50.74999 100.52999] CT
0.149 GC
/Helvetica 13.333 F
GS
[1 0 0 1 0 0] CT
-21 4.5 moveto 
1 -1 scale
(0.4) t 
GR
GR
GS
[0.75 0 0 0.75 50.74999 74.8575] CT
0.149 GC
/Helvetica 13.333 F
GS
[1 0 0 1 0 0] CT
-21 4.5 moveto 
1 -1 scale
(0.6) t 
GR
GR
GS
[0.75 0 0 0.75 50.74999 49.185] CT
0.149 GC
/Helvetica 13.333 F
GS
[1 0 0 1 0 0] CT
-21 4.5 moveto 
1 -1 scale
(0.8) t 
GR
GR
GS
[0.75 0 0 0.75 50.74999 23.5125] CT
0.149 GC
/Helvetica 13.333 F
GS
[1 0 0 1 0 0] CT
-9 4.5 moveto 
1 -1 scale
(1) t 
GR
GR
GS
[0.75 0 0 0.75 0 0] CT
1 LJ
0.667 LW
N
101.735 373.65 M
102.305 367.945 L
102.876 362.24 L
103.446 356.535 L
104.017 350.83 L
104.587 345.125 L
105.158 339.42 L
105.728 333.715 L
106.299 328.01 L
106.869 322.305 L
107.44 316.6 L
108.01 310.895 L
108.581 305.19 L
109.152 299.485 L
109.722 293.78 L
110.293 288.075 L
110.863 282.37 L
111.434 276.665 L
112.004 270.96 L
112.575 265.255 L
113.145 259.55 L
113.716 253.845 L
114.286 248.14 L
114.857 242.435 L
115.427 236.73 L
115.998 231.025 L
116.568 225.32 L
117.139 219.615 L
117.709 213.91 L
118.28 208.205 L
118.85 202.5 L
119.421 196.795 L
119.991 191.09 L
120.562 185.385 L
121.132 179.68 L
121.702 173.975 L
122.273 168.27 L
122.843 162.565 L
123.414 156.86 L
123.984 151.155 L
124.555 145.45 L
125.126 139.745 L
125.696 134.04 L
126.267 128.335 L
126.837 122.63 L
127.408 116.925 L
127.978 111.22 L
128.549 105.515 L
129.119 99.81 L
129.689 94.105 L
130.26 88.4 L
130.831 82.695 L
131.401 76.99 L
131.971 71.285 L
132.542 65.58 L
133.113 59.875 L
133.683 54.17 L
134.253 48.465 L
134.824 42.76 L
135.395 37.055 L
135.965 31.35 L
S
GR
GS
[0.75 0 0 0.75 0 0] CT
1 LJ
0.667 LW
N
113.145 373.65 M
113.716 367.945 L
114.286 362.24 L
114.857 356.535 L
115.427 350.83 L
115.998 345.125 L
116.568 339.42 L
117.139 333.715 L
117.709 328.01 L
118.28 322.305 L
118.85 316.6 L
119.421 310.895 L
119.991 305.19 L
120.562 299.485 L
121.132 293.78 L
121.702 288.075 L
122.273 282.37 L
122.843 276.665 L
123.414 270.96 L
123.984 265.255 L
124.555 259.55 L
125.126 253.845 L
125.696 248.14 L
126.267 242.435 L
126.837 236.73 L
127.408 231.025 L
127.978 225.32 L
128.549 219.615 L
129.119 213.91 L
129.689 208.205 L
130.26 202.5 L
130.831 196.795 L
131.401 191.09 L
131.971 185.385 L
132.542 179.68 L
133.113 173.975 L
133.683 168.27 L
134.253 162.565 L
134.824 156.86 L
135.395 151.155 L
135.965 145.45 L
136.536 139.745 L
137.106 134.04 L
137.676 128.335 L
138.247 122.63 L
138.818 116.925 L
139.388 111.22 L
139.958 105.515 L
140.529 99.81 L
141.1 94.105 L
141.67 88.4 L
142.24 82.695 L
142.811 76.99 L
143.382 71.285 L
143.952 65.58 L
144.522 59.875 L
145.093 54.17 L
145.663 48.465 L
146.234 42.76 L
146.805 37.055 L
147.375 31.35 L
S
GR
GS
[0.75 0 0 0.75 0 0] CT
1 LJ
0.667 LW
N
124.555 373.65 M
125.126 367.945 L
125.696 362.24 L
126.267 356.535 L
126.837 350.83 L
127.408 345.125 L
127.978 339.42 L
128.549 333.715 L
129.119 328.01 L
129.689 322.305 L
130.26 316.6 L
130.831 310.895 L
131.401 305.19 L
131.971 299.485 L
132.542 293.78 L
133.113 288.075 L
133.683 282.37 L
134.253 276.665 L
134.824 270.96 L
135.395 265.255 L
135.965 259.55 L
136.536 253.845 L
137.106 248.14 L
137.676 242.435 L
138.247 236.73 L
138.818 231.025 L
139.388 225.32 L
139.958 219.615 L
140.529 213.91 L
141.1 208.205 L
141.67 202.5 L
142.24 196.795 L
142.811 191.09 L
143.382 185.385 L
143.952 179.68 L
144.522 173.975 L
145.093 168.27 L
145.663 162.565 L
146.234 156.86 L
146.805 151.155 L
147.375 145.45 L
147.945 139.745 L
148.516 134.04 L
149.087 128.335 L
149.657 122.63 L
150.227 116.925 L
150.798 111.22 L
151.368 105.515 L
151.939 99.81 L
152.509 94.105 L
153.08 88.4 L
153.65 82.695 L
154.221 76.99 L
154.792 71.285 L
155.362 65.58 L
155.932 59.875 L
156.503 54.17 L
157.074 48.465 L
157.644 42.76 L
158.215 37.055 L
158.785 31.35 L
S
GR
GS
[0.75 0 0 0.75 0 0] CT
1 LJ
0.667 LW
N
135.965 373.65 M
136.536 367.945 L
137.106 362.24 L
137.676 356.535 L
138.247 350.83 L
138.818 345.125 L
139.388 339.42 L
139.958 333.715 L
140.529 328.01 L
141.1 322.305 L
141.67 316.6 L
142.24 310.895 L
142.811 305.19 L
143.382 299.485 L
143.952 293.78 L
144.522 288.075 L
145.093 282.37 L
145.663 276.665 L
146.234 270.96 L
146.805 265.255 L
147.375 259.55 L
147.945 253.845 L
148.516 248.14 L
149.087 242.435 L
149.657 236.73 L
150.227 231.025 L
150.798 225.32 L
151.368 219.615 L
151.939 213.91 L
152.509 208.205 L
153.08 202.5 L
153.65 196.795 L
154.221 191.09 L
154.792 185.385 L
155.362 179.68 L
155.932 173.975 L
156.503 168.27 L
157.074 162.565 L
157.644 156.86 L
158.215 151.155 L
158.785 145.45 L
159.355 139.745 L
159.926 134.04 L
160.497 128.335 L
161.067 122.63 L
161.637 116.925 L
162.208 111.22 L
162.779 105.515 L
163.349 99.81 L
163.919 94.105 L
164.49 88.4 L
165.061 82.695 L
165.631 76.99 L
166.201 71.285 L
166.772 65.58 L
167.342 59.875 L
167.913 54.17 L
168.484 48.465 L
169.054 42.76 L
169.624 37.055 L
170.195 31.35 L
S
GR
GS
[0.75 0 0 0.75 0 0] CT
1 LJ
0.667 LW
N
147.375 373.65 M
147.945 367.945 L
148.516 362.24 L
149.087 356.535 L
149.657 350.83 L
150.227 345.125 L
150.798 339.42 L
151.368 333.715 L
151.939 328.01 L
152.509 322.305 L
153.08 316.6 L
153.65 310.895 L
154.221 305.19 L
154.792 299.485 L
155.362 293.78 L
155.932 288.075 L
156.503 282.37 L
157.074 276.665 L
157.644 270.96 L
158.215 265.255 L
158.785 259.55 L
159.355 253.845 L
159.926 248.14 L
160.497 242.435 L
161.067 236.73 L
161.637 231.025 L
162.208 225.32 L
162.779 219.615 L
163.349 213.91 L
163.919 208.205 L
164.49 202.5 L
165.061 196.795 L
165.631 191.09 L
166.201 185.385 L
166.772 179.68 L
167.342 173.975 L
167.913 168.27 L
168.484 162.565 L
169.054 156.86 L
169.624 151.155 L
170.195 145.45 L
170.766 139.745 L
171.336 134.04 L
171.906 128.335 L
172.477 122.63 L
173.048 116.925 L
173.618 111.22 L
174.188 105.515 L
174.759 99.81 L
175.329 94.105 L
175.9 88.4 L
176.47 82.695 L
177.041 76.99 L
177.611 71.285 L
178.182 65.58 L
178.753 59.875 L
179.323 54.17 L
179.894 48.465 L
180.464 42.76 L
181.035 37.055 L
181.605 31.35 L
S
GR
GS
[0.75 0 0 0.75 0 0] CT
1 LJ
0.667 LW
N
158.785 373.65 M
159.355 367.945 L
159.926 362.24 L
160.497 356.535 L
161.067 350.83 L
161.637 345.125 L
162.208 339.42 L
162.779 333.715 L
163.349 328.01 L
163.919 322.305 L
164.49 316.6 L
165.061 310.895 L
165.631 305.19 L
166.201 299.485 L
166.772 293.78 L
167.342 288.075 L
167.913 282.37 L
168.484 276.665 L
169.054 270.96 L
169.624 265.255 L
170.195 259.55 L
170.766 253.845 L
171.336 248.14 L
171.906 242.435 L
172.477 236.73 L
173.048 231.025 L
173.618 225.32 L
174.188 219.615 L
174.759 213.91 L
175.329 208.205 L
175.9 202.5 L
176.47 196.795 L
177.041 191.09 L
177.611 185.385 L
178.182 179.68 L
178.753 173.975 L
179.323 168.27 L
179.894 162.565 L
180.464 156.86 L
181.035 151.155 L
181.605 145.45 L
182.176 139.745 L
182.746 134.04 L
183.316 128.335 L
183.887 122.63 L
184.458 116.925 L
185.028 111.22 L
185.598 105.515 L
186.169 99.81 L
186.74 94.105 L
187.31 88.4 L
187.88 82.695 L
188.451 76.99 L
189.021 71.285 L
189.592 65.58 L
190.163 59.875 L
190.733 54.17 L
191.303 48.465 L
191.874 42.76 L
192.445 37.055 L
193.015 31.35 L
S
GR
GS
[0.75 0 0 0.75 0 0] CT
1 LJ
0.667 LW
N
170.195 373.65 M
170.766 367.945 L
171.336 362.24 L
171.906 356.535 L
172.477 350.83 L
173.048 345.125 L
173.618 339.42 L
174.188 333.715 L
174.759 328.01 L
175.329 322.305 L
175.9 316.6 L
176.47 310.895 L
177.041 305.19 L
177.611 299.485 L
178.182 293.78 L
178.753 288.075 L
179.323 282.37 L
179.894 276.665 L
180.464 270.96 L
181.035 265.255 L
181.605 259.55 L
182.176 253.845 L
182.746 248.14 L
183.316 242.435 L
183.887 236.73 L
184.458 231.025 L
185.028 225.32 L
185.598 219.615 L
186.169 213.91 L
186.74 208.205 L
187.31 202.5 L
187.88 196.795 L
188.451 191.09 L
189.021 185.385 L
189.592 179.68 L
190.163 173.975 L
190.733 168.27 L
191.303 162.565 L
191.874 156.86 L
192.445 151.155 L
193.015 145.45 L
193.585 139.745 L
194.156 134.04 L
194.727 128.335 L
195.297 122.63 L
195.867 116.925 L
196.438 111.22 L
197.008 105.515 L
197.579 99.81 L
198.149 94.105 L
198.72 88.4 L
199.291 82.695 L
199.861 76.99 L
200.432 71.285 L
201.002 65.58 L
201.573 59.875 L
202.143 54.17 L
202.714 48.465 L
203.284 42.76 L
203.855 37.055 L
204.425 31.35 L
S
GR
GS
[0.75 0 0 0.75 0 0] CT
1 LJ
0.667 LW
N
181.605 373.65 M
182.176 367.945 L
182.746 362.24 L
183.316 356.535 L
183.887 350.83 L
184.458 345.125 L
185.028 339.42 L
185.598 333.715 L
186.169 328.01 L
186.74 322.305 L
187.31 316.6 L
187.88 310.895 L
188.451 305.19 L
189.021 299.485 L
189.592 293.78 L
190.163 288.075 L
190.733 282.37 L
191.303 276.665 L
191.874 270.96 L
192.445 265.255 L
193.015 259.55 L
193.585 253.845 L
194.156 248.14 L
194.727 242.435 L
195.297 236.73 L
195.867 231.025 L
196.438 225.32 L
197.008 219.615 L
197.579 213.91 L
198.149 208.205 L
198.72 202.5 L
199.291 196.795 L
199.861 191.09 L
200.432 185.385 L
201.002 179.68 L
201.573 173.975 L
202.143 168.27 L
202.714 162.565 L
203.284 156.86 L
203.855 151.155 L
204.425 145.45 L
204.995 139.745 L
205.566 134.04 L
206.137 128.335 L
206.707 122.63 L
207.277 116.925 L
207.848 111.22 L
208.419 105.515 L
208.989 99.81 L
209.559 94.105 L
210.13 88.4 L
210.701 82.695 L
211.271 76.99 L
211.841 71.285 L
212.412 65.58 L
212.982 59.875 L
213.553 54.17 L
214.124 48.465 L
214.694 42.76 L
215.264 37.055 L
215.835 31.35 L
S
GR
GS
[0.75 0 0 0.75 0 0] CT
1 LJ
0.667 LW
N
193.015 373.65 M
193.585 367.945 L
194.156 362.24 L
194.727 356.535 L
195.297 350.83 L
195.867 345.125 L
196.438 339.42 L
197.008 333.715 L
197.579 328.01 L
198.149 322.305 L
198.72 316.6 L
199.291 310.895 L
199.861 305.19 L
200.432 299.485 L
201.002 293.78 L
201.573 288.075 L
202.143 282.37 L
202.714 276.665 L
203.284 270.96 L
203.855 265.255 L
204.425 259.55 L
204.995 253.845 L
205.566 248.14 L
206.137 242.435 L
206.707 236.73 L
207.277 231.025 L
207.848 225.32 L
208.419 219.615 L
208.989 213.91 L
209.559 208.205 L
210.13 202.5 L
210.701 196.795 L
211.271 191.09 L
211.841 185.385 L
212.412 179.68 L
212.982 173.975 L
213.553 168.27 L
214.124 162.565 L
214.694 156.86 L
215.264 151.155 L
215.835 145.45 L
216.406 139.745 L
216.976 134.04 L
217.546 128.335 L
218.117 122.63 L
218.688 116.925 L
219.258 111.22 L
219.829 105.515 L
220.399 99.81 L
220.969 94.105 L
221.54 88.4 L
222.111 82.695 L
222.681 76.99 L
223.251 71.285 L
223.822 65.58 L
224.393 59.875 L
224.963 54.17 L
225.533 48.465 L
226.104 42.76 L
226.674 37.055 L
227.245 31.35 L
S
GR
GS
[0.75 0 0 0.75 0 0] CT
1 LJ
0.667 LW
N
204.425 373.65 M
204.995 367.945 L
205.566 362.24 L
206.137 356.535 L
206.707 350.83 L
207.277 345.125 L
207.848 339.42 L
208.419 333.715 L
208.989 328.01 L
209.559 322.305 L
210.13 316.6 L
210.701 310.895 L
211.271 305.19 L
211.841 299.485 L
212.412 293.78 L
212.982 288.075 L
213.553 282.37 L
214.124 276.665 L
214.694 270.96 L
215.264 265.255 L
215.835 259.55 L
216.406 253.845 L
216.976 248.14 L
217.546 242.435 L
218.117 236.73 L
218.688 231.025 L
219.258 225.32 L
219.829 219.615 L
220.399 213.91 L
220.969 208.205 L
221.54 202.5 L
222.111 196.795 L
222.681 191.09 L
223.251 185.385 L
223.822 179.68 L
224.393 173.975 L
224.963 168.27 L
225.533 162.565 L
226.104 156.86 L
226.674 151.155 L
227.245 145.45 L
227.815 139.745 L
228.386 134.04 L
228.956 128.335 L
229.527 122.63 L
230.098 116.925 L
230.668 111.22 L
231.238 105.515 L
231.809 99.81 L
232.38 94.105 L
232.95 88.4 L
233.52 82.695 L
234.091 76.99 L
234.661 71.285 L
235.232 65.58 L
235.803 59.875 L
236.373 54.17 L
236.943 48.465 L
237.514 42.76 L
238.085 37.055 L
238.655 31.35 L
S
GR
GS
[0.75 0 0 0.75 0 0] CT
1 LJ
0.667 LW
N
215.835 373.65 M
216.406 367.945 L
216.976 362.24 L
217.546 356.535 L
218.117 350.83 L
218.688 345.125 L
219.258 339.42 L
219.829 333.715 L
220.399 328.01 L
220.969 322.305 L
221.54 316.6 L
222.111 310.895 L
222.681 305.19 L
223.251 299.485 L
223.822 293.78 L
224.393 288.075 L
224.963 282.37 L
225.533 276.665 L
226.104 270.96 L
226.674 265.255 L
227.245 259.55 L
227.815 253.845 L
228.386 248.14 L
228.956 242.435 L
229.527 236.73 L
230.098 231.025 L
230.668 225.32 L
231.238 219.615 L
231.809 213.91 L
232.38 208.205 L
232.95 202.5 L
233.52 196.795 L
234.091 191.09 L
234.661 185.385 L
235.232 179.68 L
235.803 173.975 L
236.373 168.27 L
236.943 162.565 L
237.514 156.86 L
238.085 151.155 L
238.655 145.45 L
239.226 139.745 L
239.796 134.04 L
240.367 128.335 L
240.937 122.63 L
241.508 116.925 L
242.078 111.22 L
242.648 105.515 L
243.219 99.81 L
243.79 94.105 L
244.36 88.4 L
244.93 82.695 L
245.501 76.99 L
246.072 71.285 L
246.642 65.58 L
247.212 59.875 L
247.783 54.17 L
248.354 48.465 L
248.924 42.76 L
249.495 37.055 L
250.065 31.35 L
S
GR
GS
[0.75 0 0 0.75 0 0] CT
1 LJ
0.667 LW
N
227.245 373.65 M
227.815 367.945 L
228.386 362.24 L
228.956 356.535 L
229.527 350.83 L
230.098 345.125 L
230.668 339.42 L
231.238 333.715 L
231.809 328.01 L
232.38 322.305 L
232.95 316.6 L
233.52 310.895 L
234.091 305.19 L
234.661 299.485 L
235.232 293.78 L
235.803 288.075 L
236.373 282.37 L
236.943 276.665 L
237.514 270.96 L
238.085 265.255 L
238.655 259.55 L
239.226 253.845 L
239.796 248.14 L
240.367 242.435 L
240.937 236.73 L
241.508 231.025 L
242.078 225.32 L
242.648 219.615 L
243.219 213.91 L
243.79 208.205 L
244.36 202.5 L
244.93 196.795 L
245.501 191.09 L
246.072 185.385 L
246.642 179.68 L
247.212 173.975 L
247.783 168.27 L
248.354 162.565 L
248.924 156.86 L
249.495 151.155 L
250.065 145.45 L
250.635 139.745 L
251.206 134.04 L
251.777 128.335 L
252.347 122.63 L
252.917 116.925 L
253.488 111.22 L
254.059 105.515 L
254.629 99.81 L
255.199 94.105 L
255.77 88.4 L
256.34 82.695 L
256.911 76.99 L
257.482 71.285 L
258.052 65.58 L
258.622 59.875 L
259.193 54.17 L
259.763 48.465 L
260.334 42.76 L
260.905 37.055 L
261.475 31.35 L
S
GR
GS
[0.75 0 0 0.75 0 0] CT
1 LJ
0.667 LW
N
238.655 373.65 M
239.226 367.945 L
239.796 362.24 L
240.367 356.535 L
240.937 350.83 L
241.508 345.125 L
242.078 339.42 L
242.648 333.715 L
243.219 328.01 L
243.79 322.305 L
244.36 316.6 L
244.93 310.895 L
245.501 305.19 L
246.072 299.485 L
246.642 293.78 L
247.212 288.075 L
247.783 282.37 L
248.354 276.665 L
248.924 270.96 L
249.495 265.255 L
250.065 259.55 L
250.635 253.845 L
251.206 248.14 L
251.777 242.435 L
252.347 236.73 L
252.917 231.025 L
253.488 225.32 L
254.059 219.615 L
254.629 213.91 L
255.199 208.205 L
255.77 202.5 L
256.34 196.795 L
256.911 191.09 L
257.482 185.385 L
258.052 179.68 L
258.622 173.975 L
259.193 168.27 L
259.763 162.565 L
260.334 156.86 L
260.905 151.155 L
261.475 145.45 L
262.046 139.745 L
262.616 134.04 L
263.186 128.335 L
263.757 122.63 L
264.327 116.925 L
264.898 111.22 L
265.469 105.515 L
266.039 99.81 L
266.609 94.105 L
267.18 88.4 L
267.75 82.695 L
268.321 76.99 L
268.892 71.285 L
269.462 65.58 L
270.033 59.875 L
270.603 54.17 L
271.173 48.465 L
271.744 42.76 L
272.315 37.055 L
272.885 31.35 L
S
GR
GS
[0.75 0 0 0.75 0 0] CT
1 LJ
0.667 LW
N
250.065 373.65 M
250.635 367.945 L
251.206 362.24 L
251.777 356.535 L
252.347 350.83 L
252.917 345.125 L
253.488 339.42 L
254.059 333.715 L
254.629 328.01 L
255.199 322.305 L
255.77 316.6 L
256.34 310.895 L
256.911 305.19 L
257.482 299.485 L
258.052 293.78 L
258.622 288.075 L
259.193 282.37 L
259.763 276.665 L
260.334 270.96 L
260.905 265.255 L
261.475 259.55 L
262.046 253.845 L
262.616 248.14 L
263.186 242.435 L
263.757 236.73 L
264.327 231.025 L
264.898 225.32 L
265.469 219.615 L
266.039 213.91 L
266.609 208.205 L
267.18 202.5 L
267.75 196.795 L
268.321 191.09 L
268.892 185.385 L
269.462 179.68 L
270.033 173.975 L
270.603 168.27 L
271.173 162.565 L
271.744 156.86 L
272.315 151.155 L
272.885 145.45 L
273.456 139.745 L
274.026 134.04 L
274.596 128.335 L
275.167 122.63 L
275.737 116.925 L
276.308 111.22 L
276.879 105.515 L
277.449 99.81 L
278.02 94.105 L
278.59 88.4 L
279.16 82.695 L
279.731 76.99 L
280.302 71.285 L
280.872 65.58 L
281.443 59.875 L
282.013 54.17 L
282.583 48.465 L
283.154 42.76 L
283.724 37.055 L
284.295 31.35 L
S
GR
GS
[0.75 0 0 0.75 0 0] CT
1 LJ
0.667 LW
N
261.475 373.65 M
262.046 367.945 L
262.616 362.24 L
263.186 356.535 L
263.757 350.83 L
264.327 345.125 L
264.898 339.42 L
265.469 333.715 L
266.039 328.01 L
266.609 322.305 L
267.18 316.6 L
267.75 310.895 L
268.321 305.19 L
268.892 299.485 L
269.462 293.78 L
270.033 288.075 L
270.603 282.37 L
271.173 276.665 L
271.744 270.96 L
272.315 265.255 L
272.885 259.55 L
273.456 253.845 L
274.026 248.14 L
274.596 242.435 L
275.167 236.73 L
275.737 231.025 L
276.308 225.32 L
276.879 219.615 L
277.449 213.91 L
278.02 208.205 L
278.59 202.5 L
279.16 196.795 L
279.731 191.09 L
280.302 185.385 L
280.872 179.68 L
281.443 173.975 L
282.013 168.27 L
282.583 162.565 L
283.154 156.86 L
283.724 151.155 L
284.295 145.45 L
284.866 139.745 L
285.436 134.04 L
286.007 128.335 L
286.577 122.63 L
287.147 116.925 L
287.718 111.22 L
288.289 105.515 L
288.859 99.81 L
289.43 94.105 L
290 88.4 L
290.57 82.695 L
291.141 76.99 L
291.711 71.285 L
292.282 65.58 L
292.853 59.875 L
293.423 54.17 L
293.993 48.465 L
294.564 42.76 L
295.134 37.055 L
295.705 31.35 L
S
GR
GS
[0.75 0 0 0.75 0 0] CT
1 LJ
0.667 LW
N
272.885 373.65 M
273.456 367.945 L
274.026 362.24 L
274.596 356.535 L
275.167 350.83 L
275.737 345.125 L
276.308 339.42 L
276.879 333.715 L
277.449 328.01 L
278.02 322.305 L
278.59 316.6 L
279.16 310.895 L
279.731 305.19 L
280.302 299.485 L
280.872 293.78 L
281.443 288.075 L
282.013 282.37 L
282.583 276.665 L
283.154 270.96 L
283.724 265.255 L
284.295 259.55 L
284.866 253.845 L
285.436 248.14 L
286.007 242.435 L
286.577 236.73 L
287.147 231.025 L
287.718 225.32 L
288.289 219.615 L
288.859 213.91 L
289.43 208.205 L
290 202.5 L
290.57 196.795 L
291.141 191.09 L
291.711 185.385 L
292.282 179.68 L
292.853 173.975 L
293.423 168.27 L
293.993 162.565 L
294.564 156.86 L
295.134 151.155 L
295.705 145.45 L
296.276 139.745 L
296.846 134.04 L
297.417 128.335 L
297.987 122.63 L
298.557 116.925 L
299.128 111.22 L
299.698 105.515 L
300.269 99.81 L
300.84 94.105 L
301.41 88.4 L
301.98 82.695 L
302.551 76.99 L
303.121 71.285 L
303.692 65.58 L
304.263 59.875 L
304.833 54.17 L
305.404 48.465 L
305.974 42.76 L
306.544 37.055 L
307.115 31.35 L
S
GR
GS
[0.75 0 0 0.75 0 0] CT
1 LJ
0.667 LW
N
284.295 373.65 M
284.866 367.945 L
285.436 362.24 L
286.007 356.535 L
286.577 350.83 L
287.147 345.125 L
287.718 339.42 L
288.289 333.715 L
288.859 328.01 L
289.43 322.305 L
290 316.6 L
290.57 310.895 L
291.141 305.19 L
291.711 299.485 L
292.282 293.78 L
292.853 288.075 L
293.423 282.37 L
293.993 276.665 L
294.564 270.96 L
295.134 265.255 L
295.705 259.55 L
296.276 253.845 L
296.846 248.14 L
297.417 242.435 L
297.987 236.73 L
298.557 231.025 L
299.128 225.32 L
299.698 219.615 L
300.269 213.91 L
300.84 208.205 L
301.41 202.5 L
301.98 196.795 L
302.551 191.09 L
303.121 185.385 L
303.692 179.68 L
304.263 173.975 L
304.833 168.27 L
305.404 162.565 L
305.974 156.86 L
306.544 151.155 L
307.115 145.45 L
307.685 139.745 L
308.256 134.04 L
308.827 128.335 L
309.397 122.63 L
309.967 116.925 L
310.538 111.22 L
311.108 105.515 L
311.679 99.81 L
312.25 94.105 L
312.82 88.4 L
313.391 82.695 L
313.961 76.99 L
314.531 71.285 L
315.102 65.58 L
315.673 59.875 L
316.243 54.17 L
316.814 48.465 L
317.384 42.76 L
317.954 37.055 L
318.525 31.35 L
S
GR
GS
[0.75 0 0 0.75 0 0] CT
1 LJ
0.667 LW
N
295.705 373.65 M
296.276 367.945 L
296.846 362.24 L
297.417 356.535 L
297.987 350.83 L
298.557 345.125 L
299.128 339.42 L
299.698 333.715 L
300.269 328.01 L
300.84 322.305 L
301.41 316.6 L
301.98 310.895 L
302.551 305.19 L
303.121 299.485 L
303.692 293.78 L
304.263 288.075 L
304.833 282.37 L
305.404 276.665 L
305.974 270.96 L
306.544 265.255 L
307.115 259.55 L
307.685 253.845 L
308.256 248.14 L
308.827 242.435 L
309.397 236.73 L
309.967 231.025 L
310.538 225.32 L
311.108 219.615 L
311.679 213.91 L
312.25 208.205 L
312.82 202.5 L
313.391 196.795 L
313.961 191.09 L
314.531 185.385 L
315.102 179.68 L
315.673 173.975 L
316.243 168.27 L
316.814 162.565 L
317.384 156.86 L
317.954 151.155 L
318.525 145.45 L
319.095 139.745 L
319.666 134.04 L
320.237 128.335 L
320.807 122.63 L
321.378 116.925 L
321.948 111.22 L
322.518 105.515 L
323.089 99.81 L
323.66 94.105 L
324.23 88.4 L
324.801 82.695 L
325.371 76.99 L
325.941 71.285 L
326.512 65.58 L
327.082 59.875 L
327.653 54.17 L
328.224 48.465 L
328.794 42.76 L
329.365 37.055 L
329.935 31.35 L
S
GR
GS
[0.75 0 0 0.75 0 0] CT
1 LJ
0.667 LW
N
307.115 373.65 M
307.685 367.945 L
308.256 362.24 L
308.827 356.535 L
309.397 350.83 L
309.967 345.125 L
310.538 339.42 L
311.108 333.715 L
311.679 328.01 L
312.25 322.305 L
312.82 316.6 L
313.391 310.895 L
313.961 305.19 L
314.531 299.485 L
315.102 293.78 L
315.673 288.075 L
316.243 282.37 L
316.814 276.665 L
317.384 270.96 L
317.954 265.255 L
318.525 259.55 L
319.095 253.845 L
319.666 248.14 L
320.237 242.435 L
320.807 236.73 L
321.378 231.025 L
321.948 225.32 L
322.518 219.615 L
323.089 213.91 L
323.66 208.205 L
324.23 202.5 L
324.801 196.795 L
325.371 191.09 L
325.941 185.385 L
326.512 179.68 L
327.082 173.975 L
327.653 168.27 L
328.224 162.565 L
328.794 156.86 L
329.365 151.155 L
329.935 145.45 L
330.505 139.745 L
331.076 134.04 L
331.647 128.335 L
332.217 122.63 L
332.788 116.925 L
333.358 111.22 L
333.928 105.515 L
334.499 99.81 L
335.069 94.105 L
335.64 88.4 L
336.211 82.695 L
336.781 76.99 L
337.352 71.285 L
337.922 65.58 L
338.492 59.875 L
339.063 54.17 L
339.633 48.465 L
340.204 42.76 L
340.775 37.055 L
341.345 31.35 L
S
GR
GS
[0.75 0 0 0.75 0 0] CT
1 LJ
0.667 LW
N
318.525 373.65 M
319.095 367.945 L
319.666 362.24 L
320.237 356.535 L
320.807 350.83 L
321.378 345.125 L
321.948 339.42 L
322.518 333.715 L
323.089 328.01 L
323.66 322.305 L
324.23 316.6 L
324.801 310.895 L
325.371 305.19 L
325.941 299.485 L
326.512 293.78 L
327.082 288.075 L
327.653 282.37 L
328.224 276.665 L
328.794 270.96 L
329.365 265.255 L
329.935 259.55 L
330.505 253.845 L
331.076 248.14 L
331.647 242.435 L
332.217 236.73 L
332.788 231.025 L
333.358 225.32 L
333.928 219.615 L
334.499 213.91 L
335.069 208.205 L
335.64 202.5 L
336.211 196.795 L
336.781 191.09 L
337.352 185.385 L
337.922 179.68 L
338.492 173.975 L
339.063 168.27 L
339.633 162.565 L
340.204 156.86 L
340.775 151.155 L
341.345 145.45 L
341.915 139.745 L
342.486 134.04 L
343.056 128.335 L
343.627 122.63 L
344.198 116.925 L
344.768 111.22 L
345.339 105.515 L
345.909 99.81 L
346.479 94.105 L
347.05 88.4 L
347.621 82.695 L
348.191 76.99 L
348.762 71.285 L
349.332 65.58 L
349.902 59.875 L
350.473 54.17 L
351.043 48.465 L
351.614 42.76 L
352.185 37.055 L
352.755 31.35 L
S
GR
GS
[0.75 0 0 0.75 0 0] CT
1 LJ
0.667 LW
N
329.935 373.65 M
330.505 367.945 L
331.076 362.24 L
331.647 356.535 L
332.217 350.83 L
332.788 345.125 L
333.358 339.42 L
333.928 333.715 L
334.499 328.01 L
335.069 322.305 L
335.64 316.6 L
336.211 310.895 L
336.781 305.19 L
337.352 299.485 L
337.922 293.78 L
338.492 288.075 L
339.063 282.37 L
339.633 276.665 L
340.204 270.96 L
340.775 265.255 L
341.345 259.55 L
341.915 253.845 L
342.486 248.14 L
343.056 242.435 L
343.627 236.73 L
344.198 231.025 L
344.768 225.32 L
345.339 219.615 L
345.909 213.91 L
346.479 208.205 L
347.05 202.5 L
347.621 196.795 L
348.191 191.09 L
348.762 185.385 L
349.332 179.68 L
349.902 173.975 L
350.473 168.27 L
351.043 162.565 L
351.614 156.86 L
352.185 151.155 L
352.755 145.45 L
353.326 139.745 L
353.896 134.04 L
354.466 128.335 L
355.037 122.63 L
355.608 116.925 L
356.178 111.22 L
356.749 105.515 L
357.319 99.81 L
357.889 94.105 L
358.46 88.4 L
359.03 82.695 L
359.601 76.99 L
360.172 71.285 L
360.742 65.58 L
361.313 59.875 L
361.883 54.17 L
362.453 48.465 L
363.024 42.76 L
363.595 37.055 L
364.165 31.35 L
S
GR
GS
[0.75 0 0 0.75 0 0] CT
1 LJ
0.667 LW
N
341.345 373.65 M
341.915 367.945 L
342.486 362.24 L
343.056 356.535 L
343.627 350.83 L
344.198 345.125 L
344.768 339.42 L
345.339 333.715 L
345.909 328.01 L
346.479 322.305 L
347.05 316.6 L
347.621 310.895 L
348.191 305.19 L
348.762 299.485 L
349.332 293.78 L
349.902 288.075 L
350.473 282.37 L
351.043 276.665 L
351.614 270.96 L
352.185 265.255 L
352.755 259.55 L
353.326 253.845 L
353.896 248.14 L
354.466 242.435 L
355.037 236.73 L
355.608 231.025 L
356.178 225.32 L
356.749 219.615 L
357.319 213.91 L
357.889 208.205 L
358.46 202.5 L
359.03 196.795 L
359.601 191.09 L
360.172 185.385 L
360.742 179.68 L
361.313 173.975 L
361.883 168.27 L
362.453 162.565 L
363.024 156.86 L
363.595 151.155 L
364.165 145.45 L
364.736 139.745 L
365.306 134.04 L
365.876 128.335 L
366.447 122.63 L
367.017 116.925 L
367.588 111.22 L
368.159 105.515 L
368.729 99.81 L
369.299 94.105 L
369.87 88.4 L
370.44 82.695 L
371.011 76.99 L
371.582 71.285 L
372.152 65.58 L
372.723 59.875 L
373.293 54.17 L
373.863 48.465 L
374.434 42.76 L
375.004 37.055 L
375.575 31.35 L
S
GR
GS
[0.75 0 0 0.75 0 0] CT
1 LJ
0.667 LW
N
352.755 373.65 M
353.326 367.945 L
353.896 362.24 L
354.466 356.535 L
355.037 350.83 L
355.608 345.125 L
356.178 339.42 L
356.749 333.715 L
357.319 328.01 L
357.889 322.305 L
358.46 316.6 L
359.03 310.895 L
359.601 305.19 L
360.172 299.485 L
360.742 293.78 L
361.313 288.075 L
361.883 282.37 L
362.453 276.665 L
363.024 270.96 L
363.595 265.255 L
364.165 259.55 L
364.736 253.845 L
365.306 248.14 L
365.876 242.435 L
366.447 236.73 L
367.017 231.025 L
367.588 225.32 L
368.159 219.615 L
368.729 213.91 L
369.299 208.205 L
369.87 202.5 L
370.44 196.795 L
371.011 191.09 L
371.582 185.385 L
372.152 179.68 L
372.723 173.975 L
373.293 168.27 L
373.863 162.565 L
374.434 156.86 L
375.004 151.155 L
375.575 145.45 L
376.146 139.745 L
376.716 134.04 L
377.286 128.335 L
377.857 122.63 L
378.427 116.925 L
378.998 111.22 L
379.568 105.515 L
380.139 99.81 L
380.71 94.105 L
381.28 88.4 L
381.85 82.695 L
382.421 76.99 L
382.992 71.285 L
383.562 65.58 L
384.133 59.875 L
384.703 54.17 L
385.273 48.465 L
385.844 42.76 L
386.414 37.055 L
386.985 31.35 L
S
GR
GS
[0.75 0 0 0.75 0 0] CT
1 LJ
0.667 LW
N
364.165 373.65 M
364.736 367.945 L
365.306 362.24 L
365.876 356.535 L
366.447 350.83 L
367.017 345.125 L
367.588 339.42 L
368.159 333.715 L
368.729 328.01 L
369.299 322.305 L
369.87 316.6 L
370.44 310.895 L
371.011 305.19 L
371.582 299.485 L
372.152 293.78 L
372.723 288.075 L
373.293 282.37 L
373.863 276.665 L
374.434 270.96 L
375.004 265.255 L
375.575 259.55 L
376.146 253.845 L
376.716 248.14 L
377.286 242.435 L
377.857 236.73 L
378.427 231.025 L
378.998 225.32 L
379.568 219.615 L
380.139 213.91 L
380.71 208.205 L
381.28 202.5 L
381.85 196.795 L
382.421 191.09 L
382.992 185.385 L
383.562 179.68 L
384.133 173.975 L
384.703 168.27 L
385.273 162.565 L
385.844 156.86 L
386.414 151.155 L
386.985 145.45 L
387.556 139.745 L
388.126 134.04 L
388.697 128.335 L
389.267 122.63 L
389.837 116.925 L
390.408 111.22 L
390.978 105.515 L
391.549 99.81 L
392.12 94.105 L
392.69 88.4 L
393.26 82.695 L
393.831 76.99 L
394.401 71.285 L
394.972 65.58 L
395.543 59.875 L
396.113 54.17 L
396.684 48.465 L
397.254 42.76 L
397.824 37.055 L
398.395 31.35 L
S
GR
GS
[0.75 0 0 0.75 0 0] CT
1 LJ
0.667 LW
N
375.575 373.65 M
376.146 367.945 L
376.716 362.24 L
377.286 356.535 L
377.857 350.83 L
378.427 345.125 L
378.998 339.42 L
379.568 333.715 L
380.139 328.01 L
380.71 322.305 L
381.28 316.6 L
381.85 310.895 L
382.421 305.19 L
382.992 299.485 L
383.562 293.78 L
384.133 288.075 L
384.703 282.37 L
385.273 276.665 L
385.844 270.96 L
386.414 265.255 L
386.985 259.55 L
387.556 253.845 L
388.126 248.14 L
388.697 242.435 L
389.267 236.73 L
389.837 231.025 L
390.408 225.32 L
390.978 219.615 L
391.549 213.91 L
392.12 208.205 L
392.69 202.5 L
393.26 196.795 L
393.831 191.09 L
394.401 185.385 L
394.972 179.68 L
395.543 173.975 L
396.113 168.27 L
396.684 162.565 L
397.254 156.86 L
397.824 151.155 L
398.395 145.45 L
398.965 139.745 L
399.536 134.04 L
400.107 128.335 L
400.677 122.63 L
401.247 116.925 L
401.818 111.22 L
402.389 105.515 L
402.959 99.81 L
403.53 94.105 L
404.1 88.4 L
404.671 82.695 L
405.241 76.99 L
405.811 71.285 L
406.382 65.58 L
406.953 59.875 L
407.523 54.17 L
408.094 48.465 L
408.664 42.76 L
409.234 37.055 L
409.805 31.35 L
S
GR
GS
[0.75 0 0 0.75 0 0] CT
1 LJ
0.667 LW
N
386.985 373.65 M
387.556 367.945 L
388.126 362.24 L
388.697 356.535 L
389.267 350.83 L
389.837 345.125 L
390.408 339.42 L
390.978 333.715 L
391.549 328.01 L
392.12 322.305 L
392.69 316.6 L
393.26 310.895 L
393.831 305.19 L
394.401 299.485 L
394.972 293.78 L
395.543 288.075 L
396.113 282.37 L
396.684 276.665 L
397.254 270.96 L
397.824 265.255 L
398.395 259.55 L
398.965 253.845 L
399.536 248.14 L
400.107 242.435 L
400.677 236.73 L
401.247 231.025 L
401.818 225.32 L
402.389 219.615 L
402.959 213.91 L
403.53 208.205 L
404.1 202.5 L
404.671 196.795 L
405.241 191.09 L
405.811 185.385 L
406.382 179.68 L
406.953 173.975 L
407.523 168.27 L
408.094 162.565 L
408.664 156.86 L
409.234 151.155 L
409.805 145.45 L
410.375 139.745 L
410.946 134.04 L
411.517 128.335 L
412.087 122.63 L
412.658 116.925 L
413.228 111.22 L
413.798 105.515 L
414.369 99.81 L
414.94 94.105 L
415.51 88.4 L
416.081 82.695 L
416.651 76.99 L
417.221 71.285 L
417.792 65.58 L
418.362 59.875 L
418.933 54.17 L
419.504 48.465 L
420.074 42.76 L
420.645 37.055 L
421.215 31.35 L
S
GR
GS
[0.75 0 0 0.75 0 0] CT
1 LJ
0.667 LW
N
398.395 373.65 M
398.965 367.945 L
399.536 362.24 L
400.107 356.535 L
400.677 350.83 L
401.247 345.125 L
401.818 339.42 L
402.389 333.715 L
402.959 328.01 L
403.53 322.305 L
404.1 316.6 L
404.671 310.895 L
405.241 305.19 L
405.811 299.485 L
406.382 293.78 L
406.953 288.075 L
407.523 282.37 L
408.094 276.665 L
408.664 270.96 L
409.234 265.255 L
409.805 259.55 L
410.375 253.845 L
410.946 248.14 L
411.517 242.435 L
412.087 236.73 L
412.658 231.025 L
413.228 225.32 L
413.798 219.615 L
414.369 213.91 L
414.94 208.205 L
415.51 202.5 L
416.081 196.795 L
416.651 191.09 L
417.221 185.385 L
417.792 179.68 L
418.362 173.975 L
418.933 168.27 L
419.504 162.565 L
420.074 156.86 L
420.645 151.155 L
421.215 145.45 L
421.785 139.745 L
422.356 134.04 L
422.926 128.335 L
423.497 122.63 L
424.068 116.925 L
424.638 111.22 L
425.208 105.515 L
425.779 99.81 L
426.35 94.105 L
426.92 88.4 L
427.491 82.695 L
428.061 76.99 L
428.632 71.285 L
429.202 65.58 L
429.772 59.875 L
430.343 54.17 L
430.914 48.465 L
431.484 42.76 L
432.055 37.055 L
432.625 31.35 L
S
GR
GS
[0.75 0 0 0.75 0 0] CT
1 LJ
0.667 LW
N
409.805 373.65 M
410.375 367.945 L
410.946 362.24 L
411.517 356.535 L
412.087 350.83 L
412.658 345.125 L
413.228 339.42 L
413.798 333.715 L
414.369 328.01 L
414.94 322.305 L
415.51 316.6 L
416.081 310.895 L
416.651 305.19 L
417.221 299.485 L
417.792 293.78 L
418.362 288.075 L
418.933 282.37 L
419.504 276.665 L
420.074 270.96 L
420.645 265.255 L
421.215 259.55 L
421.785 253.845 L
422.356 248.14 L
422.926 242.435 L
423.497 236.73 L
424.068 231.025 L
424.638 225.32 L
425.208 219.615 L
425.779 213.91 L
426.35 208.205 L
426.92 202.5 L
427.491 196.795 L
428.061 191.09 L
428.632 185.385 L
429.202 179.68 L
429.772 173.975 L
430.343 168.27 L
430.914 162.565 L
431.484 156.86 L
432.055 151.155 L
432.625 145.45 L
433.195 139.745 L
433.766 134.04 L
434.336 128.335 L
434.907 122.63 L
435.478 116.925 L
436.048 111.22 L
436.618 105.515 L
437.189 99.81 L
437.759 94.105 L
438.33 88.4 L
438.901 82.695 L
439.471 76.99 L
440.042 71.285 L
440.612 65.58 L
441.182 59.875 L
441.753 54.17 L
442.323 48.465 L
442.894 42.76 L
443.465 37.055 L
444.035 31.35 L
S
GR
GS
[0.75 0 0 0.75 0 0] CT
1 LJ
0.667 LW
N
421.215 373.65 M
421.785 367.945 L
422.356 362.24 L
422.926 356.535 L
423.497 350.83 L
424.068 345.125 L
424.638 339.42 L
425.208 333.715 L
425.779 328.01 L
426.35 322.305 L
426.92 316.6 L
427.491 310.895 L
428.061 305.19 L
428.632 299.485 L
429.202 293.78 L
429.772 288.075 L
430.343 282.37 L
430.914 276.665 L
431.484 270.96 L
432.055 265.255 L
432.625 259.55 L
433.195 253.845 L
433.766 248.14 L
434.336 242.435 L
434.907 236.73 L
435.478 231.025 L
436.048 225.32 L
436.618 219.615 L
437.189 213.91 L
437.759 208.205 L
438.33 202.5 L
438.901 196.795 L
439.471 191.09 L
440.042 185.385 L
440.612 179.68 L
441.182 173.975 L
441.753 168.27 L
442.323 162.565 L
442.894 156.86 L
443.465 151.155 L
444.035 145.45 L
444.605 139.745 L
445.176 134.04 L
445.746 128.335 L
446.317 122.63 L
446.888 116.925 L
447.458 111.22 L
448.029 105.515 L
448.599 99.81 L
449.169 94.105 L
449.74 88.4 L
450.31 82.695 L
450.881 76.99 L
451.452 71.285 L
452.022 65.58 L
452.592 59.875 L
453.163 54.17 L
453.733 48.465 L
454.304 42.76 L
454.874 37.055 L
455.445 31.35 L
S
GR
GS
[0.75 0 0 0.75 0 0] CT
1 LJ
0.667 LW
N
432.625 373.65 M
433.195 367.945 L
433.766 362.24 L
434.336 356.535 L
434.907 350.83 L
435.478 345.125 L
436.048 339.42 L
436.618 333.715 L
437.189 328.01 L
437.759 322.305 L
438.33 316.6 L
438.901 310.895 L
439.471 305.19 L
440.042 299.485 L
440.612 293.78 L
441.182 288.075 L
441.753 282.37 L
442.323 276.665 L
442.894 270.96 L
443.465 265.255 L
444.035 259.55 L
444.605 253.845 L
445.176 248.14 L
445.746 242.435 L
446.317 236.73 L
446.888 231.025 L
447.458 225.32 L
448.029 219.615 L
448.599 213.91 L
449.169 208.205 L
449.74 202.5 L
450.31 196.795 L
450.881 191.09 L
451.452 185.385 L
452.022 179.68 L
452.592 173.975 L
453.163 168.27 L
453.733 162.565 L
454.304 156.86 L
454.874 151.155 L
455.445 145.45 L
456.016 139.745 L
456.586 134.04 L
457.156 128.335 L
457.727 122.63 L
458.298 116.925 L
458.868 111.22 L
459.439 105.515 L
460.009 99.81 L
460.579 94.105 L
461.15 88.4 L
461.72 82.695 L
462.291 76.99 L
462.862 71.285 L
463.432 65.58 L
464.003 59.875 L
464.573 54.17 L
465.143 48.465 L
465.714 42.76 L
466.284 37.055 L
466.855 31.35 L
S
GR
GS
[0.75 0 0 0.75 0 0] CT
1 LJ
0.667 LW
N
444.035 373.65 M
444.605 367.945 L
445.176 362.24 L
445.746 356.535 L
446.317 350.83 L
446.888 345.125 L
447.458 339.42 L
448.029 333.715 L
448.599 328.01 L
449.169 322.305 L
449.74 316.6 L
450.31 310.895 L
450.881 305.19 L
451.452 299.485 L
452.022 293.78 L
452.592 288.075 L
453.163 282.37 L
453.733 276.665 L
454.304 270.96 L
454.874 265.255 L
455.445 259.55 L
456.016 253.845 L
456.586 248.14 L
457.156 242.435 L
457.727 236.73 L
458.298 231.025 L
458.868 225.32 L
459.439 219.615 L
460.009 213.91 L
460.579 208.205 L
461.15 202.5 L
461.72 196.795 L
462.291 191.09 L
462.862 185.385 L
463.432 179.68 L
464.003 173.975 L
464.573 168.27 L
465.143 162.565 L
465.714 156.86 L
466.284 151.155 L
466.855 145.45 L
467.426 139.745 L
467.996 134.04 L
468.566 128.335 L
469.137 122.63 L
469.707 116.925 L
470.278 111.22 L
470.848 105.515 L
471.419 99.81 L
471.99 94.105 L
472.56 88.4 L
473.131 82.695 L
473.701 76.99 L
474.272 71.285 L
474.842 65.58 L
475.413 59.875 L
475.983 54.17 L
476.553 48.465 L
477.124 42.76 L
477.695 37.055 L
478.265 31.35 L
S
GR
GS
[0.75 0 0 0.75 0 0] CT
1 LJ
0.667 LW
N
101.735 373.65 M
113.145 373.65 L
124.555 373.65 L
135.965 373.65 L
147.375 373.65 L
158.785 373.65 L
170.195 373.65 L
181.605 373.65 L
193.015 373.65 L
204.425 373.65 L
215.835 373.65 L
227.245 373.65 L
238.655 373.65 L
250.065 373.65 L
261.475 373.65 L
272.885 373.65 L
284.295 373.65 L
295.705 373.65 L
307.115 373.65 L
318.525 373.65 L
329.935 373.65 L
341.345 373.65 L
352.755 373.65 L
364.165 373.65 L
375.575 373.65 L
386.985 373.65 L
398.395 373.65 L
409.805 373.65 L
421.215 373.65 L
432.625 373.65 L
444.035 373.65 L
S
GR
GS
[0.75 0 0 0.75 0 0] CT
1 LJ
0.667 LW
N
102.305 367.945 M
113.716 367.945 L
125.126 367.945 L
136.536 367.945 L
147.945 367.945 L
159.355 367.945 L
170.766 367.945 L
182.176 367.945 L
193.585 367.945 L
204.995 367.945 L
216.406 367.945 L
227.815 367.945 L
239.226 367.945 L
250.635 367.945 L
262.046 367.945 L
273.456 367.945 L
284.866 367.945 L
296.276 367.945 L
307.685 367.945 L
319.095 367.945 L
330.505 367.945 L
341.915 367.945 L
353.326 367.945 L
364.736 367.945 L
376.146 367.945 L
387.556 367.945 L
398.965 367.945 L
410.375 367.945 L
421.785 367.945 L
433.195 367.945 L
444.605 367.945 L
S
GR
GS
[0.75 0 0 0.75 0 0] CT
1 LJ
0.667 LW
N
102.876 362.24 M
114.286 362.24 L
125.696 362.24 L
137.106 362.24 L
148.516 362.24 L
159.926 362.24 L
171.336 362.24 L
182.746 362.24 L
194.156 362.24 L
205.566 362.24 L
216.976 362.24 L
228.386 362.24 L
239.796 362.24 L
251.206 362.24 L
262.616 362.24 L
274.026 362.24 L
285.436 362.24 L
296.846 362.24 L
308.256 362.24 L
319.666 362.24 L
331.076 362.24 L
342.486 362.24 L
353.896 362.24 L
365.306 362.24 L
376.716 362.24 L
388.126 362.24 L
399.536 362.24 L
410.946 362.24 L
422.356 362.24 L
433.766 362.24 L
445.176 362.24 L
S
GR
GS
[0.75 0 0 0.75 0 0] CT
1 LJ
0.667 LW
N
103.446 356.535 M
114.857 356.535 L
126.267 356.535 L
137.676 356.535 L
149.087 356.535 L
160.497 356.535 L
171.906 356.535 L
183.316 356.535 L
194.727 356.535 L
206.137 356.535 L
217.546 356.535 L
228.956 356.535 L
240.367 356.535 L
251.777 356.535 L
263.186 356.535 L
274.596 356.535 L
286.007 356.535 L
297.417 356.535 L
308.827 356.535 L
320.237 356.535 L
331.647 356.535 L
343.056 356.535 L
354.466 356.535 L
365.876 356.535 L
377.286 356.535 L
388.697 356.535 L
400.107 356.535 L
411.517 356.535 L
422.926 356.535 L
434.336 356.535 L
445.746 356.535 L
S
GR
GS
[0.75 0 0 0.75 0 0] CT
1 LJ
0.667 LW
N
104.017 350.83 M
115.427 350.83 L
126.837 350.83 L
138.247 350.83 L
149.657 350.83 L
161.067 350.83 L
172.477 350.83 L
183.887 350.83 L
195.297 350.83 L
206.707 350.83 L
218.117 350.83 L
229.527 350.83 L
240.937 350.83 L
252.347 350.83 L
263.757 350.83 L
275.167 350.83 L
286.577 350.83 L
297.987 350.83 L
309.397 350.83 L
320.807 350.83 L
332.217 350.83 L
343.627 350.83 L
355.037 350.83 L
366.447 350.83 L
377.857 350.83 L
389.267 350.83 L
400.677 350.83 L
412.087 350.83 L
423.497 350.83 L
434.907 350.83 L
446.317 350.83 L
S
GR
GS
[0.75 0 0 0.75 0 0] CT
1 LJ
0.667 LW
N
104.587 345.125 M
115.998 345.125 L
127.408 345.125 L
138.818 345.125 L
150.227 345.125 L
161.637 345.125 L
173.048 345.125 L
184.458 345.125 L
195.867 345.125 L
207.277 345.125 L
218.688 345.125 L
230.098 345.125 L
241.508 345.125 L
252.917 345.125 L
264.327 345.125 L
275.737 345.125 L
287.147 345.125 L
298.557 345.125 L
309.967 345.125 L
321.378 345.125 L
332.788 345.125 L
344.198 345.125 L
355.608 345.125 L
367.017 345.125 L
378.427 345.125 L
389.837 345.125 L
401.247 345.125 L
412.658 345.125 L
424.068 345.125 L
435.478 345.125 L
446.888 345.125 L
S
GR
GS
[0.75 0 0 0.75 0 0] CT
1 LJ
0.667 LW
N
105.158 339.42 M
116.568 339.42 L
127.978 339.42 L
139.388 339.42 L
150.798 339.42 L
162.208 339.42 L
173.618 339.42 L
185.028 339.42 L
196.438 339.42 L
207.848 339.42 L
219.258 339.42 L
230.668 339.42 L
242.078 339.42 L
253.488 339.42 L
264.898 339.42 L
276.308 339.42 L
287.718 339.42 L
299.128 339.42 L
310.538 339.42 L
321.948 339.42 L
333.358 339.42 L
344.768 339.42 L
356.178 339.42 L
367.588 339.42 L
378.998 339.42 L
390.408 339.42 L
401.818 339.42 L
413.228 339.42 L
424.638 339.42 L
436.048 339.42 L
447.458 339.42 L
S
GR
GS
[0.75 0 0 0.75 0 0] CT
1 LJ
0.667 LW
N
105.728 333.715 M
117.139 333.715 L
128.549 333.715 L
139.958 333.715 L
151.368 333.715 L
162.779 333.715 L
174.188 333.715 L
185.598 333.715 L
197.008 333.715 L
208.419 333.715 L
219.829 333.715 L
231.238 333.715 L
242.648 333.715 L
254.059 333.715 L
265.469 333.715 L
276.879 333.715 L
288.289 333.715 L
299.698 333.715 L
311.108 333.715 L
322.518 333.715 L
333.928 333.715 L
345.339 333.715 L
356.749 333.715 L
368.159 333.715 L
379.568 333.715 L
390.978 333.715 L
402.389 333.715 L
413.798 333.715 L
425.208 333.715 L
436.618 333.715 L
448.029 333.715 L
S
GR
GS
[0.75 0 0 0.75 0 0] CT
1 LJ
0.667 LW
N
106.299 328.01 M
117.709 328.01 L
129.119 328.01 L
140.529 328.01 L
151.939 328.01 L
163.349 328.01 L
174.759 328.01 L
186.169 328.01 L
197.579 328.01 L
208.989 328.01 L
220.399 328.01 L
231.809 328.01 L
243.219 328.01 L
254.629 328.01 L
266.039 328.01 L
277.449 328.01 L
288.859 328.01 L
300.269 328.01 L
311.679 328.01 L
323.089 328.01 L
334.499 328.01 L
345.909 328.01 L
357.319 328.01 L
368.729 328.01 L
380.139 328.01 L
391.549 328.01 L
402.959 328.01 L
414.369 328.01 L
425.779 328.01 L
437.189 328.01 L
448.599 328.01 L
S
GR
GS
[0.75 0 0 0.75 0 0] CT
1 LJ
0.667 LW
N
106.869 322.305 M
118.28 322.305 L
129.689 322.305 L
141.1 322.305 L
152.509 322.305 L
163.919 322.305 L
175.329 322.305 L
186.74 322.305 L
198.149 322.305 L
209.559 322.305 L
220.969 322.305 L
232.38 322.305 L
243.79 322.305 L
255.199 322.305 L
266.609 322.305 L
278.02 322.305 L
289.43 322.305 L
300.84 322.305 L
312.25 322.305 L
323.66 322.305 L
335.069 322.305 L
346.479 322.305 L
357.889 322.305 L
369.299 322.305 L
380.71 322.305 L
392.12 322.305 L
403.53 322.305 L
414.94 322.305 L
426.35 322.305 L
437.759 322.305 L
449.169 322.305 L
S
GR
GS
[0.75 0 0 0.75 0 0] CT
1 LJ
0.667 LW
N
107.44 316.6 M
118.85 316.6 L
130.26 316.6 L
141.67 316.6 L
153.08 316.6 L
164.49 316.6 L
175.9 316.6 L
187.31 316.6 L
198.72 316.6 L
210.13 316.6 L
221.54 316.6 L
232.95 316.6 L
244.36 316.6 L
255.77 316.6 L
267.18 316.6 L
278.59 316.6 L
290 316.6 L
301.41 316.6 L
312.82 316.6 L
324.23 316.6 L
335.64 316.6 L
347.05 316.6 L
358.46 316.6 L
369.87 316.6 L
381.28 316.6 L
392.69 316.6 L
404.1 316.6 L
415.51 316.6 L
426.92 316.6 L
438.33 316.6 L
449.74 316.6 L
S
GR
GS
[0.75 0 0 0.75 0 0] CT
1 LJ
0.667 LW
N
108.01 310.895 M
119.421 310.895 L
130.831 310.895 L
142.24 310.895 L
153.65 310.895 L
165.061 310.895 L
176.47 310.895 L
187.88 310.895 L
199.291 310.895 L
210.701 310.895 L
222.111 310.895 L
233.52 310.895 L
244.93 310.895 L
256.34 310.895 L
267.75 310.895 L
279.16 310.895 L
290.57 310.895 L
301.98 310.895 L
313.391 310.895 L
324.801 310.895 L
336.211 310.895 L
347.621 310.895 L
359.03 310.895 L
370.44 310.895 L
381.85 310.895 L
393.26 310.895 L
404.671 310.895 L
416.081 310.895 L
427.491 310.895 L
438.901 310.895 L
450.31 310.895 L
S
GR
GS
[0.75 0 0 0.75 0 0] CT
1 LJ
0.667 LW
N
108.581 305.19 M
119.991 305.19 L
131.401 305.19 L
142.811 305.19 L
154.221 305.19 L
165.631 305.19 L
177.041 305.19 L
188.451 305.19 L
199.861 305.19 L
211.271 305.19 L
222.681 305.19 L
234.091 305.19 L
245.501 305.19 L
256.911 305.19 L
268.321 305.19 L
279.731 305.19 L
291.141 305.19 L
302.551 305.19 L
313.961 305.19 L
325.371 305.19 L
336.781 305.19 L
348.191 305.19 L
359.601 305.19 L
371.011 305.19 L
382.421 305.19 L
393.831 305.19 L
405.241 305.19 L
416.651 305.19 L
428.061 305.19 L
439.471 305.19 L
450.881 305.19 L
S
GR
GS
[0.75 0 0 0.75 0 0] CT
1 LJ
0.667 LW
N
109.152 299.485 M
120.562 299.485 L
131.971 299.485 L
143.382 299.485 L
154.792 299.485 L
166.201 299.485 L
177.611 299.485 L
189.021 299.485 L
200.432 299.485 L
211.841 299.485 L
223.251 299.485 L
234.661 299.485 L
246.072 299.485 L
257.482 299.485 L
268.892 299.485 L
280.302 299.485 L
291.711 299.485 L
303.121 299.485 L
314.531 299.485 L
325.941 299.485 L
337.352 299.485 L
348.762 299.485 L
360.172 299.485 L
371.582 299.485 L
382.992 299.485 L
394.401 299.485 L
405.811 299.485 L
417.221 299.485 L
428.632 299.485 L
440.042 299.485 L
451.452 299.485 L
S
GR
GS
[0.75 0 0 0.75 0 0] CT
1 LJ
0.667 LW
N
109.722 293.78 M
121.132 293.78 L
132.542 293.78 L
143.952 293.78 L
155.362 293.78 L
166.772 293.78 L
178.182 293.78 L
189.592 293.78 L
201.002 293.78 L
212.412 293.78 L
223.822 293.78 L
235.232 293.78 L
246.642 293.78 L
258.052 293.78 L
269.462 293.78 L
280.872 293.78 L
292.282 293.78 L
303.692 293.78 L
315.102 293.78 L
326.512 293.78 L
337.922 293.78 L
349.332 293.78 L
360.742 293.78 L
372.152 293.78 L
383.562 293.78 L
394.972 293.78 L
406.382 293.78 L
417.792 293.78 L
429.202 293.78 L
440.612 293.78 L
452.022 293.78 L
S
GR
GS
[0.75 0 0 0.75 0 0] CT
1 LJ
0.667 LW
N
110.293 288.075 M
121.702 288.075 L
133.113 288.075 L
144.522 288.075 L
155.932 288.075 L
167.342 288.075 L
178.753 288.075 L
190.163 288.075 L
201.573 288.075 L
212.982 288.075 L
224.393 288.075 L
235.803 288.075 L
247.212 288.075 L
258.622 288.075 L
270.033 288.075 L
281.443 288.075 L
292.853 288.075 L
304.263 288.075 L
315.673 288.075 L
327.082 288.075 L
338.492 288.075 L
349.902 288.075 L
361.313 288.075 L
372.723 288.075 L
384.133 288.075 L
395.543 288.075 L
406.953 288.075 L
418.362 288.075 L
429.772 288.075 L
441.182 288.075 L
452.592 288.075 L
S
GR
GS
[0.75 0 0 0.75 0 0] CT
1 LJ
0.667 LW
N
110.863 282.37 M
122.273 282.37 L
133.683 282.37 L
145.093 282.37 L
156.503 282.37 L
167.913 282.37 L
179.323 282.37 L
190.733 282.37 L
202.143 282.37 L
213.553 282.37 L
224.963 282.37 L
236.373 282.37 L
247.783 282.37 L
259.193 282.37 L
270.603 282.37 L
282.013 282.37 L
293.423 282.37 L
304.833 282.37 L
316.243 282.37 L
327.653 282.37 L
339.063 282.37 L
350.473 282.37 L
361.883 282.37 L
373.293 282.37 L
384.703 282.37 L
396.113 282.37 L
407.523 282.37 L
418.933 282.37 L
430.343 282.37 L
441.753 282.37 L
453.163 282.37 L
S
GR
GS
[0.75 0 0 0.75 0 0] CT
1 LJ
0.667 LW
N
111.434 276.665 M
122.843 276.665 L
134.253 276.665 L
145.663 276.665 L
157.074 276.665 L
168.484 276.665 L
179.894 276.665 L
191.303 276.665 L
202.714 276.665 L
214.124 276.665 L
225.533 276.665 L
236.943 276.665 L
248.354 276.665 L
259.763 276.665 L
271.173 276.665 L
282.583 276.665 L
293.993 276.665 L
305.404 276.665 L
316.814 276.665 L
328.224 276.665 L
339.633 276.665 L
351.043 276.665 L
362.453 276.665 L
373.863 276.665 L
385.273 276.665 L
396.684 276.665 L
408.094 276.665 L
419.504 276.665 L
430.914 276.665 L
442.323 276.665 L
453.733 276.665 L
S
GR
GS
[0.75 0 0 0.75 0 0] CT
1 LJ
0.667 LW
N
112.004 270.96 M
123.414 270.96 L
134.824 270.96 L
146.234 270.96 L
157.644 270.96 L
169.054 270.96 L
180.464 270.96 L
191.874 270.96 L
203.284 270.96 L
214.694 270.96 L
226.104 270.96 L
237.514 270.96 L
248.924 270.96 L
260.334 270.96 L
271.744 270.96 L
283.154 270.96 L
294.564 270.96 L
305.974 270.96 L
317.384 270.96 L
328.794 270.96 L
340.204 270.96 L
351.614 270.96 L
363.024 270.96 L
374.434 270.96 L
385.844 270.96 L
397.254 270.96 L
408.664 270.96 L
420.074 270.96 L
431.484 270.96 L
442.894 270.96 L
454.304 270.96 L
S
GR
GS
[0.75 0 0 0.75 0 0] CT
1 LJ
0.667 LW
N
112.575 265.255 M
123.984 265.255 L
135.395 265.255 L
146.805 265.255 L
158.215 265.255 L
169.624 265.255 L
181.035 265.255 L
192.445 265.255 L
203.855 265.255 L
215.264 265.255 L
226.674 265.255 L
238.085 265.255 L
249.495 265.255 L
260.905 265.255 L
272.315 265.255 L
283.724 265.255 L
295.134 265.255 L
306.544 265.255 L
317.954 265.255 L
329.365 265.255 L
340.775 265.255 L
352.185 265.255 L
363.595 265.255 L
375.004 265.255 L
386.414 265.255 L
397.824 265.255 L
409.234 265.255 L
420.645 265.255 L
432.055 265.255 L
443.465 265.255 L
454.874 265.255 L
S
GR
GS
[0.75 0 0 0.75 0 0] CT
1 LJ
0.667 LW
N
113.145 259.55 M
124.555 259.55 L
135.965 259.55 L
147.375 259.55 L
158.785 259.55 L
170.195 259.55 L
181.605 259.55 L
193.015 259.55 L
204.425 259.55 L
215.835 259.55 L
227.245 259.55 L
238.655 259.55 L
250.065 259.55 L
261.475 259.55 L
272.885 259.55 L
284.295 259.55 L
295.705 259.55 L
307.115 259.55 L
318.525 259.55 L
329.935 259.55 L
341.345 259.55 L
352.755 259.55 L
364.165 259.55 L
375.575 259.55 L
386.985 259.55 L
398.395 259.55 L
409.805 259.55 L
421.215 259.55 L
432.625 259.55 L
444.035 259.55 L
455.445 259.55 L
S
GR
GS
[0.75 0 0 0.75 0 0] CT
1 LJ
0.667 LW
N
113.716 253.845 M
125.126 253.845 L
136.536 253.845 L
147.945 253.845 L
159.355 253.845 L
170.766 253.845 L
182.176 253.845 L
193.585 253.845 L
204.995 253.845 L
216.406 253.845 L
227.815 253.845 L
239.226 253.845 L
250.635 253.845 L
262.046 253.845 L
273.456 253.845 L
284.866 253.845 L
296.276 253.845 L
307.685 253.845 L
319.095 253.845 L
330.505 253.845 L
341.915 253.845 L
353.326 253.845 L
364.736 253.845 L
376.146 253.845 L
387.556 253.845 L
398.965 253.845 L
410.375 253.845 L
421.785 253.845 L
433.195 253.845 L
444.605 253.845 L
456.016 253.845 L
S
GR
GS
[0.75 0 0 0.75 0 0] CT
1 LJ
0.667 LW
N
114.286 248.14 M
125.696 248.14 L
137.106 248.14 L
148.516 248.14 L
159.926 248.14 L
171.336 248.14 L
182.746 248.14 L
194.156 248.14 L
205.566 248.14 L
216.976 248.14 L
228.386 248.14 L
239.796 248.14 L
251.206 248.14 L
262.616 248.14 L
274.026 248.14 L
285.436 248.14 L
296.846 248.14 L
308.256 248.14 L
319.666 248.14 L
331.076 248.14 L
342.486 248.14 L
353.896 248.14 L
365.306 248.14 L
376.716 248.14 L
388.126 248.14 L
399.536 248.14 L
410.946 248.14 L
422.356 248.14 L
433.766 248.14 L
445.176 248.14 L
456.586 248.14 L
S
GR
GS
[0.75 0 0 0.75 0 0] CT
1 LJ
0.667 LW
N
114.857 242.435 M
126.267 242.435 L
137.676 242.435 L
149.087 242.435 L
160.497 242.435 L
171.906 242.435 L
183.316 242.435 L
194.727 242.435 L
206.137 242.435 L
217.546 242.435 L
228.956 242.435 L
240.367 242.435 L
251.777 242.435 L
263.186 242.435 L
274.596 242.435 L
286.007 242.435 L
297.417 242.435 L
308.827 242.435 L
320.237 242.435 L
331.647 242.435 L
343.056 242.435 L
354.466 242.435 L
365.876 242.435 L
377.286 242.435 L
388.697 242.435 L
400.107 242.435 L
411.517 242.435 L
422.926 242.435 L
434.336 242.435 L
445.746 242.435 L
457.156 242.435 L
S
GR
GS
[0.75 0 0 0.75 0 0] CT
1 LJ
0.667 LW
N
115.427 236.73 M
126.837 236.73 L
138.247 236.73 L
149.657 236.73 L
161.067 236.73 L
172.477 236.73 L
183.887 236.73 L
195.297 236.73 L
206.707 236.73 L
218.117 236.73 L
229.527 236.73 L
240.937 236.73 L
252.347 236.73 L
263.757 236.73 L
275.167 236.73 L
286.577 236.73 L
297.987 236.73 L
309.397 236.73 L
320.807 236.73 L
332.217 236.73 L
343.627 236.73 L
355.037 236.73 L
366.447 236.73 L
377.857 236.73 L
389.267 236.73 L
400.677 236.73 L
412.087 236.73 L
423.497 236.73 L
434.907 236.73 L
446.317 236.73 L
457.727 236.73 L
S
GR
GS
[0.75 0 0 0.75 0 0] CT
1 LJ
0.667 LW
N
115.998 231.025 M
127.408 231.025 L
138.818 231.025 L
150.227 231.025 L
161.637 231.025 L
173.048 231.025 L
184.458 231.025 L
195.867 231.025 L
207.277 231.025 L
218.688 231.025 L
230.098 231.025 L
241.508 231.025 L
252.917 231.025 L
264.327 231.025 L
275.737 231.025 L
287.147 231.025 L
298.557 231.025 L
309.967 231.025 L
321.378 231.025 L
332.788 231.025 L
344.198 231.025 L
355.608 231.025 L
367.017 231.025 L
378.427 231.025 L
389.837 231.025 L
401.247 231.025 L
412.658 231.025 L
424.068 231.025 L
435.478 231.025 L
446.888 231.025 L
458.298 231.025 L
S
GR
GS
[0.75 0 0 0.75 0 0] CT
1 LJ
0.667 LW
N
116.568 225.32 M
127.978 225.32 L
139.388 225.32 L
150.798 225.32 L
162.208 225.32 L
173.618 225.32 L
185.028 225.32 L
196.438 225.32 L
207.848 225.32 L
219.258 225.32 L
230.668 225.32 L
242.078 225.32 L
253.488 225.32 L
264.898 225.32 L
276.308 225.32 L
287.718 225.32 L
299.128 225.32 L
310.538 225.32 L
321.948 225.32 L
333.358 225.32 L
344.768 225.32 L
356.178 225.32 L
367.588 225.32 L
378.998 225.32 L
390.408 225.32 L
401.818 225.32 L
413.228 225.32 L
424.638 225.32 L
436.048 225.32 L
447.458 225.32 L
458.868 225.32 L
S
GR
GS
[0.75 0 0 0.75 0 0] CT
1 LJ
0.667 LW
N
117.139 219.615 M
128.549 219.615 L
139.958 219.615 L
151.368 219.615 L
162.779 219.615 L
174.188 219.615 L
185.598 219.615 L
197.008 219.615 L
208.419 219.615 L
219.829 219.615 L
231.238 219.615 L
242.648 219.615 L
254.059 219.615 L
265.469 219.615 L
276.879 219.615 L
288.289 219.615 L
299.698 219.615 L
311.108 219.615 L
322.518 219.615 L
333.928 219.615 L
345.339 219.615 L
356.749 219.615 L
368.159 219.615 L
379.568 219.615 L
390.978 219.615 L
402.389 219.615 L
413.798 219.615 L
425.208 219.615 L
436.618 219.615 L
448.029 219.615 L
459.439 219.615 L
S
GR
GS
[0.75 0 0 0.75 0 0] CT
1 LJ
0.667 LW
N
117.709 213.91 M
129.119 213.91 L
140.529 213.91 L
151.939 213.91 L
163.349 213.91 L
174.759 213.91 L
186.169 213.91 L
197.579 213.91 L
208.989 213.91 L
220.399 213.91 L
231.809 213.91 L
243.219 213.91 L
254.629 213.91 L
266.039 213.91 L
277.449 213.91 L
288.859 213.91 L
300.269 213.91 L
311.679 213.91 L
323.089 213.91 L
334.499 213.91 L
345.909 213.91 L
357.319 213.91 L
368.729 213.91 L
380.139 213.91 L
391.549 213.91 L
402.959 213.91 L
414.369 213.91 L
425.779 213.91 L
437.189 213.91 L
448.599 213.91 L
460.009 213.91 L
S
GR
GS
[0.75 0 0 0.75 0 0] CT
1 LJ
0.667 LW
N
118.28 208.205 M
129.689 208.205 L
141.1 208.205 L
152.509 208.205 L
163.919 208.205 L
175.329 208.205 L
186.74 208.205 L
198.149 208.205 L
209.559 208.205 L
220.969 208.205 L
232.38 208.205 L
243.79 208.205 L
255.199 208.205 L
266.609 208.205 L
278.02 208.205 L
289.43 208.205 L
300.84 208.205 L
312.25 208.205 L
323.66 208.205 L
335.069 208.205 L
346.479 208.205 L
357.889 208.205 L
369.299 208.205 L
380.71 208.205 L
392.12 208.205 L
403.53 208.205 L
414.94 208.205 L
426.35 208.205 L
437.759 208.205 L
449.169 208.205 L
460.579 208.205 L
S
GR
GS
[0.75 0 0 0.75 0 0] CT
1 LJ
0.667 LW
N
118.85 202.5 M
130.26 202.5 L
141.67 202.5 L
153.08 202.5 L
164.49 202.5 L
175.9 202.5 L
187.31 202.5 L
198.72 202.5 L
210.13 202.5 L
221.54 202.5 L
232.95 202.5 L
244.36 202.5 L
255.77 202.5 L
267.18 202.5 L
278.59 202.5 L
290 202.5 L
301.41 202.5 L
312.82 202.5 L
324.23 202.5 L
335.64 202.5 L
347.05 202.5 L
358.46 202.5 L
369.87 202.5 L
381.28 202.5 L
392.69 202.5 L
404.1 202.5 L
415.51 202.5 L
426.92 202.5 L
438.33 202.5 L
449.74 202.5 L
461.15 202.5 L
S
GR
GS
[0.75 0 0 0.75 0 0] CT
1 LJ
0.667 LW
N
119.421 196.795 M
130.831 196.795 L
142.24 196.795 L
153.65 196.795 L
165.061 196.795 L
176.47 196.795 L
187.88 196.795 L
199.291 196.795 L
210.701 196.795 L
222.111 196.795 L
233.52 196.795 L
244.93 196.795 L
256.34 196.795 L
267.75 196.795 L
279.16 196.795 L
290.57 196.795 L
301.98 196.795 L
313.391 196.795 L
324.801 196.795 L
336.211 196.795 L
347.621 196.795 L
359.03 196.795 L
370.44 196.795 L
381.85 196.795 L
393.26 196.795 L
404.671 196.795 L
416.081 196.795 L
427.491 196.795 L
438.901 196.795 L
450.31 196.795 L
461.72 196.795 L
S
GR
GS
[0.75 0 0 0.75 0 0] CT
1 LJ
0.667 LW
N
119.991 191.09 M
131.401 191.09 L
142.811 191.09 L
154.221 191.09 L
165.631 191.09 L
177.041 191.09 L
188.451 191.09 L
199.861 191.09 L
211.271 191.09 L
222.681 191.09 L
234.091 191.09 L
245.501 191.09 L
256.911 191.09 L
268.321 191.09 L
279.731 191.09 L
291.141 191.09 L
302.551 191.09 L
313.961 191.09 L
325.371 191.09 L
336.781 191.09 L
348.191 191.09 L
359.601 191.09 L
371.011 191.09 L
382.421 191.09 L
393.831 191.09 L
405.241 191.09 L
416.651 191.09 L
428.061 191.09 L
439.471 191.09 L
450.881 191.09 L
462.291 191.09 L
S
GR
GS
[0.75 0 0 0.75 0 0] CT
1 LJ
0.667 LW
N
120.562 185.385 M
131.971 185.385 L
143.382 185.385 L
154.792 185.385 L
166.201 185.385 L
177.611 185.385 L
189.021 185.385 L
200.432 185.385 L
211.841 185.385 L
223.251 185.385 L
234.661 185.385 L
246.072 185.385 L
257.482 185.385 L
268.892 185.385 L
280.302 185.385 L
291.711 185.385 L
303.121 185.385 L
314.531 185.385 L
325.941 185.385 L
337.352 185.385 L
348.762 185.385 L
360.172 185.385 L
371.582 185.385 L
382.992 185.385 L
394.401 185.385 L
405.811 185.385 L
417.221 185.385 L
428.632 185.385 L
440.042 185.385 L
451.452 185.385 L
462.862 185.385 L
S
GR
GS
[0.75 0 0 0.75 0 0] CT
1 LJ
0.667 LW
N
121.132 179.68 M
132.542 179.68 L
143.952 179.68 L
155.362 179.68 L
166.772 179.68 L
178.182 179.68 L
189.592 179.68 L
201.002 179.68 L
212.412 179.68 L
223.822 179.68 L
235.232 179.68 L
246.642 179.68 L
258.052 179.68 L
269.462 179.68 L
280.872 179.68 L
292.282 179.68 L
303.692 179.68 L
315.102 179.68 L
326.512 179.68 L
337.922 179.68 L
349.332 179.68 L
360.742 179.68 L
372.152 179.68 L
383.562 179.68 L
394.972 179.68 L
406.382 179.68 L
417.792 179.68 L
429.202 179.68 L
440.612 179.68 L
452.022 179.68 L
463.432 179.68 L
S
GR
GS
[0.75 0 0 0.75 0 0] CT
1 LJ
0.667 LW
N
121.702 173.975 M
133.113 173.975 L
144.522 173.975 L
155.932 173.975 L
167.342 173.975 L
178.753 173.975 L
190.163 173.975 L
201.573 173.975 L
212.982 173.975 L
224.393 173.975 L
235.803 173.975 L
247.212 173.975 L
258.622 173.975 L
270.033 173.975 L
281.443 173.975 L
292.853 173.975 L
304.263 173.975 L
315.673 173.975 L
327.082 173.975 L
338.492 173.975 L
349.902 173.975 L
361.313 173.975 L
372.723 173.975 L
384.133 173.975 L
395.543 173.975 L
406.953 173.975 L
418.362 173.975 L
429.772 173.975 L
441.182 173.975 L
452.592 173.975 L
464.003 173.975 L
S
GR
GS
[0.75 0 0 0.75 0 0] CT
1 LJ
0.667 LW
N
122.273 168.27 M
133.683 168.27 L
145.093 168.27 L
156.503 168.27 L
167.913 168.27 L
179.323 168.27 L
190.733 168.27 L
202.143 168.27 L
213.553 168.27 L
224.963 168.27 L
236.373 168.27 L
247.783 168.27 L
259.193 168.27 L
270.603 168.27 L
282.013 168.27 L
293.423 168.27 L
304.833 168.27 L
316.243 168.27 L
327.653 168.27 L
339.063 168.27 L
350.473 168.27 L
361.883 168.27 L
373.293 168.27 L
384.703 168.27 L
396.113 168.27 L
407.523 168.27 L
418.933 168.27 L
430.343 168.27 L
441.753 168.27 L
453.163 168.27 L
464.573 168.27 L
S
GR
GS
[0.75 0 0 0.75 0 0] CT
1 LJ
0.667 LW
N
122.843 162.565 M
134.253 162.565 L
145.663 162.565 L
157.074 162.565 L
168.484 162.565 L
179.894 162.565 L
191.303 162.565 L
202.714 162.565 L
214.124 162.565 L
225.533 162.565 L
236.943 162.565 L
248.354 162.565 L
259.763 162.565 L
271.173 162.565 L
282.583 162.565 L
293.993 162.565 L
305.404 162.565 L
316.814 162.565 L
328.224 162.565 L
339.633 162.565 L
351.043 162.565 L
362.453 162.565 L
373.863 162.565 L
385.273 162.565 L
396.684 162.565 L
408.094 162.565 L
419.504 162.565 L
430.914 162.565 L
442.323 162.565 L
453.733 162.565 L
465.143 162.565 L
S
GR
GS
[0.75 0 0 0.75 0 0] CT
1 LJ
0.667 LW
N
123.414 156.86 M
134.824 156.86 L
146.234 156.86 L
157.644 156.86 L
169.054 156.86 L
180.464 156.86 L
191.874 156.86 L
203.284 156.86 L
214.694 156.86 L
226.104 156.86 L
237.514 156.86 L
248.924 156.86 L
260.334 156.86 L
271.744 156.86 L
283.154 156.86 L
294.564 156.86 L
305.974 156.86 L
317.384 156.86 L
328.794 156.86 L
340.204 156.86 L
351.614 156.86 L
363.024 156.86 L
374.434 156.86 L
385.844 156.86 L
397.254 156.86 L
408.664 156.86 L
420.074 156.86 L
431.484 156.86 L
442.894 156.86 L
454.304 156.86 L
465.714 156.86 L
S
GR
GS
[0.75 0 0 0.75 0 0] CT
1 LJ
0.667 LW
N
123.984 151.155 M
135.395 151.155 L
146.805 151.155 L
158.215 151.155 L
169.624 151.155 L
181.035 151.155 L
192.445 151.155 L
203.855 151.155 L
215.264 151.155 L
226.674 151.155 L
238.085 151.155 L
249.495 151.155 L
260.905 151.155 L
272.315 151.155 L
283.724 151.155 L
295.134 151.155 L
306.544 151.155 L
317.954 151.155 L
329.365 151.155 L
340.775 151.155 L
352.185 151.155 L
363.595 151.155 L
375.004 151.155 L
386.414 151.155 L
397.824 151.155 L
409.234 151.155 L
420.645 151.155 L
432.055 151.155 L
443.465 151.155 L
454.874 151.155 L
466.284 151.155 L
S
GR
GS
[0.75 0 0 0.75 0 0] CT
1 LJ
0.667 LW
N
124.555 145.45 M
135.965 145.45 L
147.375 145.45 L
158.785 145.45 L
170.195 145.45 L
181.605 145.45 L
193.015 145.45 L
204.425 145.45 L
215.835 145.45 L
227.245 145.45 L
238.655 145.45 L
250.065 145.45 L
261.475 145.45 L
272.885 145.45 L
284.295 145.45 L
295.705 145.45 L
307.115 145.45 L
318.525 145.45 L
329.935 145.45 L
341.345 145.45 L
352.755 145.45 L
364.165 145.45 L
375.575 145.45 L
386.985 145.45 L
398.395 145.45 L
409.805 145.45 L
421.215 145.45 L
432.625 145.45 L
444.035 145.45 L
455.445 145.45 L
466.855 145.45 L
S
GR
GS
[0.75 0 0 0.75 0 0] CT
1 LJ
0.667 LW
N
125.126 139.745 M
136.536 139.745 L
147.945 139.745 L
159.355 139.745 L
170.766 139.745 L
182.176 139.745 L
193.585 139.745 L
204.995 139.745 L
216.406 139.745 L
227.815 139.745 L
239.226 139.745 L
250.635 139.745 L
262.046 139.745 L
273.456 139.745 L
284.866 139.745 L
296.276 139.745 L
307.685 139.745 L
319.095 139.745 L
330.505 139.745 L
341.915 139.745 L
353.326 139.745 L
364.736 139.745 L
376.146 139.745 L
387.556 139.745 L
398.965 139.745 L
410.375 139.745 L
421.785 139.745 L
433.195 139.745 L
444.605 139.745 L
456.016 139.745 L
467.426 139.745 L
S
GR
GS
[0.75 0 0 0.75 0 0] CT
1 LJ
0.667 LW
N
125.696 134.04 M
137.106 134.04 L
148.516 134.04 L
159.926 134.04 L
171.336 134.04 L
182.746 134.04 L
194.156 134.04 L
205.566 134.04 L
216.976 134.04 L
228.386 134.04 L
239.796 134.04 L
251.206 134.04 L
262.616 134.04 L
274.026 134.04 L
285.436 134.04 L
296.846 134.04 L
308.256 134.04 L
319.666 134.04 L
331.076 134.04 L
342.486 134.04 L
353.896 134.04 L
365.306 134.04 L
376.716 134.04 L
388.126 134.04 L
399.536 134.04 L
410.946 134.04 L
422.356 134.04 L
433.766 134.04 L
445.176 134.04 L
456.586 134.04 L
467.996 134.04 L
S
GR
GS
[0.75 0 0 0.75 0 0] CT
1 LJ
0.667 LW
N
126.267 128.335 M
137.676 128.335 L
149.087 128.335 L
160.497 128.335 L
171.906 128.335 L
183.316 128.335 L
194.727 128.335 L
206.137 128.335 L
217.546 128.335 L
228.956 128.335 L
240.367 128.335 L
251.777 128.335 L
263.186 128.335 L
274.596 128.335 L
286.007 128.335 L
297.417 128.335 L
308.827 128.335 L
320.237 128.335 L
331.647 128.335 L
343.056 128.335 L
354.466 128.335 L
365.876 128.335 L
377.286 128.335 L
388.697 128.335 L
400.107 128.335 L
411.517 128.335 L
422.926 128.335 L
434.336 128.335 L
445.746 128.335 L
457.156 128.335 L
468.566 128.335 L
S
GR
GS
[0.75 0 0 0.75 0 0] CT
1 LJ
0.667 LW
N
126.837 122.63 M
138.247 122.63 L
149.657 122.63 L
161.067 122.63 L
172.477 122.63 L
183.887 122.63 L
195.297 122.63 L
206.707 122.63 L
218.117 122.63 L
229.527 122.63 L
240.937 122.63 L
252.347 122.63 L
263.757 122.63 L
275.167 122.63 L
286.577 122.63 L
297.987 122.63 L
309.397 122.63 L
320.807 122.63 L
332.217 122.63 L
343.627 122.63 L
355.037 122.63 L
366.447 122.63 L
377.857 122.63 L
389.267 122.63 L
400.677 122.63 L
412.087 122.63 L
423.497 122.63 L
434.907 122.63 L
446.317 122.63 L
457.727 122.63 L
469.137 122.63 L
S
GR
GS
[0.75 0 0 0.75 0 0] CT
1 LJ
0.667 LW
N
127.408 116.925 M
138.818 116.925 L
150.227 116.925 L
161.637 116.925 L
173.048 116.925 L
184.458 116.925 L
195.867 116.925 L
207.277 116.925 L
218.688 116.925 L
230.098 116.925 L
241.508 116.925 L
252.917 116.925 L
264.327 116.925 L
275.737 116.925 L
287.147 116.925 L
298.557 116.925 L
309.967 116.925 L
321.378 116.925 L
332.788 116.925 L
344.198 116.925 L
355.608 116.925 L
367.017 116.925 L
378.427 116.925 L
389.837 116.925 L
401.247 116.925 L
412.658 116.925 L
424.068 116.925 L
435.478 116.925 L
446.888 116.925 L
458.298 116.925 L
469.707 116.925 L
S
GR
GS
[0.75 0 0 0.75 0 0] CT
1 LJ
0.667 LW
N
127.978 111.22 M
139.388 111.22 L
150.798 111.22 L
162.208 111.22 L
173.618 111.22 L
185.028 111.22 L
196.438 111.22 L
207.848 111.22 L
219.258 111.22 L
230.668 111.22 L
242.078 111.22 L
253.488 111.22 L
264.898 111.22 L
276.308 111.22 L
287.718 111.22 L
299.128 111.22 L
310.538 111.22 L
321.948 111.22 L
333.358 111.22 L
344.768 111.22 L
356.178 111.22 L
367.588 111.22 L
378.998 111.22 L
390.408 111.22 L
401.818 111.22 L
413.228 111.22 L
424.638 111.22 L
436.048 111.22 L
447.458 111.22 L
458.868 111.22 L
470.278 111.22 L
S
GR
GS
[0.75 0 0 0.75 0 0] CT
1 LJ
0.667 LW
N
128.549 105.515 M
139.958 105.515 L
151.368 105.515 L
162.779 105.515 L
174.188 105.515 L
185.598 105.515 L
197.008 105.515 L
208.419 105.515 L
219.829 105.515 L
231.238 105.515 L
242.648 105.515 L
254.059 105.515 L
265.469 105.515 L
276.879 105.515 L
288.289 105.515 L
299.698 105.515 L
311.108 105.515 L
322.518 105.515 L
333.928 105.515 L
345.339 105.515 L
356.749 105.515 L
368.159 105.515 L
379.568 105.515 L
390.978 105.515 L
402.389 105.515 L
413.798 105.515 L
425.208 105.515 L
436.618 105.515 L
448.029 105.515 L
459.439 105.515 L
470.848 105.515 L
S
GR
GS
[0.75 0 0 0.75 0 0] CT
1 LJ
0.667 LW
N
129.119 99.81 M
140.529 99.81 L
151.939 99.81 L
163.349 99.81 L
174.759 99.81 L
186.169 99.81 L
197.579 99.81 L
208.989 99.81 L
220.399 99.81 L
231.809 99.81 L
243.219 99.81 L
254.629 99.81 L
266.039 99.81 L
277.449 99.81 L
288.859 99.81 L
300.269 99.81 L
311.679 99.81 L
323.089 99.81 L
334.499 99.81 L
345.909 99.81 L
357.319 99.81 L
368.729 99.81 L
380.139 99.81 L
391.549 99.81 L
402.959 99.81 L
414.369 99.81 L
425.779 99.81 L
437.189 99.81 L
448.599 99.81 L
460.009 99.81 L
471.419 99.81 L
S
GR
GS
[0.75 0 0 0.75 0 0] CT
1 LJ
0.667 LW
N
129.689 94.105 M
141.1 94.105 L
152.509 94.105 L
163.919 94.105 L
175.329 94.105 L
186.74 94.105 L
198.149 94.105 L
209.559 94.105 L
220.969 94.105 L
232.38 94.105 L
243.79 94.105 L
255.199 94.105 L
266.609 94.105 L
278.02 94.105 L
289.43 94.105 L
300.84 94.105 L
312.25 94.105 L
323.66 94.105 L
335.069 94.105 L
346.479 94.105 L
357.889 94.105 L
369.299 94.105 L
380.71 94.105 L
392.12 94.105 L
403.53 94.105 L
414.94 94.105 L
426.35 94.105 L
437.759 94.105 L
449.169 94.105 L
460.579 94.105 L
471.99 94.105 L
S
GR
GS
[0.75 0 0 0.75 0 0] CT
1 LJ
0.667 LW
N
130.26 88.4 M
141.67 88.4 L
153.08 88.4 L
164.49 88.4 L
175.9 88.4 L
187.31 88.4 L
198.72 88.4 L
210.13 88.4 L
221.54 88.4 L
232.95 88.4 L
244.36 88.4 L
255.77 88.4 L
267.18 88.4 L
278.59 88.4 L
290 88.4 L
301.41 88.4 L
312.82 88.4 L
324.23 88.4 L
335.64 88.4 L
347.05 88.4 L
358.46 88.4 L
369.87 88.4 L
381.28 88.4 L
392.69 88.4 L
404.1 88.4 L
415.51 88.4 L
426.92 88.4 L
438.33 88.4 L
449.74 88.4 L
461.15 88.4 L
472.56 88.4 L
S
GR
GS
[0.75 0 0 0.75 0 0] CT
1 LJ
0.667 LW
N
130.831 82.695 M
142.24 82.695 L
153.65 82.695 L
165.061 82.695 L
176.47 82.695 L
187.88 82.695 L
199.291 82.695 L
210.701 82.695 L
222.111 82.695 L
233.52 82.695 L
244.93 82.695 L
256.34 82.695 L
267.75 82.695 L
279.16 82.695 L
290.57 82.695 L
301.98 82.695 L
313.391 82.695 L
324.801 82.695 L
336.211 82.695 L
347.621 82.695 L
359.03 82.695 L
370.44 82.695 L
381.85 82.695 L
393.26 82.695 L
404.671 82.695 L
416.081 82.695 L
427.491 82.695 L
438.901 82.695 L
450.31 82.695 L
461.72 82.695 L
473.131 82.695 L
S
GR
GS
[0.75 0 0 0.75 0 0] CT
1 LJ
0.667 LW
N
131.401 76.99 M
142.811 76.99 L
154.221 76.99 L
165.631 76.99 L
177.041 76.99 L
188.451 76.99 L
199.861 76.99 L
211.271 76.99 L
222.681 76.99 L
234.091 76.99 L
245.501 76.99 L
256.911 76.99 L
268.321 76.99 L
279.731 76.99 L
291.141 76.99 L
302.551 76.99 L
313.961 76.99 L
325.371 76.99 L
336.781 76.99 L
348.191 76.99 L
359.601 76.99 L
371.011 76.99 L
382.421 76.99 L
393.831 76.99 L
405.241 76.99 L
416.651 76.99 L
428.061 76.99 L
439.471 76.99 L
450.881 76.99 L
462.291 76.99 L
473.701 76.99 L
S
GR
GS
[0.75 0 0 0.75 0 0] CT
1 LJ
0.667 LW
N
131.971 71.285 M
143.382 71.285 L
154.792 71.285 L
166.201 71.285 L
177.611 71.285 L
189.021 71.285 L
200.432 71.285 L
211.841 71.285 L
223.251 71.285 L
234.661 71.285 L
246.072 71.285 L
257.482 71.285 L
268.892 71.285 L
280.302 71.285 L
291.711 71.285 L
303.121 71.285 L
314.531 71.285 L
325.941 71.285 L
337.352 71.285 L
348.762 71.285 L
360.172 71.285 L
371.582 71.285 L
382.992 71.285 L
394.401 71.285 L
405.811 71.285 L
417.221 71.285 L
428.632 71.285 L
440.042 71.285 L
451.452 71.285 L
462.862 71.285 L
474.272 71.285 L
S
GR
GS
[0.75 0 0 0.75 0 0] CT
1 LJ
0.667 LW
N
132.542 65.58 M
143.952 65.58 L
155.362 65.58 L
166.772 65.58 L
178.182 65.58 L
189.592 65.58 L
201.002 65.58 L
212.412 65.58 L
223.822 65.58 L
235.232 65.58 L
246.642 65.58 L
258.052 65.58 L
269.462 65.58 L
280.872 65.58 L
292.282 65.58 L
303.692 65.58 L
315.102 65.58 L
326.512 65.58 L
337.922 65.58 L
349.332 65.58 L
360.742 65.58 L
372.152 65.58 L
383.562 65.58 L
394.972 65.58 L
406.382 65.58 L
417.792 65.58 L
429.202 65.58 L
440.612 65.58 L
452.022 65.58 L
463.432 65.58 L
474.842 65.58 L
S
GR
GS
[0.75 0 0 0.75 0 0] CT
1 LJ
0.667 LW
N
133.113 59.875 M
144.522 59.875 L
155.932 59.875 L
167.342 59.875 L
178.753 59.875 L
190.163 59.875 L
201.573 59.875 L
212.982 59.875 L
224.393 59.875 L
235.803 59.875 L
247.212 59.875 L
258.622 59.875 L
270.033 59.875 L
281.443 59.875 L
292.853 59.875 L
304.263 59.875 L
315.673 59.875 L
327.082 59.875 L
338.492 59.875 L
349.902 59.875 L
361.313 59.875 L
372.723 59.875 L
384.133 59.875 L
395.543 59.875 L
406.953 59.875 L
418.362 59.875 L
429.772 59.875 L
441.182 59.875 L
452.592 59.875 L
464.003 59.875 L
475.413 59.875 L
S
GR
GS
[0.75 0 0 0.75 0 0] CT
1 LJ
0.667 LW
N
133.683 54.17 M
145.093 54.17 L
156.503 54.17 L
167.913 54.17 L
179.323 54.17 L
190.733 54.17 L
202.143 54.17 L
213.553 54.17 L
224.963 54.17 L
236.373 54.17 L
247.783 54.17 L
259.193 54.17 L
270.603 54.17 L
282.013 54.17 L
293.423 54.17 L
304.833 54.17 L
316.243 54.17 L
327.653 54.17 L
339.063 54.17 L
350.473 54.17 L
361.883 54.17 L
373.293 54.17 L
384.703 54.17 L
396.113 54.17 L
407.523 54.17 L
418.933 54.17 L
430.343 54.17 L
441.753 54.17 L
453.163 54.17 L
464.573 54.17 L
475.983 54.17 L
S
GR
GS
[0.75 0 0 0.75 0 0] CT
1 LJ
0.667 LW
N
134.253 48.465 M
145.663 48.465 L
157.074 48.465 L
168.484 48.465 L
179.894 48.465 L
191.303 48.465 L
202.714 48.465 L
214.124 48.465 L
225.533 48.465 L
236.943 48.465 L
248.354 48.465 L
259.763 48.465 L
271.173 48.465 L
282.583 48.465 L
293.993 48.465 L
305.404 48.465 L
316.814 48.465 L
328.224 48.465 L
339.633 48.465 L
351.043 48.465 L
362.453 48.465 L
373.863 48.465 L
385.273 48.465 L
396.684 48.465 L
408.094 48.465 L
419.504 48.465 L
430.914 48.465 L
442.323 48.465 L
453.733 48.465 L
465.143 48.465 L
476.553 48.465 L
S
GR
GS
[0.75 0 0 0.75 0 0] CT
1 LJ
0.667 LW
N
134.824 42.76 M
146.234 42.76 L
157.644 42.76 L
169.054 42.76 L
180.464 42.76 L
191.874 42.76 L
203.284 42.76 L
214.694 42.76 L
226.104 42.76 L
237.514 42.76 L
248.924 42.76 L
260.334 42.76 L
271.744 42.76 L
283.154 42.76 L
294.564 42.76 L
305.974 42.76 L
317.384 42.76 L
328.794 42.76 L
340.204 42.76 L
351.614 42.76 L
363.024 42.76 L
374.434 42.76 L
385.844 42.76 L
397.254 42.76 L
408.664 42.76 L
420.074 42.76 L
431.484 42.76 L
442.894 42.76 L
454.304 42.76 L
465.714 42.76 L
477.124 42.76 L
S
GR
GS
[0.75 0 0 0.75 0 0] CT
1 LJ
0.667 LW
N
135.395 37.055 M
146.805 37.055 L
158.215 37.055 L
169.624 37.055 L
181.035 37.055 L
192.445 37.055 L
203.855 37.055 L
215.264 37.055 L
226.674 37.055 L
238.085 37.055 L
249.495 37.055 L
260.905 37.055 L
272.315 37.055 L
283.724 37.055 L
295.134 37.055 L
306.544 37.055 L
317.954 37.055 L
329.365 37.055 L
340.775 37.055 L
352.185 37.055 L
363.595 37.055 L
375.004 37.055 L
386.414 37.055 L
397.824 37.055 L
409.234 37.055 L
420.645 37.055 L
432.055 37.055 L
443.465 37.055 L
454.874 37.055 L
466.284 37.055 L
477.695 37.055 L
S
GR
GS
[0.75 0 0 0.75 0 0] CT
1 LJ
0.667 LW
N
135.965 31.35 M
147.375 31.35 L
158.785 31.35 L
170.195 31.35 L
181.605 31.35 L
193.015 31.35 L
204.425 31.35 L
215.835 31.35 L
227.245 31.35 L
238.655 31.35 L
250.065 31.35 L
261.475 31.35 L
272.885 31.35 L
284.295 31.35 L
295.705 31.35 L
307.115 31.35 L
318.525 31.35 L
329.935 31.35 L
341.345 31.35 L
352.755 31.35 L
364.165 31.35 L
375.575 31.35 L
386.985 31.35 L
398.395 31.35 L
409.805 31.35 L
421.215 31.35 L
432.625 31.35 L
444.035 31.35 L
455.445 31.35 L
466.855 31.35 L
478.265 31.35 L
S
GR
%%Trailer
%%Pages: 1
%%EOF
