  0.1000000000000001E+01  0.1000000000000000E+01  0.1000000000000000E+01  0.9999999999999999E+00  0.9999999999999991E+00  0.1000000000000002E+01  0.1000000000000001E+01  0.9999999999999989E+00  0.9999999999999984E+00  0.1000000000000001E+01  0.1000000000000000E+01  0.1000000000000001E+01  0.1000000000000000E+01  0.9999999999999993E+00  0.9999999999999999E+00  0.9999999999999998E+00  0.1000000000000002E+01  0.9999999999999998E+00  0.9999999999999998E+00  0.1000000000000000E+01  0.9999999999999970E+00  0.1000000000000001E+01  0.1000000000000001E+01  0.9999999999999990E+00  0.1000000000000001E+01  0.9999999999999991E+00  0.9999999999999989E+00  0.1000000000000001E+01  0.9999999999999990E+00  0.1000000000000000E+01  0.1000000000000005E+01
  0.1000000000000003E+01  0.1000000000000001E+01  0.9999999999999989E+00  0.1000000000000000E+01  0.1000000000000000E+01  0.9999999999999992E+00  0.9999999999999993E+00  0.1000000000000000E+01  0.1000000000000000E+01  0.9999999999999991E+00  0.9999999999999996E+00  0.1000000000000001E+01  0.1000000000000002E+01  0.1000000000000000E+01  0.9999999999999983E+00  0.9999999999999981E+00  0.9999999999999993E+00  0.1000000000000002E+01  0.1000000000000001E+01  0.1000000000000000E+01  0.9999999999999991E+00  0.9999999999999992E+00  0.9999999999999997E+00  0.9999999999999996E+00  0.9999999999999999E+00  0.1000000000000002E+01  0.1000000000000001E+01  0.9999999999999991E+00  0.9999999999999993E+00  0.9999999999999994E+00  0.9999999999999960E+00
  0.1000000000000003E+01  0.1000000000000001E+01  0.1000000000000000E+01  0.9999999999999998E+00  0.1000000000000001E+01  0.1000000000000000E+01  0.1000000000000000E+01  0.9999999999999993E+00  0.9999999999999998E+00  0.1000000000000001E+01  0.9999999999999988E+00  0.1000000000000001E+01  0.1000000000000000E+01  0.9999999999999986E+00  0.1000000000000001E+01  0.1000000000000000E+01  0.9999999999999987E+00  0.1000000000000001E+01  0.9999999999999990E+00  0.1000000000000000E+01  0.1000000000000001E+01  0.9999999999999996E+00  0.1000000000000000E+01  0.9999999999999980E+00  0.1000000000000000E+01  0.1000000000000000E+01  0.1000000000000000E+01  0.1000000000000000E+01  0.9999999999999993E+00  0.9999999999999984E+00  0.1000000000000003E+01
  0.9999999999999953E+00  0.1000000000000000E+01  0.9999999999999988E+00  0.1000000000000001E+01  0.1000000000000003E+01  0.1000000000000000E+01  0.1000000000000000E+01  0.1000000000000000E+01  0.9999999999999993E+00  0.9999999999999983E+00  0.1000000000000001E+01  0.1000000000000001E+01  0.1000000000000000E+01  0.9999999999999998E+00  0.9999999999999982E+00  0.1000000000000000E+01  0.9999999999999996E+00  0.1000000000000000E+01  0.1000000000000000E+01  0.9999999999999997E+00  0.9999999999999983E+00  0.9999999999999996E+00  0.1000000000000004E+01  0.1000000000000002E+01  0.9999999999999982E+00  0.9999999999999982E+00  0.1000000000000001E+01  0.9999999999999980E+00  0.9999999999999982E+00  0.1000000000000002E+01  0.9999999999999952E+00
  0.9999999999999941E+00  0.1000000000000000E+01  0.1000000000000001E+01  0.9999999999999974E+00  0.9999999999999979E+00  0.1000000000000002E+01  0.1000000000000000E+01  0.1000000000000002E+01  0.1000000000000001E+01  0.9999999999999974E+00  0.9999999999999999E+00  0.1000000000000000E+01  0.1000000000000001E+01  0.1000000000000000E+01  0.9999999999999978E+00  0.1000000000000001E+01  0.1000000000000002E+01  0.9999999999999996E+00  0.9999999999999992E+00  0.1000000000000001E+01  0.9999999999999982E+00  0.9999999999999984E+00  0.1000000000000000E+01  0.9999999999999992E+00  0.1000000000000003E+01  0.9999999999999996E+00  0.9999999999999994E+00  0.1000000000000003E+01  0.9999999999999967E+00  0.1000000000000000E+01  0.1000000000000009E+01
  0.9999999999999970E+00  0.1000000000000000E+01  0.9999999999999998E+00  0.9999999999999993E+00  0.1000000000000000E+01  0.9999999999999994E+00  0.1000000000000000E+01  0.9999999999999996E+00  0.9999999999999999E+00  0.9999999999999997E+00  0.1000000000000000E+01  0.1000000000000001E+01  0.9999999999999996E+00  0.1000000000000000E+01  0.9999999999999996E+00  0.9999999999999989E+00  0.9999999999999983E+00  0.9999999999999993E+00  0.1000000000000000E+01  0.1000000000000003E+01  0.1000000000000003E+01  0.1000000000000000E+01  0.9999999999999998E+00  0.9999999999999993E+00  0.9999999999999984E+00  0.9999999999999988E+00  0.9999999999999998E+00  0.1000000000000000E+01  0.9999999999999989E+00  0.9999999999999969E+00  0.1000000000000006E+01
  0.9999999999999943E+00  0.9999999999999984E+00  0.1000000000000003E+01  0.1000000000000001E+01  0.1000000000000000E+01  0.1000000000000000E+01  0.9999999999999983E+00  0.9999999999999999E+00  0.1000000000000001E+01  0.1000000000000000E+01  0.1000000000000000E+01  0.1000000000000000E+01  0.9999999999999996E+00  0.9999999999999986E+00  0.1000000000000002E+01  0.1000000000000002E+01  0.9999999999999987E+00  0.9999999999999984E+00  0.1000000000000000E+01  0.1000000000000001E+01  0.9999999999999993E+00  0.1000000000000001E+01  0.1000000000000001E+01  0.9999999999999996E+00  0.1000000000000001E+01  0.1000000000000001E+01  0.1000000000000001E+01  0.1000000000000001E+01  0.1000000000000000E+01  0.9999999999999983E+00  0.9999999999999943E+00
  0.9999999999999994E+00  0.9999999999999993E+00  0.9999999999999996E+00  0.9999999999999996E+00  0.9999999999999992E+00  0.1000000000000001E+01  0.1000000000000001E+01  0.9999999999999989E+00  0.1000000000000000E+01  0.9999999999999993E+00  0.1000000000000000E+01  0.1000000000000002E+01  0.9999999999999994E+00  0.9999999999999984E+00  0.9999999999999980E+00  0.1000000000000001E+01  0.1000000000000001E+01  0.1000000000000000E+01  0.9999999999999990E+00  0.1000000000000000E+01  0.1000000000000000E+01  0.9999999999999994E+00  0.9999999999999998E+00  0.9999999999999998E+00  0.9999999999999991E+00  0.1000000000000001E+01  0.1000000000000000E+01  0.1000000000000001E+01  0.1000000000000001E+01  0.9999999999999996E+00  0.9999999999999971E+00
  0.9999999999999998E+00  0.9999999999999991E+00  0.1000000000000001E+01  0.1000000000000001E+01  0.9999999999999980E+00  0.9999999999999991E+00  0.1000000000000000E+01  0.9999999999999991E+00  0.1000000000000000E+01  0.1000000000000001E+01  0.9999999999999984E+00  0.1000000000000001E+01  0.1000000000000000E+01  0.9999999999999993E+00  0.1000000000000000E+01  0.1000000000000001E+01  0.9999999999999993E+00  0.1000000000000001E+01  0.9999999999999994E+00  0.9999999999999984E+00  0.1000000000000001E+01  0.1000000000000001E+01  0.9999999999999997E+00  0.1000000000000001E+01  0.9999999999999994E+00  0.9999999999999979E+00  0.1000000000000000E+01  0.1000000000000000E+01  0.9999999999999998E+00  0.1000000000000001E+01  0.1000000000000001E+01
  0.9999999999999992E+00  0.1000000000000000E+01  0.1000000000000000E+01  0.1000000000000001E+01  0.1000000000000001E+01  0.1000000000000000E+01  0.1000000000000000E+01  0.9999999999999998E+00  0.9999999999999994E+00  0.1000000000000000E+01  0.1000000000000000E+01  0.9999999999999998E+00  0.1000000000000001E+01  0.9999999999999993E+00  0.1000000000000000E+01  0.9999999999999998E+00  0.1000000000000001E+01  0.9999999999999996E+00  0.1000000000000002E+01  0.9999999999999992E+00  0.1000000000000000E+01  0.9999999999999997E+00  0.1000000000000000E+01  0.9999999999999999E+00  0.9999999999999999E+00  0.9999999999999996E+00  0.9999999999999996E+00  0.1000000000000000E+01  0.1000000000000000E+01  0.1000000000000000E+01  0.1000000000000001E+01
  0.9999999999999992E+00  0.9999999999999994E+00  0.1000000000000001E+01  0.1000000000000000E+01  0.1000000000000000E+01  0.9999999999999996E+00  0.1000000000000000E+01  0.1000000000000001E+01  0.1000000000000001E+01  0.9999999999999996E+00  0.9999999999999996E+00  0.9999999999999991E+00  0.9999999999999999E+00  0.1000000000000000E+01  0.1000000000000000E+01  0.9999999999999994E+00  0.1000000000000000E+01  0.1000000000000000E+01  0.1000000000000000E+01  0.1000000000000001E+01  0.9999999999999996E+00  0.9999999999999994E+00  0.1000000000000001E+01  0.9999999999999987E+00  0.1000000000000000E+01  0.1000000000000000E+01  0.9999999999999999E+00  0.1000000000000000E+01  0.1000000000000000E+01  0.1000000000000001E+01  0.1000000000000002E+01
  0.9999999999999991E+00  0.1000000000000001E+01  0.9999999999999999E+00  0.9999999999999990E+00  0.9999999999999993E+00  0.9999999999999999E+00  0.1000000000000001E+01  0.1000000000000001E+01  0.1000000000000000E+01  0.9999999999999977E+00  0.9999999999999989E+00  0.1000000000000002E+01  0.1000000000000001E+01  0.1000000000000000E+01  0.9999999999999988E+00  0.9999999999999996E+00  0.1000000000000002E+01  0.1000000000000000E+01  0.9999999999999994E+00  0.1000000000000000E+01  0.9999999999999982E+00  0.9999999999999998E+00  0.9999999999999984E+00  0.1000000000000001E+01  0.9999999999999984E+00  0.9999999999999978E+00  0.1000000000000004E+01  0.1000000000000002E+01  0.9999999999999998E+00  0.9999999999999991E+00  0.9999999999999898E+00
  0.9999999999999986E+00  0.9999999999999993E+00  0.1000000000000000E+01  0.1000000000000000E+01  0.1000000000000001E+01  0.1000000000000000E+01  0.9999999999999984E+00  0.1000000000000002E+01  0.9999999999999996E+00  0.9999999999999978E+00  0.1000000000000002E+01  0.1000000000000001E+01  0.9999999999999971E+00  0.1000000000000000E+01  0.1000000000000000E+01  0.1000000000000001E+01  0.1000000000000001E+01  0.9999999999999996E+00  0.9999999999999989E+00  0.1000000000000000E+01  0.1000000000000001E+01  0.9999999999999998E+00  0.1000000000000000E+01  0.1000000000000002E+01  0.9999999999999999E+00  0.9999999999999987E+00  0.1000000000000002E+01  0.9999999999999973E+00  0.9999999999999997E+00  0.1000000000000002E+01  0.9999999999999851E+00
  0.9999999999999928E+00  0.1000000000000001E+01  0.1000000000000001E+01  0.1000000000000001E+01  0.1000000000000002E+01  0.9999999999999971E+00  0.9999999999999964E+00  0.1000000000000000E+01  0.1000000000000002E+01  0.1000000000000000E+01  0.9999999999999984E+00  0.1000000000000002E+01  0.9999999999999997E+00  0.1000000000000002E+01  0.1000000000000002E+01  0.9999999999999963E+00  0.9999999999999996E+00  0.1000000000000004E+01  0.1000000000000002E+01  0.9999999999999986E+00  0.9999999999999954E+00  0.9999999999999999E+00  0.1000000000000004E+01  0.1000000000000002E+01  0.9999999999999937E+00  0.9999999999999978E+00  0.9999999999999980E+00  0.9999999999999972E+00  0.1000000000000005E+01  0.1000000000000002E+01  0.9999999999999812E+00
  0.9999999999999989E+00  0.1000000000000000E+01  0.1000000000000000E+01  0.9999999999999989E+00  0.1000000000000004E+01  0.9999999999999998E+00  0.9999999999999969E+00  0.1000000000000001E+01  0.1000000000000003E+01  0.9999999999999962E+00  0.9999999999999971E+00  0.1000000000000003E+01  0.9999999999999993E+00  0.1000000000000002E+01  0.9999999999999998E+00  0.9999999999999972E+00  0.9999999999999980E+00  0.1000000000000002E+01  0.1000000000000006E+01  0.9999999999999969E+00  0.9999999999999976E+00  0.1000000000000005E+01  0.1000000000000003E+01  0.9999999999999970E+00  0.9999999999999972E+00  0.1000000000000000E+01  0.9999999999999977E+00  0.1000000000000003E+01  0.1000000000000005E+01  0.1000000000000000E+01  0.1000000000000003E+01
  0.9999999999999932E+00  0.1000000000000001E+01  0.1000000000000001E+01  0.9999999999999991E+00  0.1000000000000000E+01  0.9999999999999980E+00  0.1000000000000001E+01  0.1000000000000002E+01  0.9999999999999988E+00  0.1000000000000004E+01  0.1000000000000002E+01  0.1000000000000001E+01  0.1000000000000001E+01  0.9999999999999961E+00  0.9999999999999960E+00  0.1000000000000000E+01  0.9999999999999988E+00  0.9999999999999991E+00  0.1000000000000001E+01  0.1000000000000001E+01  0.1000000000000004E+01  0.1000000000000002E+01  0.9999999999999954E+00  0.9999999999999953E+00  0.1000000000000004E+01  0.1000000000000004E+01  0.9999999999999946E+00  0.9999999999999947E+00  0.1000000000000006E+01  0.1000000000000006E+01  0.9999999999999970E+00
  0.9999999999999926E+00  0.9999999999999977E+00  0.1000000000000005E+01  0.1000000000000003E+01  0.9999999999999957E+00  0.1000000000000001E+01  0.1000000000000005E+01  0.9999999999999987E+00  0.9999999999999978E+00  0.9999999999999986E+00  0.9999999999999983E+00  0.9999999999999969E+00  0.1000000000000004E+01  0.1000000000000004E+01  0.9999999999999967E+00  0.9999999999999969E+00  0.1000000000000000E+01  0.1000000000000002E+01  0.9999999999999956E+00  0.9999999999999969E+00  0.1000000000000003E+01  0.1000000000000000E+01  0.9999999999999953E+00  0.1000000000000002E+01  0.9999999999999967E+00  0.1000000000000003E+01  0.1000000000000014E+01  0.1000000000000002E+01  0.9999999999999938E+00  0.9999999999999934E+00  0.1000000000000009E+01
  0.9999999999999984E+00  0.1000000000000004E+01  0.9999999999999992E+00  0.9999999999999998E+00  0.9999999999999983E+00  0.9999999999999967E+00  0.1000000000000006E+01  0.1000000000000003E+01  0.9999999999999973E+00  0.1000000000000000E+01  0.9999999999999967E+00  0.9999999999999977E+00  0.9999999999999991E+00  0.9999999999999997E+00  0.1000000000000005E+01  0.1000000000000001E+01  0.9999999999999907E+00  0.1000000000000003E+01  0.1000000000000010E+01  0.9999999999999966E+00  0.1000000000000003E+01  0.1000000000000003E+01  0.9999999999999976E+00  0.9999999999999908E+00  0.9999999999999968E+00  0.1000000000000004E+01  0.9999999999999976E+00  0.1000000000000003E+01  0.1000000000000003E+01  0.9999999999999907E+00  0.9999999999999940E+00
  0.9999999999999951E+00  0.1000000000000002E+01  0.9999999999999980E+00  0.9999999999999978E+00  0.1000000000000005E+01  0.1000000000000002E+01  0.1000000000000001E+01  0.9999999999999909E+00  0.9999999999999981E+00  0.1000000000000008E+01  0.1000000000000005E+01  0.9999999999999946E+00  0.9999999999999875E+00  0.1000000000000008E+01  0.1000000000000009E+01  0.9999999999999947E+00  0.9999999999999947E+00  0.1000000000000002E+01  0.1000000000000001E+01  0.1000000000000002E+01  0.1000000000000002E+01  0.1000000000000002E+01  0.1000000000000002E+01  0.9999999999999943E+00  0.9999999999999944E+00  0.1000000000000008E+01  0.1000000000000002E+01  0.9999999999999875E+00  0.1000000000000002E+01  0.1000000000000002E+01  0.9999999999999873E+00
  0.9999999999999822E+00  0.1000000000000000E+01  0.1000000000000005E+01  0.1000000000000004E+01  0.9999999999999958E+00  0.9999999999999931E+00  0.1000000000000001E+01  0.1000000000000004E+01  0.9999999999999998E+00  0.9999999999999941E+00  0.1000000000000005E+01  0.1000000000000008E+01  0.1000000000000000E+01  0.9999999999999997E+00  0.9999999999999928E+00  0.9999999999999999E+00  0.1000000000000004E+01  0.9999999999999940E+00  0.9999999999999979E+00  0.9999999999999966E+00  0.1000000000000004E+01  0.1000000000000004E+01  0.9999999999999893E+00  0.1000000000000004E+01  0.1000000000000012E+01  0.1000000000000004E+01  0.9999999999999973E+00  0.9999999999999900E+00  0.1000000000000004E+01  0.1000000000000004E+01  0.9999999999999810E+00
  0.1000000000000002E+01  0.9999999999999990E+00  0.1000000000000002E+01  0.1000000000000002E+01  0.1000000000000003E+01  0.1000000000000001E+01  0.9999999999999982E+00  0.1000000000000003E+01  0.9999999999999992E+00  0.1000000000000001E+01  0.9999999999999980E+00  0.9999999999999898E+00  0.1000000000000004E+01  0.1000000000000004E+01  0.9999999999999928E+00  0.1000000000000003E+01  0.1000000000000004E+01  0.1000000000000002E+01  0.1000000000000004E+01  0.9999999999999944E+00  0.1000000000000003E+01  0.1000000000000002E+01  0.9999999999999908E+00  0.9999999999999999E+00  0.1000000000000004E+01  0.1000000000000002E+01  0.1000000000000002E+01  0.9999999999999926E+00  0.9999999999999999E+00  0.1000000000000007E+01  0.9999999999999911E+00
  0.1000000000000007E+01  0.1000000000000002E+01  0.1000000000000002E+01  0.9999999999999998E+00  0.9999999999999999E+00  0.9999999999999984E+00  0.9999999999999944E+00  0.9999999999999982E+00  0.1000000000000004E+01  0.1000000000000004E+01  0.1000000000000002E+01  0.1000000000000000E+01  0.9999999999999978E+00  0.9999999999999984E+00  0.1000000000000004E+01  0.1000000000000003E+01  0.1000000000000002E+01  0.9999999999999962E+00  0.9999999999999911E+00  0.1000000000000005E+01  0.1000000000000000E+01  0.9999999999999983E+00  0.1000000000000002E+01  0.9999999999999998E+00  0.1000000000000002E+01  0.1000000000000002E+01  0.1000000000000000E+01  0.9999999999999929E+00  0.9999999999999999E+00  0.1000000000000000E+01  0.9999999999999896E+00
  0.1000000000000005E+01  0.1000000000000000E+01  0.9999999999999998E+00  0.9999999999999984E+00  0.9999999999999943E+00  0.1000000000000000E+01  0.1000000000000004E+01  0.9999999999999998E+00  0.9999999999999998E+00  0.9999999999999984E+00  0.9999999999999980E+00  0.1000000000000007E+01  0.1000000000000002E+01  0.9999999999999982E+00  0.1000000000000000E+01  0.9999999999999933E+00  0.1000000000000000E+01  0.1000000000000005E+01  0.1000000000000002E+01  0.9999999999999947E+00  0.9999999999999987E+00  0.9999999999999996E+00  0.1000000000000000E+01  0.1000000000000004E+01  0.1000000000000004E+01  0.1000000000000000E+01  0.1000000000000000E+01  0.1000000000000000E+01  0.9999999999999967E+00  0.9999999999999964E+00  0.9999999999999998E+00
  0.1000000000000005E+01  0.1000000000000002E+01  0.9999999999999976E+00  0.1000000000000001E+01  0.1000000000000001E+01  0.9999999999999974E+00  0.1000000000000002E+01  0.1000000000000001E+01  0.9999999999999976E+00  0.1000000000000001E+01  0.1000000000000001E+01  0.9999999999999980E+00  0.1000000000000001E+01  0.9999999999999998E+00  0.9999999999999982E+00  0.9999999999999984E+00  0.1000000000000003E+01  0.9999999999999998E+00  0.9999999999999982E+00  0.9999999999999982E+00  0.1000000000000003E+01  0.1000000000000003E+01  0.9999999999999949E+00  0.9999999999999982E+00  0.1000000000000004E+01  0.1000000000000002E+01  0.9999999999999984E+00  0.9999999999999969E+00  0.1000000000000000E+01  0.1000000000000005E+01  0.1000000000000003E+01
  0.9999999999999926E+00  0.9999999999999993E+00  0.1000000000000002E+01  0.9999999999999992E+00  0.9999999999999989E+00  0.1000000000000002E+01  0.9999999999999993E+00  0.9999999999999993E+00  0.1000000000000002E+01  0.9999999999999990E+00  0.1000000000000002E+01  0.9999999999999991E+00  0.9999999999999989E+00  0.1000000000000006E+01  0.9999999999999991E+00  0.9999999999999961E+00  0.1000000000000002E+01  0.1000000000000002E+01  0.9999999999999991E+00  0.9999999999999993E+00  0.9999999999999992E+00  0.9999999999999992E+00  0.9999999999999993E+00  0.9999999999999991E+00  0.1000000000000002E+01  0.1000000000000002E+01  0.9999999999999960E+00  0.9999999999999961E+00  0.1000000000000002E+01  0.1000000000000002E+01  0.1000000000000002E+01
  0.1000000000000004E+01  0.1000000000000001E+01  0.9999999999999976E+00  0.1000000000000001E+01  0.1000000000000001E+01  0.9999999999999978E+00  0.9999999999999980E+00  0.1000000000000001E+01  0.1000000000000004E+01  0.9999999999999981E+00  0.9999999999999980E+00  0.1000000000000004E+01  0.9999999999999981E+00  0.9999999999999951E+00  0.1000000000000001E+01  0.1000000000000002E+01  0.1000000000000003E+01  0.9999999999999982E+00  0.9999999999999958E+00  0.1000000000000001E+01  0.1000000000000004E+01  0.9999999999999982E+00  0.9999999999999958E+00  0.1000000000000001E+01  0.1000000000000003E+01  0.1000000000000004E+01  0.9999999999999962E+00  0.9999999999999947E+00  0.1000000000000004E+01  0.1000000000000004E+01  0.9999999999999969E+00
  0.9999999999999951E+00  0.9999999999999991E+00  0.9999999999999991E+00  0.1000000000000001E+01  0.1000000000000001E+01  0.9999999999999958E+00  0.9999999999999998E+00  0.1000000000000001E+01  0.9999999999999964E+00  0.1000000000000004E+01  0.1000000000000004E+01  0.1000000000000000E+01  0.1000000000000002E+01  0.9999999999999972E+00  0.9999999999999963E+00  0.1000000000000000E+01  0.1000000000000002E+01  0.1000000000000001E+01  0.1000000000000001E+01  0.9999999999999960E+00  0.1000000000000002E+01  0.1000000000000005E+01  0.9999999999999972E+00  0.9999999999999998E+00  0.9999999999999999E+00  0.9999999999999953E+00  0.1000000000000000E+01  0.1000000000000002E+01  0.9999999999999977E+00  0.1000000000000002E+01  0.1000000000000015E+01
  0.9999999999999889E+00  0.9999999999999989E+00  0.1000000000000004E+01  0.1000000000000004E+01  0.1000000000000000E+01  0.9999999999999999E+00  0.9999999999999974E+00  0.9999999999999981E+00  0.9999999999999998E+00  0.9999999999999998E+00  0.1000000000000000E+01  0.1000000000000000E+01  0.1000000000000000E+01  0.9999999999999982E+00  0.9999999999999978E+00  0.1000000000000000E+01  0.1000000000000004E+01  0.1000000000000004E+01  0.1000000000000000E+01  0.1000000000000000E+01  0.9999999999999994E+00  0.9999999999999987E+00  0.9999999999999986E+00  0.9999999999999993E+00  0.1000000000000000E+01  0.1000000000000000E+01  0.9999999999999998E+00  0.1000000000000000E+01  0.9999999999999982E+00  0.9999999999999973E+00  0.1000000000000016E+01
  0.9999999999999980E+00  0.9999999999999991E+00  0.1000000000000001E+01  0.9999999999999991E+00  0.9999999999999998E+00  0.1000000000000001E+01  0.9999999999999998E+00  0.9999999999999993E+00  0.1000000000000000E+01  0.1000000000000001E+01  0.1000000000000001E+01  0.9999999999999993E+00  0.9999999999999991E+00  0.1000000000000001E+01  0.9999999999999986E+00  0.9999999999999989E+00  0.1000000000000004E+01  0.1000000000000000E+01  0.9999999999999980E+00  0.1000000000000002E+01  0.9999999999999984E+00  0.9999999999999971E+00  0.1000000000000004E+01  0.9999999999999991E+00  0.9999999999999972E+00  0.1000000000000004E+01  0.9999999999999991E+00  0.9999999999999973E+00  0.1000000000000003E+01  0.9999999999999991E+00  0.9999999999999828E+00
  0.9999999999999993E+00  0.9999999999999969E+00  0.1000000000000002E+01  0.1000000000000004E+01  0.9999999999999969E+00  0.9999999999999969E+00  0.1000000000000004E+01  0.9999999999999993E+00  0.9999999999999973E+00  0.1000000000000002E+01  0.9999999999999993E+00  0.9999999999999997E+00  0.1000000000000001E+01  0.1000000000000002E+01  0.9999999999999997E+00  0.9999999999999991E+00  0.1000000000000000E+01  0.9999999999999999E+00  0.1000000000000001E+01  0.9999999999999976E+00  0.9999999999999997E+00  0.1000000000000003E+01  0.9999999999999993E+00  0.9999999999999981E+00  0.1000000000000001E+01  0.1000000000000002E+01  0.9999999999999979E+00  0.9999999999999991E+00  0.1000000000000001E+01  0.1000000000000002E+01  0.9999999999999967E+00
  0.1000000000000000E+01  0.1000000000000000E+01  0.9999999999999992E+00  0.9999999999999997E+00  0.1000000000000000E+01  0.1000000000000000E+01  0.1000000000000000E+01  0.1000000000000000E+01  0.9999999999999998E+00  0.9999999999999997E+00  0.1000000000000000E+01  0.9999999999999996E+00  0.9999999999999996E+00  0.1000000000000000E+01  0.1000000000000001E+01  0.9999999999999999E+00  0.1000000000000000E+01  0.9999999999999998E+00  0.1000000000000000E+01  0.1000000000000000E+01  0.9999999999999989E+00  0.1000000000000000E+01  0.1000000000000000E+01  0.9999999999999999E+00  0.9999999999999990E+00  0.1000000000000000E+01  0.9999999999999998E+00  0.9999999999999994E+00  0.9999999999999999E+00  0.9999999999999998E+00  0.1000000000000000E+01
  0.9999999999999966E+00  0.9999999999999994E+00  0.1000000000000000E+01  0.1000000000000000E+01  0.9999999999999986E+00  0.9999999999999994E+00  0.1000000000000000E+01  0.1000000000000000E+01  0.1000000000000000E+01  0.9999999999999999E+00  0.1000000000000000E+01  0.1000000000000001E+01  0.1000000000000000E+01  0.1000000000000000E+01  0.1000000000000000E+01  0.1000000000000000E+01  0.9999999999999998E+00  0.1000000000000000E+01  0.1000000000000000E+01  0.1000000000000000E+01  0.1000000000000001E+01  0.9999999999999998E+00  0.9999999999999999E+00  0.1000000000000000E+01  0.1000000000000000E+01  0.9999999999999998E+00  0.1000000000000001E+01  0.9999999999999996E+00  0.9999999999999997E+00  0.9999999999999996E+00  0.9999999999999996E+00
  0.9999999999999999E+00  0.9999999999999988E+00  0.1000000000000000E+01  0.1000000000000000E+01  0.9999999999999996E+00  0.9999999999999992E+00  0.9999999999999992E+00  0.1000000000000000E+01  0.1000000000000000E+01  0.1000000000000001E+01  0.9999999999999999E+00  0.1000000000000001E+01  0.9999999999999998E+00  0.9999999999999998E+00  0.1000000000000000E+01  0.9999999999999991E+00  0.9999999999999994E+00  0.1000000000000001E+01  0.9999999999999993E+00  0.9999999999999992E+00  0.1000000000000001E+01  0.9999999999999989E+00  0.9999999999999989E+00  0.1000000000000001E+01  0.1000000000000001E+01  0.1000000000000001E+01  0.1000000000000000E+01  0.9999999999999994E+00  0.9999999999999999E+00  0.1000000000000000E+01  0.1000000000000002E+01
  0.9999999999999940E+00  0.9999999999999991E+00  0.1000000000000000E+01  0.9999999999999987E+00  0.1000000000000000E+01  0.9999999999999984E+00  0.1000000000000000E+01  0.1000000000000002E+01  0.1000000000000002E+01  0.9999999999999996E+00  0.9999999999999983E+00  0.9999999999999996E+00  0.1000000000000000E+01  0.1000000000000001E+01  0.9999999999999977E+00  0.9999999999999952E+00  0.1000000000000002E+01  0.1000000000000002E+01  0.9999999999999961E+00  0.1000000000000001E+01  0.1000000000000004E+01  0.9999999999999969E+00  0.1000000000000001E+01  0.1000000000000001E+01  0.9999999999999987E+00  0.1000000000000001E+01  0.1000000000000001E+01  0.9999999999999998E+00  0.9999999999999964E+00  0.9999999999999998E+00  0.1000000000000010E+01
  0.9999999999999926E+00  0.9999999999999987E+00  0.1000000000000001E+01  0.9999999999999996E+00  0.1000000000000000E+01  0.1000000000000007E+01  0.1000000000000001E+01  0.9999999999999964E+00  0.1000000000000003E+01  0.9999999999999971E+00  0.9999999999999953E+00  0.1000000000000004E+01  0.1000000000000000E+01  0.9999999999999984E+00  0.1000000000000003E+01  0.9999999999999983E+00  0.9999999999999993E+00  0.1000000000000004E+01  0.1000000000000000E+01  0.9999999999999982E+00  0.9999999999999967E+00  0.1000000000000000E+01  0.1000000000000003E+01  0.9999999999999959E+00  0.9999999999999987E+00  0.1000000000000004E+01  0.9999999999999986E+00  0.1000000000000002E+01  0.1000000000000005E+01  0.9999999999999922E+00  0.9999999999999931E+00
  0.9999999999999878E+00  0.9999999999999987E+00  0.1000000000000009E+01  0.1000000000000002E+01  0.9999999999999936E+00  0.9999999999999973E+00  0.1000000000000000E+01  0.1000000000000005E+01  0.1000000000000001E+01  0.9999999999999982E+00  0.9999999999999969E+00  0.1000000000000004E+01  0.1000000000000003E+01  0.9999999999999969E+00  0.1000000000000003E+01  0.1000000000000000E+01  0.9999999999999998E+00  0.1000000000000003E+01  0.9999999999999960E+00  0.9999999999999933E+00  0.1000000000000003E+01  0.1000000000000004E+01  0.9999999999999896E+00  0.9999999999999964E+00  0.1000000000000007E+01  0.1000000000000004E+01  0.9999999999999998E+00  0.1000000000000001E+01  0.9999999999999999E+00  0.9999999999999964E+00  0.1000000000000000E+01
  0.1000000000000004E+01  0.1000000000000013E+01  0.1000000000000000E+01  0.9999999999999910E+00  0.1000000000000004E+01  0.1000000000000000E+01  0.1000000000000001E+01  0.9999999999999956E+00  0.9999999999999996E+00  0.1000000000000008E+01  0.9999999999999957E+00  0.9999999999999958E+00  0.9999999999999997E+00  0.1000000000000001E+01  0.1000000000000004E+01  0.9999999999999993E+00  0.9999999999999916E+00  0.1000000000000004E+01  0.1000000000000008E+01  0.9999999999999957E+00  0.9999999999999967E+00  0.1000000000000004E+01  0.9999999999999998E+00  0.1000000000000001E+01  0.1000000000000000E+01  0.9999999999999999E+00  0.1000000000000005E+01  0.1000000000000005E+01  0.1000000000000000E+01  0.9999999999999959E+00  0.9999999999999873E+00
  0.9999999999999905E+00  0.1000000000000005E+01  0.9999999999999970E+00  0.9999999999999929E+00  0.1000000000000010E+01  0.1000000000000017E+01  0.9999999999999930E+00  0.9999999999999849E+00  0.1000000000000003E+01  0.1000000000000004E+01  0.9999999999999952E+00  0.9999999999999999E+00  0.1000000000000015E+01  0.9999999999999999E+00  0.9999999999999856E+00  0.9999999999999996E+00  0.1000000000000006E+01  0.9999999999999951E+00  0.9999999999999999E+00  0.1000000000000015E+01  0.1000000000000000E+01  0.9999999999999843E+00  0.9999999999999999E+00  0.1000000000000000E+01  0.9999999999999997E+00  0.1000000000000016E+01  0.1000000000000010E+01  0.9999999999999896E+00  0.9999999999999944E+00  0.1000000000000005E+01  0.9999999999999493E+00
  0.1000000000000048E+01  0.1000000000000000E+01  0.9999999999999972E+00  0.1000000000000000E+01  0.9999999999999948E+00  0.1000000000000006E+01  0.1000000000000003E+01  0.9999999999999976E+00  0.9999999999999916E+00  0.1000000000000003E+01  0.1000000000000003E+01  0.9999999999999974E+00  0.9999999999999973E+00  0.1000000000000005E+01  0.1000000000000000E+01  0.1000000000000000E+01  0.1000000000000006E+01  0.9999999999999944E+00  0.9999999999999972E+00  0.1000000000000003E+01  0.9999999999999938E+00  0.9999999999999942E+00  0.1000000000000014E+01  0.9999999999999974E+00  0.9999999999999976E+00  0.1000000000000005E+01  0.9999999999999994E+00  0.9999999999999940E+00  0.1000000000000000E+01  0.1000000000000011E+01  0.9999999999999829E+00
  0.9999999999999447E+00  0.9999999999999967E+00  0.1000000000000006E+01  0.1000000000000003E+01  0.1000000000000000E+01  0.1000000000000003E+01  0.1000000000000006E+01  0.9999999999999907E+00  0.9999999999999972E+00  0.1000000000000003E+01  0.9999999999999940E+00  0.1000000000000000E+01  0.1000000000000003E+01  0.1000000000000006E+01  0.9999999999999967E+00  0.1000000000000000E+01  0.1000000000000003E+01  0.9999999999999876E+00  0.1000000000000006E+01  0.1000000000000004E+01  0.9999999999999906E+00  0.1000000000000000E+01  0.1000000000000010E+01  0.1000000000000009E+01  0.9999999999999877E+00  0.9999999999999936E+00  0.1000000000000009E+01  0.9999999999999998E+00  0.9999999999999907E+00  0.1000000000000009E+01  0.1000000000000012E+01
  0.9999999999999669E+00  0.9999999999999937E+00  0.9999999999999999E+00  0.9999999999999901E+00  0.9999999999999998E+00  0.1000000000000014E+01  0.1000000000000005E+01  0.9999999999999998E+00  0.9999999999999933E+00  0.1000000000000005E+01  0.1000000000000012E+01  0.9999999999999934E+00  0.9999999999999851E+00  0.9999999999999917E+00  0.9999999999999936E+00  0.1000000000000000E+01  0.1000000000000013E+01  0.1000000000000010E+01  0.1000000000000004E+01  0.1000000000000000E+01  0.1000000000000000E+01  0.1000000000000000E+01  0.9999999999999885E+00  0.9999999999999931E+00  0.1000000000000002E+01  0.9999999999999983E+00  0.1000000000000006E+01  0.1000000000000005E+01  0.9999999999999967E+00  0.1000000000000007E+01  0.9999999999999930E+00
  0.1000000000000024E+01  0.9999999999999896E+00  0.9999999999999966E+00  0.1000000000000004E+01  0.1000000000000004E+01  0.1000000000000009E+01  0.9999999999999878E+00  0.9999999999999966E+00  0.1000000000000010E+01  0.1000000000000010E+01  0.9999999999999964E+00  0.9999999999999895E+00  0.9999999999999956E+00  0.1000000000000010E+01  0.9999999999999956E+00  0.9999999999999818E+00  0.1000000000000003E+01  0.1000000000000017E+01  0.1000000000000010E+01  0.9999999999999892E+00  0.9999999999999957E+00  0.1000000000000010E+01  0.9999999999999957E+00  0.9999999999999956E+00  0.9999999999999968E+00  0.9999999999999966E+00  0.1000000000000010E+01  0.1000000000000010E+01  0.9999999999999956E+00  0.9999999999999966E+00  0.1000000000000025E+01
  0.9999999999999840E+00  0.9999999999999978E+00  0.9999999999999978E+00  0.9999999999999980E+00  0.1000000000000005E+01  0.9999999999999982E+00  0.9999999999999981E+00  0.1000000000000005E+01  0.9999999999999980E+00  0.9999999999999974E+00  0.1000000000000005E+01  0.9999999999999978E+00  0.9999999999999983E+00  0.9999999999999982E+00  0.9999999999999976E+00  0.1000000000000005E+01  0.9999999999999980E+00  0.1000000000000005E+01  0.9999999999999979E+00  0.1000000000000005E+01  0.9999999999999977E+00  0.9999999999999766E+00  0.1000000000000005E+01  0.1000000000000019E+01  0.1000000000000005E+01  0.1000000000000005E+01  0.1000000000000005E+01  0.9999999999999770E+00  0.9999999999999905E+00  0.1000000000000005E+01  0.1000000000000020E+01
  0.9999999999999947E+00  0.9999999999999963E+00  0.1000000000000006E+01  0.1000000000000004E+01  0.9999999999999946E+00  0.1000000000000002E+01  0.1000000000000002E+01  0.9999999999999892E+00  0.1000000000000011E+01  0.1000000000000011E+01  0.9999999999999909E+00  0.1000000000000004E+01  0.1000000000000004E+01  0.9999999999999893E+00  0.9999999999999962E+00  0.9999999999999981E+00  0.9999999999999946E+00  0.1000000000000009E+01  0.1000000000000002E+01  0.9999999999999963E+00  0.1000000000000004E+01  0.1000000000000002E+01  0.1000000000000002E+01  0.1000000000000002E+01  0.9999999999999982E+00  0.9999999999999982E+00  0.1000000000000004E+01  0.9999999999999911E+00  0.9999999999999981E+00  0.1000000000000009E+01  0.9999999999999569E+00
  0.9999999999999787E+00  0.9999999999999929E+00  0.1000000000000004E+01  0.1000000000000000E+01  0.9999999999999967E+00  0.1000000000000000E+01  0.1000000000000004E+01  0.1000000000000000E+01  0.9999999999999927E+00  0.1000000000000007E+01  0.1000000000000004E+01  0.9999999999999896E+00  0.1000000000000000E+01  0.1000000000000007E+01  0.9999999999999963E+00  0.9999999999999964E+00  0.1000000000000014E+01  0.9999999999999964E+00  0.9999999999999893E+00  0.1000000000000007E+01  0.1000000000000000E+01  0.1000000000000004E+01  0.1000000000000007E+01  0.9999999999999893E+00  0.9999999999999929E+00  0.1000000000000004E+01  0.1000000000000004E+01  0.1000000000000000E+01  0.1000000000000007E+01  0.9999999999999929E+00  0.9999999999999576E+00
  0.9999999999999898E+00  0.9999999999999964E+00  0.9999999999999998E+00  0.1000000000000004E+01  0.9999999999999999E+00  0.1000000000000000E+01  0.9999999999999964E+00  0.1000000000000004E+01  0.1000000000000000E+01  0.9999999999999930E+00  0.1000000000000004E+01  0.1000000000000003E+01  0.9999999999999998E+00  0.1000000000000000E+01  0.1000000000000000E+01  0.1000000000000003E+01  0.1000000000000004E+01  0.1000000000000000E+01  0.1000000000000000E+01  0.1000000000000000E+01  0.9999999999999897E+00  0.9999999999999966E+00  0.1000000000000007E+01  0.1000000000000007E+01  0.1000000000000000E+01  0.1000000000000000E+01  0.1000000000000000E+01  0.1000000000000000E+01  0.1000000000000000E+01  0.1000000000000000E+01  0.1000000000000007E+01
  0.1000000000000006E+01  0.1000000000000010E+01  0.1000000000000003E+01  0.9999999999999934E+00  0.9999999999999933E+00  0.1000000000000000E+01  0.1000000000000003E+01  0.1000000000000003E+01  0.1000000000000000E+01  0.9999999999999934E+00  0.1000000000000003E+01  0.1000000000000003E+01  0.9999999999999933E+00  0.9999999999999997E+00  0.1000000000000004E+01  0.1000000000000003E+01  0.1000000000000000E+01  0.9999999999999938E+00  0.9999999999999936E+00  0.1000000000000003E+01  0.1000000000000010E+01  0.9999999999999998E+00  0.9999999999999934E+00  0.9999999999999933E+00  0.1000000000000004E+01  0.1000000000000010E+01  0.1000000000000000E+01  0.9999999999999968E+00  0.1000000000000004E+01  0.9999999999999936E+00  0.9999999999999871E+00
  0.9999999999999939E+00  0.9999999999999983E+00  0.9999999999999990E+00  0.9999999999999987E+00  0.9999999999999986E+00  0.1000000000000004E+01  0.1000000000000005E+01  0.9999999999999925E+00  0.9999999999999988E+00  0.1000000000000004E+01  0.9999999999999984E+00  0.9999999999999983E+00  0.1000000000000004E+01  0.9999999999999987E+00  0.9999999999999984E+00  0.1000000000000004E+01  0.9999999999999925E+00  0.9999999999999984E+00  0.1000000000000005E+01  0.1000000000000004E+01  0.9999999999999986E+00  0.9999999999999927E+00  0.1000000000000005E+01  0.9999999999999983E+00  0.9999999999999983E+00  0.1000000000000004E+01  0.1000000000000005E+01  0.9999999999999984E+00  0.9999999999999911E+00  0.1000000000000004E+01  0.9999999999999951E+00
  0.1000000000000026E+01  0.9999999999999958E+00  0.9999999999999953E+00  0.1000000000000006E+01  0.1000000000000007E+01  0.9999999999999960E+00  0.9999999999999950E+00  0.1000000000000001E+01  0.1000000000000001E+01  0.1000000000000001E+01  0.1000000000000001E+01  0.1000000000000001E+01  0.9999999999999954E+00  0.1000000000000002E+01  0.1000000000000001E+01  0.1000000000000001E+01  0.1000000000000000E+01  0.9999999999999941E+00  0.1000000000000001E+01  0.1000000000000001E+01  0.9999999999999954E+00  0.1000000000000001E+01  0.1000000000000006E+01  0.1000000000000001E+01  0.9999999999999961E+00  0.1000000000000001E+01  0.1000000000000002E+01  0.9999999999999962E+00  0.9999999999999997E+00  0.1000000000000006E+01  0.9999999999999866E+00
  0.1000000000000020E+01  0.1000000000000000E+01  0.9999999999999996E+00  0.9999999999999952E+00  0.9999999999999953E+00  0.1000000000000000E+01  0.1000000000000002E+01  0.1000000000000005E+01  0.9999999999999979E+00  0.9999999999999998E+00  0.1000000000000002E+01  0.1000000000000000E+01  0.1000000000000000E+01  0.9999999999999996E+00  0.1000000000000000E+01  0.1000000000000003E+01  0.1000000000000000E+01  0.1000000000000000E+01  0.1000000000000005E+01  0.1000000000000000E+01  0.9999999999999998E+00  0.9999999999999996E+00  0.9999999999999950E+00  0.9999999999999950E+00  0.9999999999999998E+00  0.1000000000000000E+01  0.1000000000000000E+01  0.1000000000000005E+01  0.9999999999999951E+00  0.9999999999999951E+00  0.1000000000000031E+01
  0.9999999999999898E+00  0.1000000000000002E+01  0.9999999999999979E+00  0.9999999999999980E+00  0.1000000000000002E+01  0.1000000000000002E+01  0.9999999999999997E+00  0.9999999999999940E+00  0.1000000000000000E+01  0.1000000000000004E+01  0.1000000000000000E+01  0.9999999999999998E+00  0.1000000000000004E+01  0.9999999999999960E+00  0.9999999999999918E+00  0.1000000000000000E+01  0.1000000000000004E+01  0.1000000000000004E+01  0.1000000000000000E+01  0.1000000000000004E+01  0.1000000000000004E+01  0.1000000000000000E+01  0.1000000000000000E+01  0.9999999999999958E+00  0.9999999999999960E+00  0.9999999999999961E+00  0.9999999999999959E+00  0.1000000000000004E+01  0.1000000000000004E+01  0.9999999999999999E+00  0.1000000000000008E+01
  0.1000000000000020E+01  0.1000000000000001E+01  0.9999999999999987E+00  0.9999999999999994E+00  0.9999999999999984E+00  0.9999999999999999E+00  0.9999999999999967E+00  0.1000000000000000E+01  0.1000000000000004E+01  0.9999999999999972E+00  0.1000000000000000E+01  0.1000000000000004E+01  0.9999999999999984E+00  0.1000000000000002E+01  0.9999999999999996E+00  0.1000000000000001E+01  0.9999999999999983E+00  0.9999999999999963E+00  0.9999999999999980E+00  0.1000000000000002E+01  0.1000000000000006E+01  0.9999999999999970E+00  0.9999999999999984E+00  0.1000000000000000E+01  0.9999999999999971E+00  0.1000000000000001E+01  0.9999999999999979E+00  0.1000000000000004E+01  0.1000000000000000E+01  0.9999999999999982E+00  0.1000000000000023E+01
  0.1000000000000017E+01  0.1000000000000000E+01  0.9999999999999987E+00  0.1000000000000000E+01  0.1000000000000000E+01  0.1000000000000003E+01  0.9999999999999991E+00  0.9999999999999968E+00  0.9999999999999978E+00  0.9999999999999998E+00  0.1000000000000000E+01  0.9999999999999993E+00  0.1000000000000005E+01  0.1000000000000002E+01  0.9999999999999991E+00  0.9999999999999987E+00  0.1000000000000001E+01  0.1000000000000004E+01  0.9999999999999976E+00  0.9999999999999978E+00  0.1000000000000001E+01  0.9999999999999992E+00  0.9999999999999973E+00  0.9999999999999992E+00  0.1000000000000004E+01  0.1000000000000002E+01  0.1000000000000003E+01  0.9999999999999959E+00  0.9999999999999988E+00  0.1000000000000005E+01  0.9999999999999940E+00
  0.1000000000000001E+01  0.9999999999999958E+00  0.1000000000000001E+01  0.1000000000000001E+01  0.9999999999999987E+00  0.9999999999999982E+00  0.1000000000000001E+01  0.1000000000000002E+01  0.9999999999999980E+00  0.9999999999999978E+00  0.1000000000000002E+01  0.1000000000000002E+01  0.9999999999999988E+00  0.1000000000000000E+01  0.9999999999999987E+00  0.1000000000000002E+01  0.1000000000000002E+01  0.9999999999999992E+00  0.9999999999999996E+00  0.1000000000000002E+01  0.1000000000000001E+01  0.1000000000000001E+01  0.9999999999999997E+00  0.9999999999999959E+00  0.1000000000000002E+01  0.1000000000000002E+01  0.1000000000000002E+01  0.9999999999999994E+00  0.9999999999999979E+00  0.1000000000000002E+01  0.9999999999999939E+00
  0.1000000000000000E+01  0.9999999999999990E+00  0.1000000000000000E+01  0.1000000000000001E+01  0.9999999999999994E+00  0.1000000000000001E+01  0.9999999999999992E+00  0.1000000000000001E+01  0.1000000000000000E+01  0.9999999999999979E+00  0.9999999999999979E+00  0.1000000000000002E+01  0.9999999999999994E+00  0.1000000000000000E+01  0.1000000000000000E+01  0.9999999999999991E+00  0.9999999999999999E+00  0.9999999999999997E+00  0.9999999999999992E+00  0.1000000000000000E+01  0.1000000000000001E+01  0.9999999999999996E+00  0.9999999999999999E+00  0.1000000000000000E+01  0.9999999999999993E+00  0.1000000000000001E+01  0.1000000000000001E+01  0.1000000000000001E+01  0.9999999999999993E+00  0.9999999999999996E+00  0.1000000000000000E+01
  0.9999999999999989E+00  0.1000000000000001E+01  0.1000000000000002E+01  0.1000000000000000E+01  0.9999999999999991E+00  0.1000000000000000E+01  0.1000000000000000E+01  0.9999999999999997E+00  0.1000000000000001E+01  0.1000000000000000E+01  0.9999999999999997E+00  0.1000000000000000E+01  0.9999999999999986E+00  0.9999999999999989E+00  0.9999999999999996E+00  0.1000000000000000E+01  0.1000000000000000E+01  0.9999999999999990E+00  0.9999999999999998E+00  0.1000000000000000E+01  0.1000000000000000E+01  0.9999999999999994E+00  0.9999999999999988E+00  0.1000000000000000E+01  0.9999999999999996E+00  0.9999999999999998E+00  0.9999999999999994E+00  0.9999999999999994E+00  0.1000000000000001E+01  0.1000000000000000E+01  0.9999999999999963E+00
  0.9999999999999990E+00  0.9999999999999993E+00  0.1000000000000000E+01  0.9999999999999973E+00  0.9999999999999963E+00  0.9999999999999990E+00  0.1000000000000002E+01  0.1000000000000002E+01  0.1000000000000002E+01  0.9999999999999992E+00  0.9999999999999993E+00  0.9999999999999989E+00  0.9999999999999949E+00  0.1000000000000000E+01  0.1000000000000001E+01  0.1000000000000000E+01  0.1000000000000002E+01  0.1000000000000002E+01  0.1000000000000001E+01  0.9999999999999996E+00  0.9999999999999989E+00  0.9999999999999986E+00  0.9999999999999989E+00  0.9999999999999981E+00  0.9999999999999987E+00  0.1000000000000001E+01  0.1000000000000001E+01  0.9999999999999987E+00  0.9999999999999987E+00  0.1000000000000002E+01  0.1000000000000013E+01
  0.9999999999999823E+00  0.9999999999999951E+00  0.1000000000000002E+01  0.1000000000000002E+01  0.9999999999999996E+00  0.1000000000000003E+01  0.1000000000000002E+01  0.9999999999999994E+00  0.9999999999999972E+00  0.9999999999999947E+00  0.1000000000000000E+01  0.9999999999999976E+00  0.9999999999999950E+00  0.1000000000000005E+01  0.1000000000000010E+01  0.1000000000000005E+01  0.1000000000000000E+01  0.9999999999999953E+00  0.9999999999999973E+00  0.9999999999999996E+00  0.9999999999999951E+00  0.9999999999999980E+00  0.9999999999999949E+00  0.9999999999999998E+00  0.1000000000000008E+01  0.1000000000000003E+01  0.1000000000000003E+01  0.1000000000000002E+01  0.9999999999999950E+00  0.9999999999999949E+00  0.1000000000000002E+01
  0.1000000000000019E+01  0.1000000000000000E+01  0.9999999999999973E+00  0.1000000000000000E+01  0.1000000000000004E+01  0.1000000000000003E+01  0.9999999999999933E+00  0.1000000000000000E+01  0.1000000000000006E+01  0.1000000000000006E+01  0.1000000000000004E+01  0.9999999999999931E+00  0.9999999999999969E+00  0.1000000000000004E+01  0.1000000000000000E+01  0.9999999999999996E+00  0.1000000000000003E+01  0.9999999999999991E+00  0.9999999999999971E+00  0.9999999999999998E+00  0.1000000000000006E+01  0.9999999999999964E+00  0.9999999999999939E+00  0.1000000000000004E+01  0.1000000000000007E+01  0.1000000000000006E+01  0.9999999999999865E+00  0.9999999999999898E+00  0.1000000000000003E+01  0.9999999999999999E+00  0.1000000000000010E+01
  0.9999999999999800E+00  0.1000000000000004E+01  0.1000000000000005E+01  0.1000000000000004E+01  0.9999999999999925E+00  0.9999999999999920E+00  0.1000000000000008E+01  0.1000000000000000E+01  0.9999999999999962E+00  0.9999999999999959E+00  0.9999999999999957E+00  0.9999999999999957E+00  0.1000000000000000E+01  0.1000000000000017E+01  0.1000000000000008E+01  0.9999999999999918E+00  0.9999999999999918E+00  0.1000000000000009E+01  0.1000000000000005E+01  0.9999999999999878E+00  0.9999999999999915E+00  0.1000000000000008E+01  0.1000000000000009E+01  0.9999999999999916E+00  0.9999999999999911E+00  0.9999999999999996E+00  0.1000000000000008E+01  0.1000000000000005E+01  0.9999999999999916E+00  0.9999999999999922E+00  0.1000000000000034E+01
  0.9999999999999988E+00  0.1000000000000005E+01  0.9999999999999940E+00  0.9999999999999989E+00  0.1000000000000013E+01  0.1000000000000000E+01  0.9999999999999891E+00  0.9999999999999979E+00  0.1000000000000005E+01  0.1000000000000000E+01  0.1000000000000001E+01  0.1000000000000002E+01  0.1000000000000005E+01  0.1000000000000005E+01  0.9999999999999943E+00  0.9999999999999942E+00  0.1000000000000015E+01  0.1000000000000012E+01  0.9999999999999895E+00  0.9999999999999870E+00  0.9999999999999999E+00  0.1000000000000017E+01  0.9999999999999958E+00  0.9999999999999803E+00  0.1000000000000001E+01  0.1000000000000022E+01  0.1000000000000001E+01  0.9999999999999863E+00  0.1000000000000009E+01  0.1000000000000013E+01  0.9999999999999979E+00
