1,2,3,4,5,6,7,8,9,10,11,12,13,14,15,16,17,18,19,20,21,22,23,24,25,26,27,28,29,30,31,32,33,34,35,36,37,38,39,40,41,42,43,44,45,46,47,48,49,50,51,52,53,54,55,56,57,58,59,60,61
-0.32682,-0.49897,-0.69164,-0.89676,-1.1056,-1.3089,-1.4974,-1.662,-1.7937,-1.8844,-1.9269,-1.9148,-1.8435,-1.7095,-1.5111,-1.2484,-0.92331,-0.53941,-0.1022,0.38112,0.90174,1.4494,2.0127,2.579,3.1352,3.6675,4.1621,4.6053,4.984,5.286,5.5,5.6164,5.6272,5.5264,5.3102,4.9773,4.5286,3.9677,3.3008,2.5365,1.6859,0.76224,-0.219,-1.2406,-2.284,-3.3292,-4.3556,-5.3421,-6.2678,-7.1122,-7.8557,-8.48,-8.9686,-9.3071,-9.4838,-9.4895,-9.3183,-8.9676,-8.438,-7.734,-6.8633
-0.3704,-0.54886,-0.74697,-0.95654,-1.1687,-1.3743,-1.564,-1.7285,-1.8589,-1.9473,-1.9862,-1.9695,-1.8926,-1.7522,-1.5467,-1.2762,-0.94275,-0.5502,-0.10414,0.38805,0.91743,1.4736,2.0449,2.6187,3.1816,3.7199,4.2195,4.6667,5.0484,5.3521,5.5667,5.6824,5.6915,5.5878,5.3676,5.0297,4.575,4.0074,3.333,2.5607,1.7016,0.76917,-0.22094,-1.2514,-2.3034,-3.3569,-4.3911,-5.3849,-6.317,-7.167,-7.915,-8.5428,-9.0338,-9.3736,-9.5504,-9.555,-9.3815,-9.0274,-8.4934,-7.7839,-6.9068
-0.41397,-0.59876,-0.80231,-1.0163,-1.2319,-1.4398,-1.6305,-1.7949,-1.9242,-2.0101,-2.0455,-2.0243,-1.9418,-1.795,-1.5822,-1.3039,-0.96219,-0.56098,-0.10609,0.39498,0.93311,1.4977,2.0771,2.6584,3.2281,3.7723,4.2769,4.7281,5.1127,5.4181,5.6333,5.7485,5.7558,5.6492,5.425,5.0821,4.6215,4.0471,3.3652,2.5848,1.7172,0.7761,-0.22289,-1.2622,-2.3229,-3.3847,-4.4267,-5.4276,-6.3662,-7.2217,-7.9743,-8.6056,-9.099,-9.4401,-9.6169,-9.6204,-9.4447,-9.0872,-8.5487,-7.8338,-6.9504
-0.45755,-0.64866,-0.85764,-1.0761,-1.2951,-1.5052,-1.6971,-1.8614,-1.9894,-2.0729,-2.1047,-2.079,-1.991,-1.8377,-1.6178,-1.3317,-0.98163,-0.57177,-0.10804,0.40191,0.94879,1.5219,2.1093,2.6981,3.2745,3.8247,4.3343,4.7895,5.177,5.4842,5.7,5.8146,5.8201,5.7106,5.4824,5.1345,4.6679,4.0868,3.3974,2.609,1.7329,0.78303,-0.22484,-1.273,-2.3423,-3.4124,-4.4622,-5.4703,-6.4153,-7.2764,-8.0336,-8.6684,-9.1643,-9.5066,-9.6835,-9.6859,-9.5079,-9.1469,-8.604,-7.8837,-6.994
-0.50113,-0.69855,-0.91297,-1.1359,-1.3583,-1.5707,-1.7637,-1.9279,-2.0546,-2.1357,-2.164,-2.1337,-2.0401,-1.8804,-1.6533,-1.3594,-1.0011,-0.58256,-0.10998,0.40884,0.96447,1.5461,2.1415,2.7377,3.321,3.877,4.3917,4.8509,5.2413,5.5503,5.7667,5.8807,5.8844,5.772,5.5399,5.1869,4.7144,4.1264,3.4296,2.6331,1.7486,0.78996,-0.22678,-1.2838,-2.3617,-3.4401,-4.4978,-5.5131,-6.4645,-7.3311,-8.0929,-8.7313,-9.2295,-9.5731,-9.75,-9.7513,-9.571,-9.2067,-8.6594,-7.9336,-7.0376
-0.5447,-0.74845,-0.9683,-1.1957,-1.4214,-1.6361,-1.8302,-1.9944,-2.1198,-2.1985,-2.2233,-2.1884,-2.0893,-1.9232,-1.6889,-1.3872,-1.0205,-0.59335,-0.11193,0.41577,0.98016,1.5702,2.1737,2.7774,3.3674,3.9294,4.4491,4.9123,5.3056,5.6164,5.8333,5.9467,5.9487,5.8334,5.5973,5.2392,4.7608,4.1661,3.4618,2.6573,1.7643,0.79689,-0.22873,-1.2946,-2.3812,-3.4679,-4.5333,-5.5558,-6.5136,-7.3858,-8.1522,-8.7941,-9.2947,-9.6395,-9.8166,-9.8167,-9.6342,-9.2665,-8.7147,-7.9835,-7.0811
-0.58828,-0.79835,-1.0236,-1.2555,-1.4846,-1.7016,-1.8968,-2.0609,-2.1851,-2.2613,-2.2826,-2.2431,-2.1384,-1.9659,-1.7244,-1.4149,-1.0399,-0.60414,-0.11388,0.4227,0.99584,1.5944,2.2059,2.8171,3.4139,3.9818,4.5065,4.9737,5.3699,5.6824,5.9,6.0128,6.013,5.8948,5.6547,5.2916,4.8073,4.2058,3.494,2.6814,1.78,0.80381,-0.23068,-1.3054,-2.4006,-3.4956,-4.5689,-5.5985,-6.5628,-7.4405,-8.2114,-8.8569,-9.36,-9.706,-9.8831,-9.8822,-9.6974,-9.3263,-8.77,-8.0334,-7.1247
-0.63186,-0.84824,-1.079,-1.3152,-1.5478,-1.767,-1.9633,-2.1273,-2.2503,-2.3241,-2.3419,-2.2978,-2.1876,-2.0086,-1.76,-1.4426,-1.0594,-0.61492,-0.11582,0.42963,1.0115,1.6185,2.2381,2.8568,3.4603,4.0342,4.5639,5.0351,5.4342,5.7485,5.9667,6.0789,6.0773,5.9562,5.7121,5.344,4.8537,4.2455,3.5262,2.7056,1.7956,0.81074,-0.23262,-1.3162,-2.4201,-3.5234,-4.6045,-5.6413,-6.612,-7.4952,-8.2707,-8.9197,-9.4252,-9.7725,-9.9497,-9.9476,-9.7606,-9.3861,-8.8254,-8.0833,-7.1683
-0.67543,-0.89814,-1.1343,-1.375,-1.611,-1.8325,-2.0299,-2.1938,-2.3155,-2.387,-2.4012,-2.3525,-2.2368,-2.0514,-1.7956,-1.4704,-1.0788,-0.62571,-0.11777,0.43655,1.0272,1.6427,2.2703,2.8964,3.5068,4.0866,4.6213,5.0965,5.4985,5.8146,6.0333,6.145,6.1416,6.0176,5.7695,5.3964,4.9002,4.2851,3.5584,2.7298,1.8113,0.81767,-0.23457,-1.3269,-2.4395,-3.5511,-4.64,-5.684,-6.6611,-7.5499,-8.33,-8.9825,-9.4904,-9.839,-10.016,-10.013,-9.8237,-9.4459,-8.8807,-8.1332,-7.2119
-0.71901,-0.94804,-1.1896,-1.4348,-1.6741,-1.8979,-2.0964,-2.2603,-2.3808,-2.4498,-2.4605,-2.4072,-2.2859,-2.0941,-1.8311,-1.4981,-1.0983,-0.6365,-0.11972,0.44348,1.0429,1.6668,2.3025,2.9361,3.5532,4.139,4.6787,5.1579,5.5628,5.8807,6.1,6.211,6.2059,6.079,5.8269,5.4488,4.9466,4.3248,3.5906,2.7539,1.827,0.8246,-0.23652,-1.3377,-2.4589,-3.5789,-4.6756,-5.7267,-6.7103,-7.6046,-8.3893,-9.0453,-9.5556,-9.9055,-10.083,-10.079,-9.8869,-9.5056,-8.936,-8.1831,-7.2554
-0.76258,-0.99793,-1.245,-1.4946,-1.7373,-1.9633,-2.163,-2.3268,-2.446,-2.5126,-2.5198,-2.4619,-2.3351,-2.1368,-1.8667,-1.5259,-1.1177,-0.64729,-0.12166,0.45041,1.0586,1.691,2.3347,2.9758,3.5997,4.1914,4.7361,5.2193,5.6272,5.9467,6.1667,6.2771,6.2703,6.1404,5.8843,5.5012,4.9931,4.3645,3.6228,2.7781,1.8427,0.83153,-0.23846,-1.3485,-2.4784,-3.6066,-4.7111,-5.7695,-6.7594,-7.6593,-8.4486,-9.1081,-9.6209,-9.9719,-10.149,-10.144,-9.9501,-9.5654,-8.9914,-8.233,-7.299
-0.80616,-1.0478,-1.3003,-1.5544,-1.8005,-2.0288,-2.2295,-2.3933,-2.5112,-2.5754,-2.579,-2.5166,-2.3842,-2.1796,-1.9022,-1.5536,-1.1371,-0.65808,-0.12361,0.45734,1.0743,1.7152,2.3669,3.0155,3.6461,4.2438,4.7936,5.2807,5.6915,6.0128,6.2333,6.3432,6.3346,6.2018,5.9417,5.5536,5.0395,4.4042,3.655,2.8022,1.8584,0.83846,-0.24041,-1.3593,-2.4978,-3.6343,-4.7467,-5.8122,-6.8086,-7.7141,-8.5079,-9.171,-9.6861,-10.038,-10.216,-10.209,-10.013,-9.6252,-9.0467,-8.2829,-7.3426
-0.84974,-1.0977,-1.3556,-1.6142,-1.8637,-2.0942,-2.2961,-2.4597,-2.5764,-2.6382,-2.6383,-2.5714,-2.4334,-2.2223,-1.9378,-1.5814,-1.1566,-0.66887,-0.12556,0.46427,1.0899,1.7393,2.3991,3.0551,3.6925,4.2962,4.851,5.3422,5.7558,6.0789,6.3,6.4093,6.3989,6.2632,5.9991,5.606,5.086,4.4439,3.6872,2.8264,1.8741,0.84539,-0.24236,-1.3701,-2.5172,-3.6621,-4.7822,-5.855,-6.8578,-7.7688,-8.5672,-9.2338,-9.7513,-10.105,-10.282,-10.275,-10.076,-9.685,-9.102,-8.3327,-7.3862
-0.89331,-1.1476,-1.411,-1.6739,-1.9268,-2.1597,-2.3626,-2.5262,-2.6417,-2.701,-2.6976,-2.6261,-2.4826,-2.2651,-1.9733,-1.6091,-1.176,-0.67965,-0.1275,0.4712,1.1056,1.7635,2.4313,3.0948,3.739,4.3486,4.9084,5.4036,5.8201,6.145,6.3667,6.4753,6.4632,6.3246,6.0565,5.6584,5.1324,4.4835,3.7195,2.8505,1.8897,0.85232,-0.2443,-1.3809,-2.5367,-3.6898,-4.8178,-5.8977,-6.9069,-7.8235,-8.6265,-9.2966,-9.8165,-10.171,-10.349,-10.34,-10.14,-9.7448,-9.1573,-8.3826,-7.4297
-0.93689,-1.1975,-1.4663,-1.7337,-1.99,-2.2251,-2.4292,-2.5927,-2.7069,-2.7639,-2.7569,-2.6808,-2.5317,-2.3078,-2.0089,-1.6368,-1.1954,-0.69044,-0.12945,0.47813,1.1213,1.7876,2.4635,3.1345,3.7854,4.401,4.9658,5.465,5.8844,6.211,6.4333,6.5414,6.5275,6.386,6.1139,5.7108,5.1789,4.5232,3.7517,2.8747,1.9054,0.85925,-0.24625,-1.3917,-2.5561,-3.7176,-4.8533,-5.9404,-6.9561,-7.8782,-8.6858,-9.3594,-9.8818,-10.238,-10.416,-10.406,-10.203,-9.8046,-9.2127,-8.4325,-7.4733
-0.98047,-1.2474,-1.5216,-1.7935,-2.0532,-2.2906,-2.4957,-2.6592,-2.7721,-2.8267,-2.8162,-2.7355,-2.5809,-2.3505,-2.0444,-1.6646,-1.2149,-0.70123,-0.1314,0.48506,1.137,1.8118,2.4957,3.1742,3.8319,4.4534,5.0232,5.5264,5.9487,6.2771,6.5,6.6075,6.5918,6.4474,6.1713,5.7632,5.2253,4.5629,3.7839,2.8989,1.9211,0.86618,-0.2482,-1.4025,-2.5756,-3.7453,-4.8889,-5.9832,-7.0052,-7.9329,-8.745,-9.4222,-9.947,-10.304,-10.482,-10.471,-10.266,-9.8643,-9.268,-8.4824,-7.5169
-1.024,-1.2973,-1.5769,-1.8533,-2.1164,-2.356,-2.5623,-2.7257,-2.8373,-2.8895,-2.8755,-2.7902,-2.63,-2.3933,-2.08,-1.6923,-1.2343,-0.71202,-0.13334,0.49199,1.1527,1.8359,2.5279,3.2139,3.8783,4.5058,5.0806,5.5878,6.013,6.3432,6.5667,6.6736,6.6561,6.5088,6.2287,5.8156,5.2717,4.6026,3.8161,2.923,1.9368,0.87311,-0.25014,-1.4132,-2.595,-3.7731,-4.9245,-6.0259,-7.0544,-7.9876,-8.8043,-9.485,-10.012,-10.371,-10.549,-10.537,-10.329,-9.9241,-9.3233,-8.5323,-7.5605
-1.0676,-1.3472,-1.6323,-1.9131,-2.1795,-2.4215,-2.6288,-2.7921,-2.9026,-2.9523,-2.9348,-2.8449,-2.6792,-2.436,-2.1156,-1.7201,-1.2538,-0.72281,-0.13529,0.49892,1.1683,1.8601,2.5601,3.2535,3.9248,4.5581,5.138,5.6492,6.0773,6.4093,6.6333,6.7396,6.7204,6.5702,6.2862,5.868,5.3182,4.6422,3.8483,2.9472,1.9525,0.88004,-0.25209,-1.424,-2.6144,-3.8008,-4.96,-6.0686,-7.1036,-8.0423,-8.8636,-9.5479,-10.077,-10.437,-10.615,-10.602,-10.392,-9.9839,-9.3787,-8.5822,-7.6041
-1.1112,-1.3971,-1.6876,-1.9729,-2.2427,-2.4869,-2.6954,-2.8586,-2.9678,-3.0151,-2.9941,-2.8996,-2.7284,-2.4787,-2.1511,-1.7478,-1.2732,-0.73359,-0.13724,0.50585,1.184,1.8843,2.5923,3.2932,3.9712,4.6105,5.1954,5.7106,6.1416,6.4753,6.7,6.8057,6.7847,6.6316,6.3436,5.9204,5.3646,4.6819,3.8805,2.9713,1.9682,0.88697,-0.25404,-1.4348,-2.6339,-3.8286,-4.9956,-6.1114,-7.1527,-8.097,-8.9229,-9.6107,-10.143,-10.504,-10.682,-10.668,-10.455,-10.044,-9.434,-8.6321,-7.6476
-1.1548,-1.447,-1.7429,-2.0327,-2.3059,-2.5524,-2.7619,-2.9251,-3.033,-3.0779,-3.0534,-2.9543,-2.7775,-2.5215,-2.1867,-1.7756,-1.2926,-0.74438,-0.13918,0.51278,1.1997,1.9084,2.6245,3.3329,4.0177,4.6629,5.2528,5.772,6.2059,6.5414,6.7667,6.8718,6.849,6.693,6.401,5.9727,5.4111,4.7216,3.9127,2.9955,1.9838,0.8939,-0.25598,-1.4456,-2.6533,-3.8563,-5.0311,-6.1541,-7.2019,-8.1517,-8.9822,-9.6735,-10.208,-10.57,-10.748,-10.733,-10.519,-10.103,-9.4893,-8.682,-7.6912
-1.1983,-1.4969,-1.7983,-2.0924,-2.3691,-2.6178,-2.8285,-2.9916,-3.0982,-3.1407,-3.1126,-3.009,-2.8267,-2.5642,-2.2222,-1.8033,-1.3121,-0.75517,-0.14113,0.51971,1.2154,1.9326,2.6568,3.3726,4.0641,4.7153,5.3102,5.8334,6.2703,6.6075,6.8333,6.9379,6.9134,6.7544,6.4584,6.0251,5.4575,4.7613,3.9449,3.0196,1.9995,0.90083,-0.25793,-1.4564,-2.6727,-3.884,-5.0667,-6.1969,-7.251,-8.2064,-9.0415,-9.7363,-10.273,-10.637,-10.815,-10.798,-10.582,-10.163,-9.5447,-8.7319,-7.7348
-1.2419,-1.5468,-1.8536,-2.1522,-2.4322,-2.6832,-2.8951,-3.0581,-3.1635,-3.2036,-3.1719,-3.0637,-2.8758,-2.607,-2.2578,-1.831,-1.3315,-0.76596,-0.14308,0.52664,1.2311,1.9567,2.689,3.4122,4.1106,4.7677,5.3676,5.8948,6.3346,6.6736,6.9,7.0039,6.9777,6.8159,6.5158,6.0775,5.504,4.8009,3.9771,3.0438,2.0152,0.90776,-0.25988,-1.4672,-2.6922,-3.9118,-5.1022,-6.2396,-7.3002,-8.2611,-9.1008,-9.7991,-10.338,-10.703,-10.881,-10.864,-10.645,-10.223,-9.6,-8.7818,-7.7784
-1.2855,-1.5967,-1.9089,-2.212,-2.4954,-2.7487,-2.9616,-3.1245,-3.2287,-3.2664,-3.2312,-3.1184,-2.925,-2.6497,-2.2933,-1.8588,-1.351,-0.77675,-0.14502,0.53357,1.2468,1.9809,2.7212,3.4519,4.157,4.8201,5.425,5.9562,6.3989,6.7396,6.9667,7.07,7.042,6.8773,6.5732,6.1299,5.5504,4.8406,4.0093,3.068,2.0309,0.91469,-0.26182,-1.478,-2.7116,-3.9395,-5.1378,-6.2823,-7.3494,-8.3159,-9.1601,-9.8619,-10.404,-10.77,-10.948,-10.929,-10.708,-10.283,-9.6553,-8.8317,-7.8219
-1.3291,-1.6466,-1.9643,-2.2718,-2.5586,-2.8141,-3.0282,-3.191,-3.2939,-3.3292,-3.2905,-3.1732,-2.9742,-2.6924,-2.3289,-1.8865,-1.3704,-0.78754,-0.14697,0.5405,1.2624,2.005,2.7534,3.4916,4.2035,4.8725,5.4824,6.0176,6.4632,6.8057,7.0333,7.1361,7.1063,6.9387,6.6306,6.1823,5.5969,4.8803,4.0415,3.0921,2.0466,0.92162,-0.26377,-1.4888,-2.7311,-3.9673,-5.1733,-6.3251,-7.3985,-8.3706,-9.2194,-9.9247,-10.469,-10.836,-11.015,-10.995,-10.771,-10.343,-9.7107,-8.8816,-7.8655
-1.3727,-1.6965,-2.0196,-2.3316,-2.6218,-2.8796,-3.0947,-3.2575,-3.3591,-3.392,-3.3498,-3.2279,-3.0233,-2.7352,-2.3644,-1.9143,-1.3898,-0.79832,-0.14892,0.54743,1.2781,2.0292,2.7856,3.5313,4.2499,4.9249,5.5399,6.079,6.5275,6.8718,7.1,7.2022,7.1706,7.0001,6.688,6.2347,5.6433,4.92,4.0737,3.1163,2.0622,0.92854,-0.26572,-1.4996,-2.7505,-3.995,-5.2089,-6.3678,-7.4477,-8.4253,-9.2786,-9.9876,-10.534,-10.903,-11.081,-11.06,-10.835,-10.402,-9.766,-8.9315,-7.9091
-1.4162,-1.7464,-2.0749,-2.3914,-2.6849,-2.945,-3.1613,-3.324,-3.4244,-3.4548,-3.4091,-3.2826,-3.0725,-2.7779,-2.4,-1.942,-1.4093,-0.80911,-0.15086,0.55436,1.2938,2.0534,2.8178,3.571,4.2964,4.9773,5.5973,6.1404,6.5918,6.9379,7.1667,7.2682,7.2349,7.0615,6.7454,6.2871,5.6898,4.9597,4.1059,3.1404,2.0779,0.93547,-0.26766,-1.5103,-2.7699,-4.0228,-5.2445,-6.4105,-7.4968,-8.48,-9.3379,-10.05,-10.599,-10.969,-11.148,-11.126,-10.898,-10.462,-9.8213,-8.9814,-7.9527
-1.4598,-1.7963,-2.1303,-2.4511,-2.7481,-3.0105,-3.2278,-3.3905,-3.4896,-3.5176,-3.4684,-3.3373,-3.1216,-2.8206,-2.4356,-1.9698,-1.4287,-0.8199,-0.15281,0.56128,1.3095,2.0775,2.85,3.6106,4.3428,5.0297,5.6547,6.2018,6.6561,7.0039,7.2333,7.3343,7.2992,7.1229,6.8028,6.3395,5.7362,4.9993,4.1381,3.1646,2.0936,0.9424,-0.26961,-1.5211,-2.7894,-4.0505,-5.28,-6.4533,-7.546,-8.5347,-9.3972,-10.113,-10.664,-11.036,-11.214,-11.191,-10.961,-10.522,-9.8767,-9.0313,-7.9962
-1.5034,-1.8462,-2.1856,-2.5109,-2.8113,-3.0759,-3.2944,-3.4569,-3.5548,-3.5804,-3.5277,-3.392,-3.1708,-2.8634,-2.4711,-1.9975,-1.4481,-0.83069,-0.15476,0.56821,1.3252,2.1017,2.8822,3.6503,4.3893,5.0821,5.7121,6.2632,6.7204,7.07,7.3,7.4004,7.3635,7.1843,6.8602,6.3919,5.7827,5.039,4.1703,3.1887,2.1093,0.94933,-0.27156,-1.5319,-2.8088,-4.0782,-5.3156,-6.496,-7.5952,-8.5894,-9.4565,-10.176,-10.73,-11.102,-11.281,-11.257,-11.024,-10.582,-9.932,-9.0812,-8.0398
-1.547,-1.8961,-2.2409,-2.5707,-2.8745,-3.1414,-3.3609,-3.5234,-3.6201,-3.6433,-3.587,-3.4467,-3.22,-2.9061,-2.5067,-2.0252,-1.4676,-0.84148,-0.1567,0.57514,1.3409,2.1258,2.9144,3.69,4.4357,5.1345,5.7695,6.3246,6.7847,7.1361,7.3667,7.4665,7.4278,7.2457,6.9176,6.4443,5.8291,5.0787,4.2025,3.2129,2.125,0.95626,-0.2735,-1.5427,-2.8283,-4.106,-5.3511,-6.5387,-7.6443,-8.6441,-9.5158,-10.239,-10.795,-11.169,-11.347,-11.322,-11.087,-10.642,-9.9873,-9.1311,-8.0834
-1.5905,-1.946,-2.2963,-2.6305,-2.9376,-3.2068,-3.4275,-3.5899,-3.6853,-3.7061,-3.6462,-3.5014,-3.2691,-2.9488,-2.5422,-2.053,-1.487,-0.85226,-0.15865,0.58207,1.3565,2.15,2.9466,3.7297,4.4821,5.1869,5.8269,6.386,6.849,7.2022,7.4333,7.5325,7.4922,7.3071,6.975,6.4967,5.8756,5.1184,4.2347,3.2371,2.1407,0.96319,-0.27545,-1.5535,-2.8477,-4.1337,-5.3867,-6.5815,-7.6935,-8.6988,-9.5751,-10.302,-10.86,-11.235,-11.414,-11.387,-11.15,-10.701,-10.043,-9.181,-8.127
-1.6341,-1.9959,-2.3516,-2.6903,-3.0008,-3.2722,-3.494,-3.6564,-3.7505,-3.7689,-3.7055,-3.5561,-3.3183,-2.9916,-2.5778,-2.0807,-1.5065,-0.86305,-0.1606,0.589,1.3722,2.1741,2.9788,3.7693,4.5286,5.2392,5.8843,6.4474,6.9134,7.2682,7.5,7.5986,7.5565,7.3685,7.0325,6.5491,5.922,5.158,4.2669,3.2612,2.1563,0.97012,-0.2774,-1.5643,-2.8671,-4.1615,-5.4222,-6.6242,-7.7426,-8.7535,-9.6344,-10.364,-10.925,-11.302,-11.48,-11.453,-11.214,-10.761,-10.098,-9.2309,-8.1705
