 threads,cpuTime,wallClockTime
           1 ,   5.5999999999999994E-002 ,   5.6365265991189517E-002
           2 ,  0.10000000000000001      ,   5.0669571995967999E-002
           3 ,  0.13999999999999999      ,   4.6529111001291312E-002
           4 ,  0.18800000000000000      ,   4.6651593002025038E-002
           5 ,  0.31199999999999994      ,   6.3572208004188724E-002
           6 ,  0.41600000000000004      ,   6.9369998003821820E-002
           7 ,  0.50800000000000001      ,   7.5226617991575040E-002
           8 ,  0.60799999999999987      ,   7.9649400999187492E-002
           9 ,  0.66000000000000014      ,  0.10805830400204286     
          10 ,  0.69200000000000017      ,  0.11088846198981628     
          11 ,  0.79600000000000026      ,  0.12441732700972352     
          12 ,  0.85200000000000031      ,  0.13252843701047823     
          13 ,  0.94000000000000039      ,  0.14064694900298491     
          14 ,   1.0240000000000000      ,  0.14650331898883451     
          15 ,   1.1080000000000005      ,  0.15810785800567828     
          16 ,   1.1799999999999997      ,  0.17068981300690211     
