 effective h  0.10000000000000010      maxError   7.2588951082763640E-003
 effective h   5.0000000000000225E-002 maxError   1.8110286431292041E-003
 effective h   2.5000000000000269E-002 maxError   4.5196456180884615E-004
 effective h   1.2500000000000257E-002 maxError   1.1287147257355024E-004
           1 threads:    9.3837999999999991E-002 cpu_time.  0.10028370900545269      wall clock time.
 effective h  0.10000000000000010      maxError   7.2588951082763640E-003
 effective h   5.0000000000000225E-002 maxError   1.8110286431292041E-003
 effective h   2.5000000000000269E-002 maxError   4.5196456180884615E-004
 effective h   1.2500000000000257E-002 maxError   1.1287147257266206E-004
           2 threads:   0.12446499999999999      cpu_time.   6.2367262027692050E-002 wall clock time.
 effective h  0.10000000000000010      maxError   7.2588951082763640E-003
 effective h   5.0000000000000225E-002 maxError   1.8110286431292041E-003
 effective h   2.5000000000000269E-002 maxError   4.5196456182594364E-004
 effective h   1.2500000000000257E-002 maxError   1.1287147256910975E-004
           3 threads:   0.14818000000000001      cpu_time.   4.9479496025014669E-002 wall clock time.
 effective h  0.10000000000000010      maxError   7.2588951082763640E-003
 effective h   5.0000000000000225E-002 maxError   1.8110286431260955E-003
 effective h   2.5000000000000269E-002 maxError   4.5196456182083661E-004
 effective h   1.2500000000000257E-002 maxError   1.1287147256910975E-004
           4 threads:   0.17436899999999994      cpu_time.   4.3659486982505769E-002 wall clock time.
 effective h  0.10000000000000010      maxError   7.2588951082728113E-003
 effective h   5.0000000000000225E-002 maxError   1.8110286431292041E-003
 effective h   2.5000000000000269E-002 maxError   4.5196456180884615E-004
 effective h   1.2500000000000257E-002 maxError   1.1287147258110016E-004
           5 threads:   0.20159399999999994      cpu_time.   4.0370578004512936E-002 wall clock time.
 effective h  0.10000000000000010      maxError   7.2588951082788065E-003
 effective h   5.0000000000000225E-002 maxError   1.8110286431263175E-003
 effective h   2.5000000000000269E-002 maxError   4.5196456180884615E-004
 effective h   1.2500000000000257E-002 maxError   1.1287147257177388E-004
           6 threads:   0.22855199999999998      cpu_time.   3.8137124967761338E-002 wall clock time.
 effective h  0.10000000000000010      maxError   7.2588951082772522E-003
 effective h   5.0000000000000225E-002 maxError   1.8110286431298702E-003
 effective h   2.5000000000000269E-002 maxError   4.5196456182505546E-004
 effective h   1.2500000000000257E-002 maxError   1.1287147256910975E-004
           7 threads:   0.26504900000000020      cpu_time.   3.7912006024271250E-002 wall clock time.
 effective h  0.10000000000000010      maxError   7.2588951082754758E-003
 effective h   5.0000000000000225E-002 maxError   1.8110286431314245E-003
 effective h   2.5000000000000269E-002 maxError   4.5196456180951233E-004
 effective h   1.2500000000000257E-002 maxError   1.1287147256955343E-004
           8 threads:   0.30742899999999995      cpu_time.   3.8473500986583531E-002 wall clock time.
 effective h  0.10000000000000010      maxError   7.2588951082750318E-003
 effective h   5.0000000000000225E-002 maxError   1.8110286431314245E-003
 effective h   2.5000000000000269E-002 maxError   4.5196456180973752E-004
 effective h   1.2500000000000257E-002 maxError   1.1287147257310615E-004
           9 threads:   0.34867800000000004      cpu_time.   3.8777924026362598E-002 wall clock time.
 effective h  0.10000000000000010      maxError   7.2588951082763640E-003
 effective h   5.0000000000000225E-002 maxError   1.8110286431294261E-003
 effective h   2.5000000000000269E-002 maxError   4.5196456181128869E-004
 effective h   1.2500000000000257E-002 maxError   1.1287147256200392E-004
          10 threads:   0.40377000000000018      cpu_time.   4.0410951012745500E-002 wall clock time.
 effective h  0.10000000000000010      maxError   7.2588951082768081E-003
 effective h   5.0000000000000225E-002 maxError   1.8110286431334229E-003
 effective h   2.5000000000000269E-002 maxError   4.5196456181262410E-004
 effective h   1.2500000000000257E-002 maxError   1.1287147257110774E-004
          11 threads:   0.47094600000000009      cpu_time.   4.2954631033353508E-002 wall clock time.
 effective h  0.10000000000000010      maxError   7.2588951082761420E-003
 effective h   5.0000000000000225E-002 maxError   1.8110286431376418E-003
 effective h   2.5000000000000269E-002 maxError   4.5196456180884615E-004
 effective h   1.2500000000000257E-002 maxError   1.1287147258176629E-004
          12 threads:   0.51513799999999987      cpu_time.   4.2959832004271448E-002 wall clock time.
 effective h  0.10000000000000010      maxError   7.2588951082728113E-003
 effective h   5.0000000000000225E-002 maxError   1.8110286431371977E-003
 effective h   2.5000000000000269E-002 maxError   4.5196456180573758E-004
 effective h   1.2500000000000257E-002 maxError   1.1287147256644481E-004
          13 threads:   0.58501000000000003      cpu_time.   4.5035090995952487E-002 wall clock time.
 effective h  0.10000000000000010      maxError   7.2588951082763640E-003
 effective h   5.0000000000000225E-002 maxError   1.8110286431309804E-003
 effective h   2.5000000000000269E-002 maxError   4.5196456180662890E-004
 effective h   1.2500000000000257E-002 maxError   1.1287147256600113E-004
          14 threads:   0.67193900000000006      cpu_time.   4.8026703996583819E-002 wall clock time.
 effective h  0.10000000000000010      maxError   7.2588951082732554E-003
 effective h   5.0000000000000225E-002 maxError   1.8110286431334229E-003
 effective h   2.5000000000000269E-002 maxError   4.5196456180463055E-004
 effective h   1.2500000000000257E-002 maxError   1.1287147255867365E-004
          15 threads:   0.76408400000000043      cpu_time.   5.0985882000532001E-002 wall clock time.
 effective h  0.10000000000000010      maxError   7.2588951082785845E-003
 effective h   5.0000000000000225E-002 maxError   1.8110286431391961E-003
 effective h   2.5000000000000269E-002 maxError   4.5196456180818007E-004
 effective h   1.2500000000000257E-002 maxError   1.1287147256466845E-004
          16 threads:   0.88367600000000035      cpu_time.   5.5259501968976110E-002 wall clock time.
